tarea3/output/gtkwave/contadorB_verif.vcd
$date
	Sat May 16 08:51:39 2020
$end
$version
	Icarus Verilog
$end
$timescale
	1ps
$end
$scope module tb_top $end
$var wire 1 ! rco $end
$var wire 2 " modo [1:0] $end
$var wire 1 # enable $end
$var wire 1 $ clock $end
$var wire 4 % Q [3:0] $end
$var wire 4 & D [3:0] $end
$scope module clocks $end
$var reg 1 $ clock $end
$upscope $end
$scope module dut $end
$var wire 1 ' _014_ $end
$var wire 1 ( _015_ $end
$var wire 1 ) _020_ $end
$var wire 1 * _021_ $end
$var wire 1 + _022_ $end
$var wire 1 , _023_ $end
$var wire 1 - _024_ $end
$var wire 1 . _025_ $end
$var wire 1 / _026_ $end
$var wire 1 0 _027_ $end
$var wire 1 1 _028_ $end
$var wire 1 2 _029_ $end
$var wire 1 3 _030_ $end
$var wire 1 4 _031_ $end
$var wire 1 5 _032_ $end
$var wire 1 6 _033_ $end
$var wire 1 7 _034_ $end
$var wire 1 8 _035_ $end
$var wire 1 9 _036_ $end
$var wire 1 : _037_ $end
$var wire 1 ; _038_ $end
$var wire 1 < _039_ $end
$var wire 1 = _040_ $end
$var wire 1 > _041_ $end
$var wire 1 ? _042_ $end
$var wire 1 @ _043_ $end
$var wire 1 A _044_ $end
$var wire 1 B _045_ $end
$var wire 1 C _046_ $end
$var wire 1 D _047_ $end
$var wire 1 E _048_ $end
$var wire 1 F _049_ $end
$var wire 1 G _050_ $end
$var wire 1 H _052_ $end
$var wire 1 I _054_ $end
$var wire 1 J _055_ $end
$var wire 1 K _056_ $end
$var wire 1 L _057_ $end
$var wire 1 M _064_ $end
$var wire 1 N _067_ $end
$var wire 1 O _068_ $end
$var wire 1 P _069_ $end
$var wire 1 $ clk $end
$var wire 2 Q modo [1:0] $end
$var wire 1 # enable $end
$var wire 32 R _066_ [31:0] $end
$var wire 32 S _065_ [31:0] $end
$var wire 32 T _063_ [31:0] $end
$var wire 32 U _062_ [31:0] $end
$var wire 32 V _061_ [31:0] $end
$var wire 4 W _060_ [3:0] $end
$var wire 4 X _059_ [3:0] $end
$var wire 16 Y _058_ [15:0] $end
$var wire 1 Z _053_ $end
$var wire 4 [ _051_ [3:0] $end
$var wire 2 \ _019_ [1:0] $end
$var wire 4 ] _018_ [3:0] $end
$var wire 4 ^ _017_ [3:0] $end
$var wire 4 _ _016_ [3:0] $end
$var wire 2 ` _013_ [1:0] $end
$var wire 2 a _012_ [1:0] $end
$var wire 2 b _011_ [1:0] $end
$var wire 2 c _010_ [1:0] $end
$var wire 2 d _009_ [1:0] $end
$var wire 2 e _008_ [1:0] $end
$var wire 2 f _007_ [1:0] $end
$var wire 2 g _006_ [1:0] $end
$var wire 2 h _005_ [1:0] $end
$var wire 2 i _004_ [1:0] $end
$var wire 2 j _003_ [1:0] $end
$var wire 32 k _002_ [31:0] $end
$var wire 1 l _001_ $end
$var wire 4 m _000_ [3:0] $end
$var wire 4 n D [3:0] $end
$var reg 4 o Q [3:0] $end
$var reg 1 ! rco $end
$upscope $end
$scope module tb $end
$var wire 4 p Q [3:0] $end
$var wire 1 $ clk $end
$var wire 1 ! rco $end
$var reg 4 q D [3:0] $end
$var reg 1 # enable $end
$var reg 2 r modo [1:0] $end
$var integer 32 s log [31:0] $end
$scope module sb $end
$var wire 4 t D [3:0] $end
$var wire 1 $ clk $end
$var wire 1 # enable $end
$var wire 2 u modo [1:0] $end
$var reg 4 v sb_Q [3:0] $end
$var reg 1 w sb_rco $end
$upscope $end
$scope task checker $end
$upscope $end
$scope task drv_init $end
$upscope $end
$scope task drv_request $end
$upscope $end
$upscope $end
$upscope $end
$enddefinitions $end
#0
$dumpvars
xw
bx v
bx u
bx t
b10 s
bx r
bx q
bx p
bx o
bx n
bx m
xl
bzxxxx k
bx j
bx i
bzx h
bx g
bxz f
bx e
bx d
bx c
bx b
bx a
bx `
bxzzz _
bzxz ^
bzxzz ]
bx \
bx [
xZ
bx Y
bx X
bx W
bzxxxz V
bzxxzz U
bzxxz T
bzxxz S
bzxzz R
bx Q
xP
xO
xN
xM
xL
xK
xJ
xI
xH
xG
xF
xE
xD
xC
xB
xA
x@
x?
x>
x=
x<
x;
x:
x9
x8
x7
x6
x5
x4
x3
x2
x1
x0
x/
x.
x-
x,
x+
x*
x)
x(
x'
bx &
bx %
0$
x#
bx "
x!
$end
#5000
1$
#10000
1#
b0 m
b0 W
1M
b0 X
b0x e
b0 `
b0 a
b0 c
b0 b
1I
02
b1 d
b0x [
0L
0K
0J
b0 \
1(
14
13
b0 Y
b11 "
b11 Q
b11 r
b11 u
b0 &
b0 n
b0 q
b0 t
0$
#15000
1l
1Z
1H
b1 e
b1 [
1G
0F
0D
0C
0E
0B
1A
06
0>
0=
0;
09
1@
05
0<
0:
07
1)
10
1/
1-
1+
1?
11
1.
1,
1*
18
bz0zz R
b1z f
0O
bz111z V
bz1 h
0'
bz11zz U
0P
b11 g
b1zzz _
b1 i
bz1zz ]
bz00z S
bz1z ^
b10 j
0N
bz00z T
bz0001 k
b0 %
b0 o
b0 p
0w
b0 v
1$
#20000
0l
b1 m
0Z
0H
b1 W
b0 e
b1 X
b0 a
b10 `
b0 c
b0 b
0I
12
b10 d
b0 [
b1000000000000 Y
1L
0K
0J
b11 \
0(
14
13
b0 "
b0 Q
b0 r
b0 u
0$
#25000
1l
1Z
1H
b10 m
b10 e
b10 W
b1000 [
1A
1F
b10 X
1@
17
1?
b0 `
0*
b10 a
08
1O
1'
b0 i
b10000000000000 Y
bz11z S
b11 j
1N
bz000z V
bz0010 k
b1 %
b1 o
b1 p
0!
b1 v
1$
#30000
0$
#35000
0l
0Z
b11 m
0H
b11 W
b0 e
b11 X
b0 [
19
0?
0F
0+
b10 `
07
1*
bz0 h
b11000000000000 Y
b1 i
bz0z ^
0N
bz0011 k
bz000z V
1!
b10 %
b10 o
b10 p
b10 v
1$
#40000
0$
#45000
b100 m
b100 W
b10 c
b100 X
0A
0@
b0 `
b0 a
09
bz1zz R
1+
bz00zz U
1P
b10 g
b100000000000000 Y
bz1 h
bz01z T
bz001z V
bz0100 k
b11 %
b11 o
b11 p
0!
b11 v
1$
#50000
0$
#55000
b101 m
b101 W
0G
b0 b
1D
b101 X
1>
00
b10 c
b10 `
0O
0P
b101000000000000 Y
b1 g
bz0zz ]
b11 i
bz10z S
bz1z ^
bz1 h
b10 j
bz00z T
bz0101 k
bz001z V
b100 %
b100 o
b100 p
b100 v
1$
#60000
0$
#65000
b110 m
b110 W
b110 X
1G
0D
b0 `
b10 a
0>
10
b10 i
b110000000000000 Y
bz11z S
b11 j
1N
bz010z V
bz0110 k
b101 %
b101 o
b101 p
b101 v
1$
#70000
0$
#75000
b111 m
0G
b111 W
1D
1C
b111 X
1=
0/
b10 `
bz0 h
b111000000000000 Y
b11 i
bz0z ^
0N
bz0111 k
bz010z V
b110 %
b110 o
b110 p
b110 v
1$
#80000
0$
#85000
b1000 m
b10 b
b1000 W
1G
b0 c
1A
b1000 X
0D
1:
0C
b0 `
0,
b0 a
0=
1/
bz01zz U
b0 g
b1000000000000000 Y
bz1 h
bz11z T
bz011z V
bz1000 k
b111 %
b111 o
b111 p
b111 v
1$
#90000
0$
#95000
1l
1Z
1H
b10 e
b1001 m
b1000 [
b1001 W
1F
1E
b1001 X
16
0A
0)
b10 b
b0 c
b10 `
0:
1,
b1001000000000000 Y
b11 g
b0zzz _
bz0zz R
bz1zz ]
b11 i
bz00z S
bz1z ^
bz1 h
b0 j
bz00z T
bz1001 k
bz011z V
b1000 %
b1000 o
b1000 p
b1000 v
1$
#100000
0$
#105000
0l
0Z
0H
b1010 m
b0 e
b1010 W
b0 [
b1010 X
0F
0E
b0 `
b10 a
06
1O
1)
b10 i
b1010000000000000 Y
bz11z S
b1 j
1N
bz100z V
bz1010 k
b1001 %
b1001 o
b1001 p
1!
b1001 v
1$
#110000
0$
#115000
b1011 m
0G
1D
b1011 W
1C
1B
b1011 X
1;
0-
b10 `
bz0 h
b1011000000000000 Y
b11 i
bz0z ^
0N
bz1011 k
bz100z V
0!
b1010 %
b1010 o
b1010 p
b1010 v
1$
#120000
0$
#125000
b1100 m
b1100 W
0G
1D
b10 c
b1100 X
1C
1<
1B
b0 `
0.
b0 a
0;
bz1zz R
1-
bz10zz U
1P
b10 g
b1100000000000000 Y
bz1 h
bz01z T
bz101z V
bz1100 k
b1011 %
b1011 o
b1011 p
b1011 v
1$
#130000
0$
#135000
b1101 m
b1101 W
1G
0D
b10 b
b1101 X
0C
0B
b10 c
b10 `
0<
1.
b0z f
0O
0P
b1101000000000000 Y
b11 g
bz0zz ]
b11 i
bz10z S
bz1z ^
bz1 h
b10 j
bz00z T
bz1101 k
bz101z V
b1100 %
b1100 o
b1100 p
b1100 v
1$
#140000
0$
#145000
b1110 m
b1110 W
b1110 X
b0 `
b10 a
b10 i
b1110000000000000 Y
bz11z S
b11 j
1N
bz110z V
bz1110 k
b1101 %
b1101 o
b1101 p
b1101 v
1$
#150000
0$
#155000
b1111 m
b1111 W
b1111 X
b10 `
bz0 h
b1111000000000000 Y
b11 i
bz0z ^
0N
bz1111 k
bz110z V
b1110 %
b1110 o
b1110 p
b1110 v
1$
#160000
0$
#165000
1l
1Z
1H
b10 e
b0 m
b0 b
b1000 [
b0 W
1F
b0 c
1E
b0 X
15
b0 `
01
b0 a
bz11zz U
b10 g
b0 Y
bz1 h
bz11z T
bz111z V
bz0000 k
b1111 %
b1111 o
b1111 p
b1111 v
1$
#170000
0$
#175000
0l
0Z
0H
b1 m
b0 e
b1 W
b0 [
0F
b1 X
0E
1G
05
1A
b0 b
b0 c
0C
0B
1@
0D
1?
b10 `
11
0:
0<
07
0=
0;
09
0>
18
06
1,
1.
b1z f
1*
1/
1-
1+
10
0'
1)
b1000000000000 Y
b11 g
b1zzz _
bz0zz R
bz1zz ]
b1 i
bz00z S
bz1z ^
bz1 h
b10 j
bz00z T
bz0001 k
bz111z V
1!
b0 %
b0 o
b0 p
1w
b0 v
1$
#180000
b1111 m
b10 a
b10 c
b10 b
b1111 X
0l
0Z
b1111 W
b10 `
1M
1K
04
b111100000000 Y
b10 d
0L
b10 \
1(
b1 "
b1 Q
b1 r
b1 u
0$
#185000
b1110 m
1l
b1110 W
1Z
1H
1F
b1110 X
0A
1E
0@
b10 e
15
b0 `
b10 a
0?
01
08
b100 [
b111000000000 Y
b10 g
1'
b0z f
0N
bz111z V
b11 j
bz11z T
bz0z ^
bz11z S
bz1zz R
bz0zz ]
b11 i
b0zzz _
bz0000 k
b1111 %
b1111 o
b1111 p
0!
b1111 v
1w
1$
#190000
0$
#195000
b1101 m
b1101 W
0F
0E
b1101 X
05
b10 `
11
b0 a
bz10zz U
b11 g
b110100000000 Y
bz0 h
bz00z T
bz110z V
bz1111 k
1!
b1110 %
b1110 o
b1110 p
b1110 v
0w
1$
#200000
0$
#205000
b1100 m
b1100 W
b1100 X
b10 c
b0 `
b0 a
b10 i
b110000000000 Y
1N
bz1 h
bz1110 k
bz110z V
bz11z S
bz1z ^
b1101 %
b1101 o
b1101 p
b1101 v
1$
#210000
0$
#215000
b1011 m
b1011 W
b0 c
b1011 X
b10 `
b10 a
b11 i
b101100000000 Y
bz10z S
b10 j
0N
bz101z V
bz1101 k
b1100 %
b1100 o
b1100 p
b1100 v
1$
#220000
0$
#225000
b1010 m
0G
b1010 W
1D
1C
b1010 X
1B
b10 b
1<
b0 `
b10 a
0.
b101000000000 Y
b10 g
bz10zz U
1P
1O
b1z f
0N
bz101z V
bz01z T
bz0z ^
b1 j
bz11z S
bz1zz R
bz1zz ]
bz1100 k
b1011 %
b1011 o
b1011 p
b1011 v
1$
#230000
0$
#235000
b1001 m
b1001 W
b1001 X
0<
b10 `
1.
b0 a
1;
bz0zz R
0-
bz01zz U
0P
b11 g
b100100000000 Y
bz0 h
bz00z T
bz100z V
bz1011 k
b1010 %
b1010 o
b1010 p
b1010 v
1$
#240000
0$
#245000
b1000 m
b10 b
b1000 W
1G
0D
b1000 X
b0 c
0C
0B
b0 `
b0 a
0;
1-
b10 i
b100000000000 Y
1O
1N
bz1 h
bz1010 k
bz100z V
bz11z S
bz1z ^
b1001 %
b1001 o
b1001 p
b1001 v
1$
#250000
0$
#255000
b0 b
b111 m
b111 W
b10 c
b111 X
1F
1E
b10 `
b10 a
16
0O
0)
b11 i
b11100000000 Y
bz00z S
b0 j
0N
bz011z V
bz1001 k
b1000 %
b1000 o
b1000 p
b1000 v
1$
#260000
0$
#265000
b110 m
b110 W
b110 X
1A
0F
1:
b0 `
b10 a
0E
0,
06
b11000000000 Y
1)
b0 g
0N
bz011z V
bz11z T
bz0z ^
b11 j
bz11z S
bz1zz R
bz0zz ]
b1zzz _
bz1000 k
b111 %
b111 o
b111 p
b111 v
1$
#270000
0$
#275000
b101 m
b101 W
0G
0A
b101 X
1D
0:
1C
b10 `
1,
b0 a
1=
0/
bz00zz U
b1 g
b10100000000 Y
bz0 h
bz00z T
bz010z V
bz0111 k
b110 %
b110 o
b110 p
b110 v
1$
#280000
0$
#285000
b100 m
b100 W
1G
b100 X
b10 c
0D
0C
b0 `
b0 a
0=
1/
b10 i
b10000000000 Y
1N
bz1 h
bz0110 k
bz010z V
bz11z S
bz1z ^
b101 %
b101 o
b101 p
b101 v
1$
#290000
0$
#295000
b11 m
b11 W
b0 c
b11 X
0G
1D
b10 `
b10 a
1>
00
b11 i
b1100000000 Y
bz10z S
b10 j
0N
bz001z V
bz0101 k
b100 %
b100 o
b100 p
b100 v
1$
#300000
0$
#305000
b10 m
b10 W
b10 X
b0 b
1G
b0 `
b10 a
0D
0>
b1000000000 Y
10
bz00zz U
1P
1O
b10 g
0N
bz001z V
b11 j
bz01z T
bz0z ^
b1 i
bz11z S
bz1zz R
bz1zz ]
bz0100 k
b11 %
b11 o
b11 p
b11 v
1$
#310000
0$
#315000
b1 m
b1 W
b1 X
1A
1@
b10 `
b0 a
19
bz0zz R
0+
bz11zz U
0P
b11 g
b100000000 Y
bz0 h
bz00z T
bz000z V
bz0011 k
b10 %
b10 o
b10 p
b10 v
1$
#320000
0$
#325000
b0 m
b0 b
b0 W
1?
1F
b0 X
b0 c
1A
17
1@
b0 `
0*
b0 a
09
1+
b0 i
b0 Y
1O
1N
bz1 h
bz0010 k
bz000z V
bz11z S
bz1z ^
b1 %
b1 o
b1 p
b1 v
1$
#330000
0$
#335000
b10 b
b1111 m
0l
0Z
b1111 W
0H
b10 c
0F
b1111 X
b0 e
07
b10 `
1*
b10 a
18
b0 [
0O
0'
b1 i
b111100000000 Y
bz00z S
b10 j
0N
bz111z V
bz0001 k
b0 %
b0 o
b0 p
b0 v
1$
#340000
1H
b1101 m
b1 e
b1101 X
1l
1Z
b1101 W
b10 [
b1 `
b0 a
b1 c
b1 b
1M
1J
03
b11010000 Y
b1 d
0K
b1 \
14
b10 "
b10 Q
b10 r
b10 u
0$
#345000
0l
0Z
0H
b1010 m
b0 e
b1010 W
b0 [
b1010 X
b0 c
0A
0@
b0 `
b1 a
0?
08
b10100000 Y
bz10zz U
1'
b0z f
b11 j
1N
bz110z V
bz11z S
bz1zz R
bz0zz ]
b10 i
b0zzz _
bz1110 k
b1101 %
b1101 o
b1101 p
1w
b1101 v
1$
#350000
0$
#355000
b111 m
0G
1D
b111 W
1C
b0 b
b1 c
1B
b111 X
1;
0-
b1 `
bz01zz U
1O
b1z f
bz0 h
b1110000 Y
b1 j
bz11z S
bz0zz R
bz1zz ]
b11 i
bz0z ^
0N
bz1011 k
bz100z V
0!
b1010 %
b1010 o
b1010 p
b1010 v
0w
1$
#360000
0$
#365000
1l
1Z
1H
b100 m
b1 e
b100 W
1G
b10 [
b100 X
0D
1A
0C
1:
b0 `
b0 a
0B
0,
0;
b1000000 Y
1-
0O
b0 g
bz1 h
bz11z T
bz011z V
b11 j
bz1zz R
bz0zz ]
b1zzz _
bz1000 k
b111 %
b111 o
b111 p
b111 v
1$
#370000
0$
#375000
0l
0Z
0H
b1 m
b0 e
b1 W
b0 [
b0 c
b1 X
0A
0G
0:
0C
1D
b1 `
1,
0=
1>
1/
00
bz00zz U
b10000 Y
b1 g
b11 i
bz10z S
bz1z ^
bz1 h
b10 j
bz00z T
bz0101 k
bz001z V
1!
b100 %
b100 o
b100 p
b100 v
1$
#380000
0$
#385000
1l
1Z
1H
b1 e
b1110 m
b10 [
1A
b1110 W
1@
1?
1F
b1110 X
b1 b
b1 c
1G
17
0D
b0 `
0*
b1 a
0>
1O
10
b11100000 Y
bz11zz U
b11 g
b11 j
1N
bz000z V
b0 i
bz11z S
bz0zz R
bz1zz ]
bz0010 k
b1 %
b1 o
b1 p
0!
b1 v
1$
#390000
0$
#395000
0l
0Z
0H
b1011 m
b0 e
b1011 W
b0 [
b0 c
0A
b1011 X
0@
0?
0F
b1 `
07
bz10zz U
0O
b0z f
1*
bz0 h
b10110000 Y
b0zzz _
bz1zz R
bz0zz ]
b11 i
bz0z ^
0N
bz1111 k
bz110z V
1!
b1110 %
b1110 o
b1110 p
1w
b1110 v
1$
#400000
0$
#405000
b1000 m
0G
1D
b1000 W
1C
1B
b1000 X
b1 b
1<
b0 `
0.
b0 a
b10 g
b10000000 Y
bz10zz U
1P
1O
b1z f
bz1 h
bz01z T
bz101z V
b1 j
bz11z S
bz1zz R
bz1zz ]
bz1100 k
b1011 %
b1011 o
b1011 p
0!
b1011 v
0w
1$
#410000
0$
#415000
b101 m
b0 b
1G
b101 W
0D
0C
b1 c
b101 X
0B
1F
0<
1E
b1 `
1.
0;
16
bz0zz R
0O
1-
0)
bz01zz U
0P
b1010000 Y
b11 g
b11 i
bz00z S
bz1z ^
bz1 h
b0 j
bz00z T
bz1001 k
bz011z V
b1000 %
b1000 o
b1000 p
b1000 v
1$
#420000
0$
#425000
b10 m
b10 W
b10 X
b0 c
0F
b0 `
b1 a
0E
06
b10 i
b100000 Y
1)
bz00zz U
b1 g
1N
bz010z V
b11 j
bz11z S
bz1zz R
bz0zz ]
b1zzz _
bz0110 k
b101 %
b101 o
b101 p
b101 v
1$
#430000
0$
#435000
1l
1Z
1H
b1 e
b1111 m
b10 [
b1111 W
1A
b1 b
b1 c
1@
b1111 X
19
0+
b1 `
bz11zz U
1O
b11 g
bz0 h
b11110000 Y
bz11z S
bz0zz R
bz1zz ]
b1 i
bz0z ^
0N
bz0011 k
bz000z V
b10 %
b10 o
b10 p
b10 v
1$
#440000
0$
#445000
0l
0Z
b1100 m
0H
b1100 W
b0 e
1F
b1100 X
b0 [
1E
0A
15
b0 `
b0 a
0@
01
09
b10 g
b11000000 Y
0O
1+
b0z f
bz1 h
bz11z T
bz111z V
bz1zz R
bz0zz ]
b11 i
b0zzz _
bz0000 k
b1111 %
b1111 o
b1111 p
1!
1w
b1111 v
1$
#450000
0$
#455000
b1001 m
b1001 W
0F
b0 c
b1001 X
0E
05
b1 `
11
bz10zz U
b10010000 Y
b11 g
b11 i
bz10z S
bz1z ^
bz1 h
b10 j
bz00z T
bz1101 k
bz101z V
0!
b1100 %
b1100 o
b1100 p
b1100 v
0w
1$
#460000
0$
#465000
b110 m
b110 W
b110 X
b0 b
b1 c
b0 `
b1 a
1O
b10 i
b1100000 Y
bz01zz U
b1z f
1N
bz100z V
b1 j
bz11z S
bz0zz R
bz1zz ]
bz1010 k
b1001 %
b1001 o
b1001 p
b1001 v
1$
#470000
0$
#475000
b11 m
0G
b11 W
1D
b0 c
1C
b11 X
1=
0/
b1 `
bz00zz U
0O
b1 g
bz0 h
b110000 Y
b1zzz _
b11 j
bz1zz R
bz0zz ]
b11 i
bz0z ^
0N
bz0111 k
bz010z V
b110 %
b110 o
b110 p
b110 v
1$
#480000
0$
#485000
b0 m
b0 W
1G
b0 X
b0 b
0D
0C
b0 `
b0 a
0=
1/
b0 Y
bz00zz U
1P
1O
b10 g
bz1 h
bz01z T
bz001z V
b1 i
bz11z S
bz1zz R
bz1zz ]
bz0100 k
b11 %
b11 o
b11 p
b11 v
1$
#490000
0$
#495000
1l
1Z
1H
b1101 m
b1 b
b1 e
b1101 W
b10 [
b1 c
b1101 X
1A
0F
1@
1?
b1 `
07
09
18
bz0zz R
1*
0O
1+
0'
bz11zz U
0P
b11010000 Y
b11 g
b1 i
bz00z S
bz1z ^
bz1 h
b10 j
bz00z T
bz0001 k
bz111z V
b0 %
b0 o
b0 p
b0 v
1$
#500000
0$
#505000
0l
0Z
0H
b1010 m
b0 e
b1010 W
b0 [
b1010 X
b0 c
0A
0@
b0 `
b1 a
0?
08
b10100000 Y
bz10zz U
1'
b0z f
b11 j
1N
bz110z V
bz11z S
bz1zz R
bz0zz ]
b10 i
b0zzz _
bz1110 k
b1101 %
b1101 o
b1101 p
1!
1w
b1101 v
1$
#510000
0$
#515000
b111 m
0G
1D
b111 W
1C
b0 b
b1 c
1B
b111 X
1;
0-
b1 `
bz01zz U
1O
b1z f
bz0 h
b1110000 Y
b1 j
bz11z S
bz0zz R
bz1zz ]
b11 i
bz0z ^
0N
bz1011 k
bz100z V
0!
b1010 %
b1010 o
b1010 p
b1010 v
0w
1$
#520000
0$
#525000
1l
1Z
1H
b100 m
b1 e
b100 W
1G
b10 [
b100 X
0D
1A
0C
1:
b0 `
b0 a
0B
0,
0;
b1000000 Y
1-
0O
b0 g
bz1 h
bz11z T
bz011z V
b11 j
bz1zz R
bz0zz ]
b1zzz _
bz1000 k
b111 %
b111 o
b111 p
b111 v
1$
#530000
0$
#535000
0l
0Z
0H
b1 m
b0 e
b1 W
b0 [
b0 c
b1 X
0A
0G
0:
0C
1D
b1 `
1,
0=
1>
1/
00
bz00zz U
b10000 Y
b1 g
b11 i
bz10z S
bz1z ^
bz1 h
b10 j
bz00z T
bz0101 k
bz001z V
1!
b100 %
b100 o
b100 p
b100 v
1$
#540000
0$
#545000
1l
1Z
1H
b1 e
b1110 m
b10 [
1A
b1110 W
1@
1?
1F
b1110 X
b1 b
b1 c
1G
17
0D
b0 `
0*
b1 a
0>
1O
10
b11100000 Y
bz11zz U
b11 g
b11 j
1N
bz000z V
b0 i
bz11z S
bz0zz R
bz1zz ]
bz0010 k
b1 %
b1 o
b1 p
0!
b1 v
1$
#550000
0$
#555000
0l
0Z
0H
b1011 m
b0 e
b1011 W
b0 [
b0 c
0A
b1011 X
0@
0?
0F
b1 `
07
bz10zz U
0O
b0z f
1*
bz0 h
b10110000 Y
b0zzz _
bz1zz R
bz0zz ]
b11 i
bz0z ^
0N
bz1111 k
bz110z V
1!
b1110 %
b1110 o
b1110 p
1w
b1110 v
1$
