tarea3/output/gtkwave/contadorC_verif.vcd
$date
	Sat May 16 08:51:39 2020
$end
$version
	Icarus Verilog
$end
$timescale
	1ps
$end
$scope module tb_top $end
$var wire 1 ! rco $end
$var wire 2 " modo [1:0] $end
$var wire 1 # enable $end
$var wire 1 $ clock $end
$var wire 4 % Q [3:0] $end
$var wire 4 & D [3:0] $end
$scope module clocks $end
$var reg 1 $ clock $end
$upscope $end
$scope module dut $end
$var wire 1 ' _011_ $end
$var wire 1 ( _013_ $end
$var wire 1 ) _016_ $end
$var wire 1 * _017_ $end
$var wire 1 + _018_ $end
$var wire 1 , _019_ $end
$var wire 1 - _020_ $end
$var wire 1 . _021_ $end
$var wire 1 / _022_ $end
$var wire 1 0 _023_ $end
$var wire 1 1 _024_ $end
$var wire 1 2 _026_ $end
$var wire 1 3 _028_ $end
$var wire 1 4 _029_ $end
$var wire 1 5 _030_ $end
$var wire 1 6 _031_ $end
$var wire 1 7 _038_ $end
$var wire 1 8 _041_ $end
$var wire 1 9 _042_ $end
$var wire 1 : _043_ $end
$var wire 1 $ clk $end
$var wire 2 ; modo [1:0] $end
$var wire 1 # enable $end
$var wire 32 < _040_ [31:0] $end
$var wire 32 = _039_ [31:0] $end
$var wire 32 > _037_ [31:0] $end
$var wire 32 ? _036_ [31:0] $end
$var wire 32 @ _035_ [31:0] $end
$var wire 4 A _034_ [3:0] $end
$var wire 4 B _033_ [3:0] $end
$var wire 16 C _032_ [15:0] $end
$var wire 1 D _027_ $end
$var wire 4 E _025_ [3:0] $end
$var wire 2 F _015_ [1:0] $end
$var wire 4 G _014_ [3:0] $end
$var wire 2 H _012_ [1:0] $end
$var wire 2 I _010_ [1:0] $end
$var wire 2 J _009_ [1:0] $end
$var wire 2 K _008_ [1:0] $end
$var wire 2 L _007_ [1:0] $end
$var wire 2 M _006_ [1:0] $end
$var wire 2 N _005_ [1:0] $end
$var wire 2 O _004_ [1:0] $end
$var wire 2 P _003_ [1:0] $end
$var wire 32 Q _002_ [31:0] $end
$var wire 1 R _001_ $end
$var wire 4 S _000_ [3:0] $end
$var wire 4 T D [3:0] $end
$var reg 4 U Q [3:0] $end
$var reg 1 ! rco $end
$upscope $end
$scope module tb $end
$var wire 4 V Q [3:0] $end
$var wire 1 $ clk $end
$var wire 1 ! rco $end
$var reg 4 W D [3:0] $end
$var reg 1 # enable $end
$var reg 2 X modo [1:0] $end
$var integer 32 Y log [31:0] $end
$scope module sb $end
$var wire 4 Z D [3:0] $end
$var wire 1 $ clk $end
$var wire 1 # enable $end
$var wire 2 [ modo [1:0] $end
$var reg 4 \ sb_Q [3:0] $end
$var reg 1 ] sb_rco $end
$upscope $end
$scope task checker $end
$upscope $end
$scope task drv_init $end
$upscope $end
$scope task drv_request $end
$upscope $end
$upscope $end
$upscope $end
$enddefinitions $end
#0
$dumpvars
x]
bx \
bx [
bx Z
b10 Y
bx X
bx W
bx V
bx U
bx T
bx S
xR
bzxxxx Q
bx P
bx O
bx N
bx M
bx L
bx K
bx J
bx I
bzx H
bxz G
bx F
bxzz E
xD
bx C
bx B
bx A
bzxxxz @
bzxxzz ?
bzxxz >
bzxxz =
bzxzz <
bx ;
x:
x9
x8
x7
x6
x5
x4
x3
x2
x1
x0
x/
x.
x-
x,
x+
x*
x)
x(
x'
bx &
bx %
0$
x#
bx "
x!
$end
#5000
1$
#10000
1#
b0 S
0R
b0 A
0D
17
02
b0 B
b0 I
b0 J
b0 L
b0 K
13
0*
b0zz E
b1 M
b0 N
06
05
04
b0 F
1'
1,
1+
b0 C
b11 "
b11 ;
b11 X
b11 [
b0 &
b0 T
b0 W
b0 Z
0$
#15000
0.
00
11
1)
1-
1/
bz0zz <
09
bz111z @
0(
bz11zz ?
0:
b11 O
b1 P
bz00z =
b111z G
bz0 H
bz00z >
bz0001 Q
08
0!
b0 %
b0 U
b0 V
0]
b0 \
1$
#20000
b1 S
b1 A
0R
b1 B
0D
b0 J
02
b10 I
b0 L
b0 K
03
1*
b0zz E
b10 M
b0 N
b1000000000000 C
16
05
04
b11 F
0'
1,
1+
b0 "
b0 ;
b0 X
b0 [
0$
#25000
b10 S
b10 A
b10 B
10
11
b0 I
0-
b10 J
0/
19
1(
b0 P
b10000000000000 C
bz11z =
bz1 H
bz000z @
bz0010 Q
18
b1 %
b1 U
b1 V
b1 \
1$
#30000
0$
#35000
b11 S
b11 A
b11 B
01
b10 I
00
1-
b11000000000000 C
b1 P
b110z G
bz0011 Q
bz000z @
08
b10 %
b10 U
b10 V
b10 \
1$
#40000
0$
#45000
b100 S
b100 A
b10 L
b100 B
b0 I
b0 J
bz1zz <
bz00zz ?
1:
b10 O
b100000000000000 C
bz01z >
bz001z @
bz0100 Q
b11 %
b11 U
b11 V
b11 \
1$
#50000
0$
#55000
b101 S
b101 A
b0 K
b101 B
b10 L
b10 I
09
0:
b101000000000000 C
b11 O
b11 P
bz10z =
b101z G
bz0 H
bz00z >
bz0101 Q
bz001z @
b100 %
b100 U
b100 V
b100 \
1$
#60000
0$
#65000
b110 S
b110 A
b110 B
b0 I
b10 J
b10 P
b110000000000000 C
bz11z =
bz1 H
bz010z @
bz0110 Q
18
b101 %
b101 U
b101 V
b101 \
1$
#70000
0$
#75000
b111 S
b111 A
b111 B
b10 I
b111000000000000 C
b11 P
b100z G
bz0111 Q
bz010z @
08
b110 %
b110 U
b110 V
b110 \
1$
#80000
0$
#85000
b1000 S
b10 K
b1000 A
b0 L
b1000 B
b0 I
b0 J
bz01zz ?
b10 O
b1000000000000000 C
bz11z >
bz011z @
bz1000 Q
b111 %
b111 U
b111 V
b111 \
1$
#90000
0$
#95000
b1001 S
b1001 A
b1001 B
b10 K
b0 L
b10 I
b1001000000000000 C
b11 O
bz0zz <
b11 P
bz00z =
b11z G
bz0 H
bz00z >
bz1001 Q
bz011z @
b1000 %
b1000 U
b1000 V
b1000 \
1$
#100000
0$
#105000
b1010 S
b1010 A
b1010 B
b0 I
b10 J
19
b10 P
b1010000000000000 C
bz11z =
bz1 H
bz100z @
bz1010 Q
18
b1001 %
b1001 U
b1001 V
b1001 \
1$
#110000
0$
#115000
b1011 S
b1011 A
b1011 B
b10 I
b1011000000000000 C
b11 P
b10z G
bz1011 Q
bz100z @
08
b1010 %
b1010 U
b1010 V
b1010 \
1$
#120000
0$
#125000
b1100 S
b1100 A
b10 L
b1100 B
b0 I
b0 J
bz1zz <
bz10zz ?
1:
b10 O
b1100000000000000 C
bz01z >
bz101z @
bz1100 Q
b1011 %
b1011 U
b1011 V
b1011 \
1$
#130000
0$
#135000
b1101 S
b1101 A
b10 K
b1101 B
b10 L
b10 I
09
0:
b1101000000000000 C
b1 O
b11 P
bz10z =
b1z G
bz0 H
bz00z >
bz1101 Q
bz101z @
b1100 %
b1100 U
b1100 V
b1100 \
1$
#140000
0$
#145000
b1110 S
b1110 A
b1110 B
b0 I
b10 J
b10 P
b1110000000000000 C
bz11z =
bz1 H
bz110z @
bz1110 Q
18
b1101 %
b1101 U
b1101 V
b1101 \
1$
#150000
0$
#155000
b1111 S
b1111 A
b1111 B
b10 I
b1111000000000000 C
b11 P
b0z G
bz1111 Q
bz110z @
08
b1110 %
b1110 U
b1110 V
b1110 \
1$
#160000
0$
#165000
1R
1D
12
b0 S
b0 K
b10 N
b0 A
b0 L
b10zz E
b0 B
1.
b0 I
0)
b0 J
bz11zz ?
b0 O
b0 C
bz11z >
bz111z @
bz0000 Q
b1111 %
b1111 U
b1111 V
b1111 \
1$
#170000
0$
#175000
0R
0D
b1 S
02
b1 A
b0 N
b1 B
b0zz E
0.
b0 K
b0 L
11
b10 I
1)
00
1/
1-
0(
b1000000000000 C
b11 O
bz0zz <
b1 P
bz00z =
b111z G
bz0 H
bz00z >
bz0001 Q
bz111z @
1!
b0 %
b0 U
b0 V
1]
b0 \
1$
#180000
12
b1111 S
b10 N
b10 J
b10 L
b10 K
b1111 B
1R
1D
b1111 A
b1zz E
b10 I
17
15
0,
b111100000000 C
b10 M
06
b10 F
1'
b1 "
b1 ;
b1 X
b1 [
0$
#185000
b1110 S
0R
0D
b1110 A
02
b1110 B
b0 N
1.
b0 I
b10 J
01
b0zz E
0)
0/
b111000000000 C
1(
b0 O
bz111z @
08
bz1 H
bz11z >
bz11z =
bz1zz <
b11 P
b0z G
bz0000 Q
b1111 %
b1111 U
b1111 V
b1111 \
1]
1$
#190000
0$
#195000
b1101 S
b1101 A
b1101 B
0.
b10 I
1)
b0 J
bz10zz ?
b1 O
b110100000000 C
bz00z >
bz110z @
bz1111 Q
0!
b1110 %
b1110 U
b1110 V
b1110 \
0]
1$
#200000
0$
#205000
b1100 S
b1100 A
b1100 B
b10 L
b0 I
b0 J
b10 P
b110000000000 C
18
bz1110 Q
bz110z @
bz11z =
b1z G
b1101 %
b1101 U
b1101 V
b1101 \
1$
#210000
0$
#215000
b1011 S
b1011 A
b0 L
b1011 B
b10 I
b10 J
b11 P
b101100000000 C
bz10z =
bz0 H
bz101z @
bz1101 Q
08
b1100 %
b1100 U
b1100 V
b1100 \
1$
#220000
0$
#225000
b1010 S
b1010 A
b1010 B
b10 K
b0 I
b10 J
b101000000000 C
bz10zz ?
1:
19
b10 O
bz101z @
08
bz1 H
bz01z >
bz11z =
bz1zz <
b10z G
bz1100 Q
b1011 %
b1011 U
b1011 V
b1011 \
1$
#230000
0$
#235000
b1001 S
b1001 A
b1001 B
b10 I
b0 J
bz0zz <
bz01zz ?
0:
b11 O
b100100000000 C
bz00z >
bz100z @
bz1011 Q
b1010 %
b1010 U
b1010 V
b1010 \
1$
#240000
0$
#245000
b1000 S
b10 K
b1000 A
b1000 B
b0 L
b0 I
b0 J
b10 P
b100000000000 C
19
18
bz1010 Q
bz100z @
bz11z =
b11z G
b1001 %
b1001 U
b1001 V
b1001 \
1$
#250000
0$
#255000
b111 S
b0 K
b111 A
b10 L
b111 B
b10 I
b10 J
09
b11 P
b11100000000 C
bz00z =
bz0 H
bz011z @
bz1001 Q
08
b1000 %
b1000 U
b1000 V
b1000 \
1$
#260000
0$
#265000
b110 S
b110 A
b110 B
b0 I
b10 J
b11000000000 C
b10 O
bz011z @
08
bz1 H
bz11z >
bz11z =
bz1zz <
b100z G
bz1000 Q
b111 %
b111 U
b111 V
b111 \
1$
#270000
0$
#275000
b101 S
b101 A
b101 B
b10 I
b0 J
bz00zz ?
b11 O
b10100000000 C
bz00z >
bz010z @
bz0111 Q
b110 %
b110 U
b110 V
b110 \
1$
#280000
0$
#285000
b100 S
b100 A
b100 B
b10 L
b0 I
b0 J
b10 P
b10000000000 C
18
bz0110 Q
bz010z @
bz11z =
b101z G
b101 %
b101 U
b101 V
b101 \
1$
#290000
0$
#295000
b11 S
b11 A
b0 L
b11 B
b10 I
b10 J
b11 P
b1100000000 C
bz10z =
bz0 H
bz001z @
bz0101 Q
08
b100 %
b100 U
b100 V
b100 \
1$
#300000
0$
#305000
b10 S
b10 A
b10 B
b0 K
b0 I
b10 J
b1000000000 C
b10 O
bz00zz ?
1:
19
bz001z @
08
bz1 H
bz01z >
b1 P
bz11z =
bz1zz <
b110z G
bz0100 Q
b11 %
b11 U
b11 V
b11 \
1$
#310000
0$
#315000
b1 S
b1 A
b1 B
b10 I
b0 J
bz0zz <
bz11zz ?
0:
b11 O
b100000000 C
bz00z >
bz000z @
bz0011 Q
b10 %
b10 U
b10 V
b10 \
1$
#320000
0$
#325000
b0 S
b0 K
b0 A
11
b0 B
b0 L
10
b0 I
0-
b0 J
b0 P
b0 C
19
18
bz0010 Q
bz000z @
bz11z =
b111z G
b1 %
b1 U
b1 V
b1 \
1$
#330000
0$
#335000
1R
b1111 S
b10 K
1D
12
b1111 A
b10 L
b10 N
b1111 B
00
b1zz E
b10 I
1-
b10 J
1/
09
0(
b1 P
b111100000000 C
bz00z =
bz0 H
bz111z @
bz0001 Q
08
b0 %
b0 U
b0 V
b0 \
1$
#340000
b1101 S
b1101 B
1R
1D
b1101 A
b1 N
b1 I
b0 J
b1 L
b1 K
17
14
0+
b0zz E
b11010000 C
b1 M
05
b1 F
1,
b10 "
b10 ;
b10 X
b10 [
0$
#345000
b1010 S
0R
b1010 A
0D
02
b1010 B
b0 L
b0 N
b0 I
b1 J
01
0/
b10100000 C
bz10zz ?
1(
b1 O
bz1 H
bz110z @
18
bz11z =
bz1zz <
b10 P
b1z G
bz1110 Q
b1101 %
b1101 U
b1101 V
1!
1]
b1101 \
1$
#350000
0$
#355000
b111 S
b111 A
b0 K
b1 L
b111 B
b1 I
bz01zz ?
19
b11 O
b1110000 C
bz11z =
bz0zz <
b11 P
b10z G
bz1011 Q
bz100z @
08
0!
b1010 %
b1010 U
b1010 V
b1010 \
0]
1$
#360000
0$
#365000
b100 S
b100 A
b100 B
b0 I
b0 J
b10 O
b1000000 C
09
bz11z >
bz011z @
bz1zz <
b100z G
bz1000 Q
b111 %
b111 U
b111 V
b111 \
1$
#370000
0$
#375000
b1 S
b1 A
b0 L
b1 B
b1 I
bz00zz ?
b10000 C
b11 O
b11 P
bz10z =
b101z G
bz0 H
bz00z >
bz0101 Q
bz001z @
b100 %
b100 U
b100 V
b100 \
1$
#380000
0$
#385000
1R
1D
b1110 S
12
b1110 A
b1 N
11
b1110 B
b1 K
b1 L
10
b0 I
0-
b1 J
19
b11100000 C
bz11zz ?
bz1 H
bz000z @
18
b0 P
bz11z =
bz0zz <
b111z G
bz0010 Q
b1 %
b1 U
b1 V
b1 \
1$
#390000
0$
#395000
b1011 S
0R
0D
b1011 A
02
b0 L
b1011 B
b0 N
01
b1 I
00
bz10zz ?
09
b1 O
1-
b10110000 C
bz1zz <
b11 P
b0z G
bz1111 Q
bz110z @
08
1!
b1110 %
b1110 U
b1110 V
1]
b1110 \
1$
#400000
0$
#405000
b1000 S
b1000 A
b1000 B
b1 K
b0 I
b0 J
b10000000 C
bz10zz ?
1:
19
b10 O
bz01z >
bz101z @
bz11z =
bz1zz <
b10z G
bz1100 Q
b1011 %
b1011 U
b1011 V
0!
b1011 \
0]
1$
#410000
0$
#415000
b101 S
b0 K
b101 A
b1 L
b101 B
b1 I
bz0zz <
09
bz01zz ?
0:
b1010000 C
b11 O
b11 P
bz00z =
b11z G
bz0 H
bz00z >
bz1001 Q
bz011z @
b1000 %
b1000 U
b1000 V
b1000 \
1$
#420000
0$
#425000
b10 S
b10 A
b10 B
b0 L
b0 I
b1 J
b10 P
b100000 C
bz00zz ?
bz1 H
bz010z @
18
bz11z =
bz1zz <
b101z G
bz0110 Q
b101 %
b101 U
b101 V
b101 \
1$
#430000
0$
#435000
b1111 S
b1111 A
b1 K
b1 L
b1111 B
b1 I
bz11zz ?
19
b11110000 C
bz11z =
bz0zz <
b1 P
b110z G
bz0011 Q
bz000z @
08
b10 %
b10 U
b10 V
b10 \
1$
#440000
0$
#445000
b1100 S
b1100 A
b1100 B
1.
b0 I
b0 J
0)
b11000000 C
09
b0 O
bz11z >
bz111z @
bz1zz <
b11 P
b0z G
bz0000 Q
b1111 %
b1111 U
b1111 V
1]
b1111 \
1$
#450000
0$
#455000
b1001 S
b1001 A
b0 L
b1001 B
0.
b1 I
1)
bz10zz ?
b10010000 C
b1 O
b11 P
bz10z =
b1z G
bz0 H
bz00z >
bz1101 Q
bz101z @
b1100 %
b1100 U
b1100 V
b1100 \
0]
1$
#460000
0$
#465000
b110 S
b110 A
b110 B
b0 K
b1 L
b0 I
b1 J
19
b10 P
b1100000 C
bz01zz ?
b11 O
bz1 H
bz100z @
18
bz11z =
bz0zz <
b11z G
bz1010 Q
b1001 %
b1001 U
b1001 V
b1001 \
1$
#470000
0$
#475000
b11 S
b11 A
b0 L
b11 B
b1 I
bz00zz ?
09
b110000 C
bz1zz <
b11 P
b100z G
bz0111 Q
bz010z @
08
b110 %
b110 U
b110 V
b110 \
1$
#480000
0$
#485000
b0 S
b0 A
b0 B
b0 K
b0 I
b0 J
b10 O
b0 C
bz00zz ?
1:
19
bz01z >
bz001z @
b1 P
bz11z =
bz1zz <
b110z G
bz0100 Q
b11 %
b11 U
b11 V
b11 \
1$
#490000
0$
#495000
b1101 S
1R
b1 K
1D
b1101 A
12
b1 L
b1101 B
b1 N
11
b1 I
00
1/
bz0zz <
1-
09
0(
bz11zz ?
0:
b11010000 C
b11 O
b1 P
bz00z =
b111z G
bz0 H
bz00z >
bz0001 Q
bz111z @
b0 %
b0 U
b0 V
b0 \
1$
#500000
0$
#505000
b1010 S
0R
b1010 A
0D
02
b1010 B
b0 L
b0 N
b0 I
b1 J
01
0/
b10100000 C
bz10zz ?
1(
b1 O
bz1 H
bz110z @
18
bz11z =
bz1zz <
b10 P
b1z G
bz1110 Q
b1101 %
b1101 U
b1101 V
1!
1]
b1101 \
1$
#510000
0$
#515000
b111 S
b111 A
b0 K
b1 L
b111 B
b1 I
bz01zz ?
19
b11 O
b1110000 C
bz11z =
bz0zz <
b11 P
b10z G
bz1011 Q
bz100z @
08
0!
b1010 %
b1010 U
b1010 V
b1010 \
0]
1$
#520000
0$
#525000
b100 S
b100 A
b100 B
b0 I
b0 J
b10 O
b1000000 C
09
bz11z >
bz011z @
bz1zz <
b100z G
bz1000 Q
b111 %
b111 U
b111 V
b111 \
1$
#530000
0$
#535000
b1 S
b1 A
b0 L
b1 B
b1 I
bz00zz ?
b10000 C
b11 O
b11 P
bz10z =
b101z G
bz0 H
bz00z >
bz0101 Q
bz001z @
b100 %
b100 U
b100 V
b100 \
1$
#540000
0$
#545000
1R
1D
b1110 S
12
b1110 A
b1 N
11
b1110 B
b1 K
b1 L
10
b0 I
0-
b1 J
19
b11100000 C
bz11zz ?
bz1 H
bz000z @
18
b0 P
bz11z =
bz0zz <
b111z G
bz0010 Q
b1 %
b1 U
b1 V
b1 \
1$
#550000
0$
#555000
b1011 S
0R
0D
b1011 A
02
b0 L
b1011 B
b0 N
01
b1 I
00
bz10zz ?
09
b1 O
1-
b10110000 C
bz1zz <
b11 P
b0z G
bz1111 Q
bz110z @
08
1!
b1110 %
b1110 U
b1110 V
1]
b1110 \
1$
