tarea3/output/gtkwave/contadorB_verif.vcd
$date
	Sun May 24 10:12:01 2020
$end
$version
	Icarus Verilog
$end
$timescale
	1ps
$end
$scope module tb_top $end
$var wire 1 ! rco $end
$var wire 2 " modo [1:0] $end
$var wire 1 # enable $end
$var wire 1 $ clock $end
$var wire 4 % Q [3:0] $end
$var wire 4 & D [3:0] $end
$scope module clocks $end
$var reg 1 $ clock $end
$upscope $end
$scope module dut $end
$var wire 1 ' _014_ $end
$var wire 1 ( _015_ $end
$var wire 1 ) _020_ $end
$var wire 1 * _021_ $end
$var wire 1 + _022_ $end
$var wire 1 , _023_ $end
$var wire 1 - _024_ $end
$var wire 1 . _025_ $end
$var wire 1 / _026_ $end
$var wire 1 0 _027_ $end
$var wire 1 1 _028_ $end
$var wire 1 2 _029_ $end
$var wire 1 3 _030_ $end
$var wire 1 4 _031_ $end
$var wire 1 5 _032_ $end
$var wire 1 6 _033_ $end
$var wire 1 7 _034_ $end
$var wire 1 8 _035_ $end
$var wire 1 9 _036_ $end
$var wire 1 : _037_ $end
$var wire 1 ; _038_ $end
$var wire 1 < _039_ $end
$var wire 1 = _040_ $end
$var wire 1 > _041_ $end
$var wire 1 ? _042_ $end
$var wire 1 @ _043_ $end
$var wire 1 A _044_ $end
$var wire 1 B _045_ $end
$var wire 1 C _046_ $end
$var wire 1 D _047_ $end
$var wire 1 E _048_ $end
$var wire 1 F _049_ $end
$var wire 1 G _050_ $end
$var wire 1 H _052_ $end
$var wire 1 I _054_ $end
$var wire 1 J _055_ $end
$var wire 1 K _056_ $end
$var wire 1 L _057_ $end
$var wire 1 M _064_ $end
$var wire 1 N _067_ $end
$var wire 1 O _068_ $end
$var wire 1 P _069_ $end
$var wire 1 $ clk $end
$var wire 2 Q modo [1:0] $end
$var wire 1 # enable $end
$var wire 32 R _066_ [31:0] $end
$var wire 32 S _065_ [31:0] $end
$var wire 32 T _063_ [31:0] $end
$var wire 32 U _062_ [31:0] $end
$var wire 32 V _061_ [31:0] $end
$var wire 4 W _060_ [3:0] $end
$var wire 4 X _059_ [3:0] $end
$var wire 16 Y _058_ [15:0] $end
$var wire 1 Z _053_ $end
$var wire 4 [ _051_ [3:0] $end
$var wire 2 \ _019_ [1:0] $end
$var wire 4 ] _018_ [3:0] $end
$var wire 4 ^ _017_ [3:0] $end
$var wire 4 _ _016_ [3:0] $end
$var wire 2 ` _013_ [1:0] $end
$var wire 2 a _012_ [1:0] $end
$var wire 2 b _011_ [1:0] $end
$var wire 2 c _010_ [1:0] $end
$var wire 2 d _009_ [1:0] $end
$var wire 2 e _008_ [1:0] $end
$var wire 2 f _007_ [1:0] $end
$var wire 2 g _006_ [1:0] $end
$var wire 2 h _005_ [1:0] $end
$var wire 2 i _004_ [1:0] $end
$var wire 2 j _003_ [1:0] $end
$var wire 32 k _002_ [31:0] $end
$var wire 1 l _001_ $end
$var wire 4 m _000_ [3:0] $end
$var wire 4 n D [3:0] $end
$var reg 4 o Q [3:0] $end
$var reg 1 ! rco $end
$upscope $end
$scope module tb $end
$var wire 4 p Q [3:0] $end
$var wire 1 $ clk $end
$var wire 1 ! rco $end
$var reg 4 q D [3:0] $end
$var reg 1 # enable $end
$var reg 2 r modo [1:0] $end
$var integer 32 s log [31:0] $end
$scope module sb $end
$var wire 4 t D [3:0] $end
$var wire 1 $ clk $end
$var wire 1 # enable $end
$var wire 2 u modo [1:0] $end
$var reg 4 v sb_Q [3:0] $end
$var reg 1 w sb_rco $end
$upscope $end
$scope task checker $end
$upscope $end
$scope task completely_random_checker $end
$upscope $end
$scope task drv_completely_random_request $end
$upscope $end
$scope task drv_init $end
$upscope $end
$scope task drv_random_request $end
$upscope $end
$scope task drv_request $end
$upscope $end
$scope task random_checker $end
$upscope $end
$upscope $end
$upscope $end
$enddefinitions $end
#0
$dumpvars
xw
bx v
bx u
bx t
b10 s
bx r
bx q
bx p
bx o
bx n
bx m
xl
bzxxxx k
bx j
bx i
bzx h
bx g
bxz f
bx e
bx d
bx c
bx b
bx a
bx `
bxzzz _
bzxz ^
bzxzz ]
bx \
bx [
xZ
bx Y
bx X
bx W
bzxxxz V
bzxxzz U
bzxxz T
bzxxz S
bzxzz R
bx Q
xP
xO
xN
xM
xL
xK
xJ
xI
xH
xG
xF
xE
xD
xC
xB
xA
x@
x?
x>
x=
x<
x;
x:
x9
x8
x7
x6
x5
x4
x3
x2
x1
x0
x/
x.
x-
x,
x+
x*
x)
x(
x'
bx &
bx %
0$
x#
bx "
x!
$end
#5000
0w
b0 v
1$
#10000
b1111 m
1#
b1111 W
b1111 X
1M
b0x e
b1 `
b1 a
b1 c
b1 b
1I
02
b1 d
b0x [
b1111 Y
0L
0K
0J
b0 \
1(
14
13
b11 "
b11 Q
b11 r
b11 u
b1111 &
b1111 n
b1111 q
b1111 t
0$
#15000
1l
1Z
1H
b1 e
b1 [
1F
1G
1E
0D
15
0A
0C
0B
0@
0?
01
0:
0<
07
0=
0;
09
0>
08
06
1,
1.
b0z f
1*
0O
bz111z V
0N
1/
1-
1+
10
1'
1)
bz11zz U
0P
b10 g
b0zzz _
bz1zz R
bz0zz ]
b11 i
bz11z S
bz0z ^
bz1 h
b11 j
bz11z T
bz0000 k
b1111 %
b1111 o
b1111 p
b1111 v
1$
#20000
b0 m
b0 W
b0 X
b0 `
b10 e
b0 a
b0 c
b0 b
0I
12
b1000 [
b10 d
b0 Y
1L
0K
0J
b11 \
0(
14
13
b0 "
b0 Q
b0 r
b0 u
0$
#25000
0l
0Z
0H
b1 m
b0 e
b1 W
b0 [
0F
0E
b1 X
1G
05
b10 `
0B
b0 c
1@
1?
0D
0C
1A
11
b0 b
0<
0;
06
09
18
07
0>
0=
0:
1.
1-
1)
1+
0'
1*
10
1/
1,
b1z f
b1000000000000 Y
bz1 h
bz111z V
bz1z ^
b10 j
bz00z S
bz0zz R
bz00z T
bz1zz ]
b1 i
b11 g
b1zzz _
bz0001 k
b0 %
b0 o
b0 p
1!
1w
b0 v
1$
#30000
0$
#35000
1l
1Z
1H
b10 m
b10 e
b10 W
b1000 [
1A
1F
b10 X
1@
17
1?
b0 `
0*
b10 a
08
1O
1'
b0 i
b10000000000000 Y
bz11z S
b11 j
1N
bz000z V
bz0010 k
0!
b1 %
b1 o
b1 p
b1 v
0w
1$
#40000
b0 m
b1 &
b1 n
b1 q
b1 t
0#
0$
#45000
0Z
0H
b0 e
b1 W
b0 [
0F
b1 X
07
b10 `
1*
b0 a
18
0O
0'
b1 i
b1000000000000 Y
bz00z S
b10 j
0N
bz111z V
bz0001 k
b0 %
b0 o
b0 p
1!
b0 v
1$
#50000
b1 m
0l
b11 &
b11 n
b11 q
b11 t
1#
0$
#55000
1l
1Z
1H
b10 m
b10 e
b10 W
b1000 [
1A
1F
b10 X
1@
17
1?
b0 `
0*
b10 a
08
1O
1'
b0 i
b10000000000000 Y
bz11z S
b11 j
1N
bz000z V
bz0010 k
0!
b1 %
b1 o
b1 p
b1 v
1$
#60000
b1101 &
b1101 n
b1101 q
b1101 t
0$
#65000
0l
b11 m
0Z
0H
b11 W
b0 e
b11 X
b0 [
19
b10 `
0?
0F
0+
07
b11000000000000 Y
1*
bz0 h
0N
bz0011 k
bz000z V
b1 i
bz0z ^
b10 %
b10 o
b10 p
1!
b10 v
1$
#70000
b10 &
b10 n
b10 q
b10 t
0$
#75000
b100 m
b100 W
b10 c
b100 X
0A
0@
b0 `
b0 a
09
bz1zz R
1+
bz00zz U
1P
b10 g
b100000000000000 Y
bz1 h
bz01z T
bz001z V
bz0100 k
0!
b11 %
b11 o
b11 p
b11 v
1$
#80000
b1101 &
b1101 n
b1101 q
b1101 t
0$
#85000
b101 m
b101 W
0G
b0 b
1D
b101 X
1>
b10 `
00
b10 c
0P
0O
b1 g
b101000000000000 Y
bz1 h
bz001z V
b10 j
bz10z S
bz1z ^
b11 i
bz00z T
bz0zz ]
bz0101 k
b100 %
b100 o
b100 p
b100 v
1$
#90000
b0 m
1l
0#
0$
#95000
b1 W
1G
1A
0D
b1 X
1@
0>
1?
10
b0 c
18
0'
bz111z V
bz11zz U
b11 g
b1000000000000 Y
b1 i
bz00z S
bz0zz R
bz1zz ]
bz0001 k
1!
b0 %
b0 o
b0 p
b0 v
1$
#100000
b1 m
0l
b1100 &
b1100 n
b1100 q
b1100 t
1#
0$
#105000
1l
1Z
1H
b10 m
b10 e
b10 W
b1000 [
1A
1F
b10 X
1@
17
1?
b0 `
0*
b10 a
08
1O
1'
b0 i
b10000000000000 Y
bz11z S
b11 j
1N
bz000z V
bz0010 k
b1 %
b1 o
b1 p
0!
b1 v
1$
#110000
b110 &
b110 n
b110 q
b110 t
0$
#115000
0l
0Z
b11 m
0H
b11 W
b0 e
b11 X
b0 [
19
0?
0F
0+
b10 `
07
1*
bz0 h
b11000000000000 Y
b1 i
bz0z ^
0N
bz0011 k
bz000z V
1!
b10 %
b10 o
b10 p
b10 v
1$
#120000
b1010 &
b1010 n
b1010 q
b1010 t
0$
#125000
b100 m
b100 W
b10 c
b100 X
0A
0@
b0 `
b0 a
09
bz1zz R
1+
bz00zz U
1P
b10 g
b100000000000000 Y
bz1 h
bz01z T
bz001z V
bz0100 k
b11 %
b11 o
b11 p
0!
b11 v
1$
#130000
b111 &
b111 n
b111 q
b111 t
0$
#135000
b101 m
b101 W
0G
b0 b
1D
b101 X
1>
00
b10 c
b10 `
0O
0P
b101000000000000 Y
b1 g
bz0zz ]
b11 i
bz10z S
bz1z ^
bz1 h
b10 j
bz00z T
bz0101 k
bz001z V
b100 %
b100 o
b100 p
b100 v
1$
#140000
b0 m
1l
b1111 &
b1111 n
b1111 q
b1111 t
0#
0$
#145000
b1 W
1G
1A
0D
b1 X
1@
0>
1?
10
b0 c
18
0'
bz111z V
bz11zz U
b11 g
b1000000000000 Y
b1 i
bz00z S
bz0zz R
bz1zz ]
bz0001 k
b0 %
b0 o
b0 p
1!
b0 v
1$
#150000
b1110 &
b1110 n
b1110 q
b1110 t
0$
#155000
1$
#160000
b101 &
b101 n
b101 q
b101 t
0$
#165000
1$
#170000
b1101 &
b1101 n
b1101 q
b1101 t
0$
#175000
1$
#180000
b1 m
0l
b101 &
b101 n
b101 q
b101 t
1#
0$
#185000
1l
1Z
1H
b10 m
b10 e
b10 W
b1000 [
1A
1F
b10 X
1@
17
1?
b0 `
0*
b10 a
08
1O
1'
b0 i
b10000000000000 Y
bz11z S
b11 j
1N
bz000z V
bz0010 k
b1 %
b1 o
b1 p
0!
b1 v
1$
#190000
b1010 &
b1010 n
b1010 q
b1010 t
0$
#195000
0l
0Z
b11 m
0H
b11 W
b0 e
b11 X
b0 [
19
0?
0F
0+
b10 `
07
1*
bz0 h
b11000000000000 Y
b1 i
bz0z ^
0N
bz0011 k
bz000z V
1!
b10 %
b10 o
b10 p
b10 v
1$
#200000
b0 m
1l
b0 &
b0 n
b0 q
b0 t
0#
0$
#205000
b1 W
b1 X
09
1?
1+
b0 a
18
0'
0O
bz111z V
bz1 h
b1000000000000 Y
b10 j
bz00z S
bz1z ^
bz0001 k
b0 %
b0 o
b0 p
b0 v
1$
#210000
b1101 &
b1101 n
b1101 q
b1101 t
0$
#215000
1$
#220000
b11 &
b11 n
b11 q
b11 t
0$
#225000
1$
#230000
b1 m
0l
1#
0$
#235000
1l
1Z
1H
b10 m
b10 e
b10 W
b1000 [
1A
1F
b10 X
1@
17
1?
b0 `
0*
b10 a
08
1O
1'
b0 i
b10000000000000 Y
bz11z S
b11 j
1N
bz000z V
bz0010 k
0!
b1 %
b1 o
b1 p
b1 v
1$
#240000
b11 m
b1 `
1H
b11 X
1l
1Z
b11 W
b1 e
b1 a
1M
1I
02
b1 [
b11 Y
b1 d
0L
b0 \
1(
b11 "
b11 Q
b11 r
b11 u
0$
#245000
0A
0@
0?
0F
07
bz1zz R
1*
bz00zz U
1P
bz001z V
0N
b10 g
b1 i
bz01z T
bz0z ^
bz0100 k
b11 %
b11 o
b11 p
1!
b11 v
1$
#250000
b10 m
b10 W
b10 X
b0 `
b10 Y
b10 &
b10 n
b10 q
b10 t
0$
#255000
1A
1@
19
bz0zz R
0+
bz11zz U
0P
b11 g
bz0 h
bz00z T
bz000z V
bz0011 k
b10 %
b10 o
b10 p
b10 v
1$
#260000
b1101 W
b1101 X
b1 b
b1 c
b0 a
b1 `
b1101 Y
b0 m
b1101 &
b1101 n
b1101 q
b1101 t
0#
0$
#265000
09
1?
1+
18
0'
0O
bz111z V
bz1 h
b10 j
bz00z S
bz1z ^
bz0001 k
b0 %
b0 o
b0 p
b0 v
1$
#270000
b11 W
b11 X
b0 b
b0 c
b1 a
b11 Y
b11 m
b11 &
b11 n
b11 q
b11 t
1#
0$
#275000
0A
0@
0?
08
bz1zz R
1O
1'
bz00zz U
1P
b10 g
bz11z S
bz0z ^
b11 j
0N
bz01z T
bz0100 k
bz001z V
b11 %
b11 o
b11 p
b11 v
1$
#280000
b1010 W
b1010 X
b1 b
b0 `
b1010 Y
b0 m
b1010 &
b1010 n
b1010 q
b1010 t
0#
0$
#285000
1A
1@
0F
1?
09
07
18
bz0zz R
1+
1*
0'
0O
bz11zz U
0P
b11 g
bz1 h
bz0001 k
bz111z V
b1 i
b10 j
bz00z S
bz00z T
bz1z ^
b0 %
b0 o
b0 p
b0 v
1$
#290000
b10 W
b10 X
b0 b
b10 Y
b10 &
b10 n
b10 q
b10 t
0$
#295000
1$
#300000
b1 W
b1 X
b0 a
b1 `
b1 Y
b1 &
b1 n
b1 q
b1 t
0$
#305000
1$
#310000
b1000 W
b1000 X
b1 b
b0 `
b1000 Y
b1000 &
b1000 n
b1000 q
b1000 t
0$
#315000
1$
#320000
b1011 W
b1011 X
b1 a
b1 `
b1011 Y
b1011 m
b1011 &
b1011 n
b1011 q
b1011 t
1#
0$
#325000
0l
0Z
0H
b0 e
b0 [
0G
1D
1C
0A
1B
0@
1<
0?
0.
bz1zz R
08
1O
1P
b10 g
1'
bz10zz U
0N
bz101z V
b1 j
bz11z S
bz01z T
bz0z ^
b11 i
b0zzz _
bz1100 k
b1011 %
b1011 o
b1011 p
b1011 v
1$
#330000
b110 W
b110 X
b0 b
b1 c
b0 `
b110 Y
b0 m
1l
b110 &
b110 n
b110 q
b110 t
0#
0$
#335000
1Z
1H
b1 e
b1 [
1G
0D
0C
0B
1A
0<
0F
1@
1?
0E
1.
07
0;
09
18
06
bz0zz R
1*
0O
1-
1+
0'
1)
bz11zz U
0P
b11 g
b1zzz _
b1 i
bz00z S
bz1z ^
bz1 h
b10 j
bz00z T
bz0001 k
bz111z V
b0 %
b0 o
b0 p
b0 v
1$
#340000
b1101 W
b0 a
b1101 X
b1 `
b1 b
0I
12
b10 [
b11010000 Y
1J
b1 \
03
b10 "
b10 Q
b10 r
b10 u
0$
#345000
1$
#350000
b1010 &
b1010 n
b1010 q
b1010 t
0$
#355000
1$
#360000
b1101 m
b1 &
b1 n
b1 q
b1 t
1#
0$
#365000
0l
0Z
0H
b1010 m
b0 e
b1010 W
b0 [
b1010 X
b0 c
0A
0@
b0 `
b1 a
0?
08
b10100000 Y
bz10zz U
1'
b0z f
b11 j
1N
bz110z V
bz11z S
bz1zz R
bz0zz ]
b10 i
b0zzz _
bz1110 k
b1101 %
b1101 o
b1101 p
1w
b1101 v
1$
#370000
b1111 &
b1111 n
b1111 q
b1111 t
0$
#375000
b111 m
0G
1D
b111 W
1C
b0 b
b1 c
1B
b111 X
1;
0-
b1 `
bz01zz U
1O
b1z f
bz0 h
b1110000 Y
b1 j
bz11z S
bz0zz R
bz1zz ]
b11 i
bz0z ^
0N
bz1011 k
bz100z V
0!
b1010 %
b1010 o
b1010 p
b1010 v
0w
1$
#380000
b1010 &
b1010 n
b1010 q
b1010 t
0$
#385000
1l
1Z
1H
b100 m
b1 e
b100 W
1G
b10 [
b100 X
0D
1A
0C
1:
b0 `
b0 a
0B
0,
0;
b1000000 Y
1-
0O
b0 g
bz1 h
bz11z T
bz011z V
b11 j
bz1zz R
bz0zz ]
b1zzz _
bz1000 k
b111 %
b111 o
b111 p
b111 v
1$
#390000
b0 m
b101 &
b101 n
b101 q
b101 t
0#
0$
#395000
b1101 W
b1 b
b1101 X
1G
0:
0F
0C
1@
0D
1?
b1 `
1,
07
0=
09
0>
18
bz11zz U
1*
1/
1+
10
0'
b11010000 Y
b11 g
bz0zz R
bz1zz ]
b1 i
bz00z S
bz1z ^
bz1 h
b10 j
bz00z T
bz0001 k
bz111z V
1!
b0 %
b0 o
b0 p
b0 v
1$
#400000
b1101 m
b1001 &
b1001 n
b1001 q
b1001 t
1#
0$
#405000
0l
0Z
0H
b1010 m
b0 e
b1010 W
b0 [
b1010 X
b0 c
0A
0@
b0 `
b1 a
0?
08
b10100000 Y
bz10zz U
1'
b0z f
b11 j
1N
bz110z V
bz11z S
bz1zz R
bz0zz ]
b10 i
b0zzz _
bz1110 k
b1101 %
b1101 o
b1101 p
1w
b1101 v
1$
#410000
b0 m
1l
b1100 &
b1100 n
b1100 q
b1100 t
0#
0$
#415000
1Z
1H
b1 e
b1101 W
b10 [
b1 c
1A
b1101 X
1G
1@
0F
0D
1?
0E
b1 `
b0 a
07
0>
18
06
1*
bz11zz U
b1z f
10
0'
1)
b11010000 Y
b11 g
b1zzz _
b1 i
bz00z S
bz0zz R
bz1zz ]
b10 j
0N
bz111z V
bz0001 k
b0 %
b0 o
b0 p
0w
b0 v
1$
#420000
b1101 m
b1111 &
b1111 n
b1111 q
b1111 t
1#
0$
#425000
0l
0Z
0H
b1010 m
b0 e
b1010 W
b0 [
b1010 X
b0 c
0A
0@
b0 `
b1 a
0?
08
b10100000 Y
bz10zz U
1'
b0z f
b11 j
1N
bz110z V
bz11z S
bz1zz R
bz0zz ]
b10 i
b0zzz _
bz1110 k
b1101 %
b1101 o
b1101 p
1w
b1101 v
1$
#430000
b0 m
1l
b111 &
b111 n
b111 q
b111 t
0#
0$
#435000
1Z
1H
b1 e
b1101 W
b10 [
b1 c
1A
b1101 X
1G
1@
0F
0D
1?
0E
b1 `
b0 a
07
0>
18
06
1*
bz11zz U
b1z f
10
0'
1)
b11010000 Y
b11 g
b1zzz _
b1 i
bz00z S
bz0zz R
bz1zz ]
b10 j
0N
bz111z V
bz0001 k
b0 %
b0 o
b0 p
0w
b0 v
1$
#440000
1Z
b1 a
1H
b111 X
b111 W
b1 e
b1 `
b1 c
b0 b
1M
1I
02
b1 [
b111 Y
b1 d
0J
b0 \
13
b11 "
b11 Q
b11 r
b11 u
0$
#445000
1$
#450000
b1011 W
b1011 X
b1 b
b0 c
b1011 Y
b1011 &
b1011 n
b1011 q
b1011 t
0$
#455000
1$
#460000
b1001 W
b1001 X
b0 a
b1001 Y
b1001 m
b1001 &
b1001 n
b1001 q
b1001 t
1#
0$
#465000
0A
0@
0?
1O
08
1'
bz01zz U
bz11z S
b1 j
1N
bz100z V
b10 i
b0zzz _
bz1010 k
b1001 %
b1001 o
b1001 p
b1001 v
1$
#470000
b111 W
b111 X
b0 b
b1 c
b1 a
b111 Y
b0 m
b111 &
b111 n
b111 q
b111 t
0#
0$
#475000
1A
1@
0F
1?
0E
07
18
06
0O
1*
bz11zz U
0'
1)
bz00z S
b1 i
b1zzz _
b10 j
0N
bz111z V
bz0001 k
b0 %
b0 o
b0 p
b0 v
1$
#480000
b110 W
b110 X
b0 `
b110 Y
b110 m
b110 &
b110 n
b110 q
b110 t
1#
0$
#485000
0l
0Z
0H
b0 e
b0 [
0G
1D
0A
1C
0@
1=
0?
0/
08
bz0 h
1'
bz010z V
bz00zz U
b1 g
b11 j
bz0z ^
b11 i
bz11z S
bz1zz R
bz0zz ]
bz0111 k
b110 %
b110 o
b110 p
b110 v
1$
#490000
b10 W
b10 X
b0 c
b10 Y
b0 m
1l
b10 &
b10 n
b10 q
b10 t
0#
0$
#495000
1Z
1H
b1 e
b1 [
1G
0D
0C
1A
0=
1@
1?
1/
09
0>
18
1+
bz11zz U
b11 g
10
0'
bz111z V
bz1 h
b1 i
bz0zz R
bz1zz ]
b10 j
bz00z S
bz1z ^
bz0001 k
b0 %
b0 o
b0 p
b0 v
1$
#500000
b111 W
b111 X
b1 c
b1 `
b111 Y
b111 &
b111 n
b111 q
b111 t
0$
#505000
1$
#510000
b10 W
b10 X
b0 c
b0 `
b10 Y
b10 m
b10 &
b10 n
b10 q
b10 t
1#
0$
#515000
19
0?
0+
08
1'
1O
bz000z V
bz0 h
b11 j
bz11z S
bz0z ^
bz0011 k
b10 %
b10 o
b10 p
b10 v
1$
#520000
b1101 W
b1101 X
b1 b
b1 c
b0 a
b1 `
b1101 Y
b0 m
b1101 &
b1101 n
b1101 q
b1101 t
0#
0$
#525000
09
1?
1+
18
0'
0O
bz111z V
bz1 h
b10 j
bz00z S
bz1z ^
bz0001 k
b0 %
b0 o
b0 p
b0 v
1$
#530000
b1111 W
b1111 X
b1 a
b1111 Y
b1111 m
b1111 &
b1111 n
b1111 q
b1111 t
1#
0$
#535000
1F
0A
1E
0@
15
0?
01
08
b0z f
1'
b10 g
b0zzz _
b11 i
bz1zz R
bz0zz ]
bz11z S
bz0z ^
b11 j
0N
bz11z T
bz0000 k
bz111z V
b1111 %
b1111 o
b1111 p
b1111 v
1$
#540000
0$
#545000
1$
#550000
b1000 m
b1000 W
b1000 X
b0 c
b0 a
b0 `
b1000 Y
b1000 &
b1000 n
b1000 q
b1000 t
0$
#555000
1l
1Z
1H
b1 e
b1 [
1G
0D
0C
05
0B
11
0<
0;
16
1.
bz01zz U
b1z f
1-
0)
b11 g
bz0zz R
bz1zz ]
b11 i
bz00z S
bz1z ^
bz1 h
b0 j
bz00z T
bz1001 k
bz011z V
b1000 %
b1000 o
b1000 p
b1000 v
1$
#560000
b1001 m
b1001 W
b1001 X
b1 `
b1001 Y
b1001 &
b1001 n
b1001 q
b1001 t
0$
#565000
0F
0E
06
1O
1)
b10 i
bz11z S
b1 j
1N
bz100z V
bz1010 k
b1001 %
b1001 o
b1001 p
b1001 v
1$
#570000
b1010 m
b1010 W
b1010 X
b1 a
b0 `
b1010 Y
b1010 &
b1010 n
b1010 q
b1010 t
0$
#575000
0l
0Z
0H
b0 e
b0 [
0G
1D
1C
1B
1;
0-
bz0 h
b11 i
bz0z ^
0N
bz1011 k
bz100z V
b1010 %
b1010 o
b1010 p
b1010 v
1$
#580000
b110 W
b110 X
b0 b
b1 c
b110 Y
b0 m
1l
b110 &
b110 n
b110 q
b110 t
0#
0$
#585000
1Z
1H
b1 e
b1 [
1G
0D
0C
0B
0F
1A
0;
0E
1@
1?
1-
06
09
18
1)
0O
bz1 h
1+
0'
bz111z V
bz11zz U
b10 j
bz00z S
bz1z ^
b1 i
b1zzz _
bz0001 k
b0 %
b0 o
b0 p
b0 v
1$
#590000
b1100 W
b1100 X
b1 b
b0 a
b1100 Y
b1100 &
b1100 n
b1100 q
b1100 t
0$
#595000
1$
#600000
b110 W
b110 X
b0 b
b1 a
b110 Y
b110 &
b110 n
b110 q
b110 t
0$
#605000
1$
#610000
b11 W
b11 X
b0 c
b1 `
b11 Y
b11 m
b11 &
b11 n
b11 q
b11 t
1#
0$
#615000
0A
0@
0?
08
bz1zz R
1O
1'
bz00zz U
1P
b10 g
bz11z S
bz0z ^
b11 j
0N
bz01z T
bz0100 k
bz001z V
b11 %
b11 o
b11 p
b11 v
1$
#620000
0$
#625000
1$
#630000
b100 m
b100 W
b100 X
b1 c
b0 a
b0 `
b100 Y
b100 &
b100 n
b100 q
b100 t
0$
#635000
0l
0Z
0H
b0 e
b0 [
0G
1D
1>
00
0O
0P
b1 g
bz0zz ]
b11 i
bz10z S
bz1z ^
bz1 h
b10 j
bz00z T
bz0101 k
bz001z V
b100 %
b100 o
b100 p
b100 v
1$
#640000
0$
#645000
0!
1$
#650000
b110 m
b110 W
b110 X
b1 a
b110 Y
b110 &
b110 n
b110 q
b110 t
0$
#655000
0l
0Z
0H
b0 e
b0 [
1C
0G
1=
1D
0/
0>
10
bz010z V
bz0 h
b11 j
bz11z S
bz0z ^
bz0111 k
b110 %
b110 o
b110 p
b110 v
1$
#660000
b1001 W
b1001 X
b1 b
b0 c
b0 a
b1 `
b1001 Y
b0 m
1l
b1001 &
b1001 n
b1001 q
b1001 t
0#
0$
#665000
1Z
1H
b1 e
b1 [
1G
0D
0C
1A
0=
1@
1?
1/
0>
09
18
10
bz1 h
1+
0'
bz111z V
bz11zz U
b11 g
b10 j
bz1z ^
b1 i
bz00z S
bz0zz R
bz1zz ]
bz0001 k
b0 %
b0 o
b0 p
1!
b0 v
1$
#670000
b1010 W
b1010 X
b1 a
b0 `
b1010 Y
b1010 m
b1010 &
b1010 n
b1010 q
b1010 t
1#
0$
#675000
0l
0Z
0H
b0 e
b0 [
0G
1D
1C
0A
1B
0@
1;
0?
0-
08
bz01zz U
1'
1O
bz100z V
bz0 h
b11 i
b0zzz _
b1 j
bz11z S
bz0z ^
bz1011 k
b1010 %
b1010 o
b1010 p
b1010 v
1$
#680000
b101 m
b101 W
b101 X
b0 b
b1 c
b0 a
b1 `
b101 Y
b101 &
b101 n
b101 q
b101 t
0$
#685000
1l
1Z
1H
b1 e
b1 [
1G
0D
0C
0B
0;
b10 i
1N
1-
bz00zz U
0O
b1 g
bz1 h
bz010z V
bz11z S
bz1z ^
b11 j
bz1zz R
bz0zz ]
b1zzz _
bz0110 k
b101 %
b101 o
b101 p
0!
b101 v
1$
#690000
b1001 m
b1001 W
b1001 X
b1 b
b0 c
b1001 Y
b1001 &
b1001 n
b1001 q
b1001 t
0$
#695000
b1 j
bz100z V
bz01zz U
1O
b11 g
b0zzz _
bz11z S
bz0zz R
bz1zz ]
bz1010 k
1!
b1001 %
b1001 o
b1001 p
b1001 v
1$
#700000
b0 W
b0 X
b0 b
b0 `
b0 Y
b0 m
b0 &
b0 n
b0 q
b0 t
0#
0$
#705000
1A
1@
0E
1?
0F
06
0O
18
07
1)
0'
1*
bz11zz U
bz00z S
b10 j
0N
bz111z V
b1 i
b1zzz _
bz0001 k
b0 %
b0 o
b0 p
b0 v
1$
#710000
b1011 W
b1011 X
b1 b
b1 a
b1 `
b1011 Y
b1011 &
b1011 n
b1011 q
b1011 t
0$
#715000
1$
#720000
b1100 W
b1100 X
b1 c
b0 a
b0 `
b1100 Y
b1100 &
b1100 n
b1100 q
b1100 t
0$
#725000
1$
#730000
b1101 W
b1101 X
b1 `
b1101 Y
b1101 &
b1101 n
b1101 q
b1101 t
0$
#735000
1$
#740000
0$
#745000
1$
#750000
b1110 W
b1110 X
b1 a
b0 `
b1110 Y
b1110 &
b1110 n
b1110 q
b1110 t
0$
#755000
1$
#760000
b1010 W
b1010 X
b0 c
b1010 Y
b1010 m
b1010 &
b1010 n
b1010 q
b1010 t
1#
0$
#765000
0l
0Z
0H
b0 e
b0 [
0G
1D
1C
0A
1B
0@
1;
0?
0-
08
1O
bz0 h
1'
bz100z V
bz01zz U
b1 j
bz11z S
bz0z ^
b11 i
b0zzz _
bz1011 k
b1010 %
b1010 o
b1010 p
b1010 v
1$
#770000
b1000 W
b1000 X
b0 a
b1000 Y
b0 m
1l
b1000 &
b1000 n
b1000 q
b1000 t
0#
0$
#775000
1Z
1H
b1 e
b1 [
1G
0D
0C
0B
1A
0F
0;
1@
1?
0E
1-
09
18
06
1+
bz11zz U
0'
1)
0O
bz111z V
bz1 h
b1 i
b1zzz _
b10 j
bz00z S
bz1z ^
bz0001 k
b0 %
b0 o
b0 p
b0 v
1$
#780000
b1000 m
1#
0$
#785000
1F
0A
1E
0@
16
0?
0)
08
1'
bz011z V
bz01zz U
b0 j
b11 i
b0zzz _
bz1001 k
b1000 %
b1000 o
b1000 p
b1000 v
1$
#790000
b11 W
b11 X
b0 b
b1 a
b1 `
b11 Y
b0 m
b11 &
b11 n
b11 q
b11 t
0#
0$
#795000
0F
1A
0E
1@
06
1?
1)
18
0'
bz111z V
bz11zz U
b10 j
b1 i
b1zzz _
bz0001 k
b0 %
b0 o
b0 p
b0 v
1$
#800000
b1001 W
b1001 X
b1 b
b0 a
b1001 Y
b1001 &
b1001 n
b1001 q
b1001 t
0$
#805000
1$
#810000
b1101 W
b1101 X
b1 c
b1101 Y
b1101 m
b1101 &
b1101 n
b1101 q
b1101 t
1#
0$
#815000
0A
0@
0?
08
bz10zz U
b0z f
1'
b0zzz _
b10 i
bz11z S
bz1zz R
bz0zz ]
b11 j
1N
bz110z V
bz1110 k
b1101 %
b1101 o
b1101 p
b1101 v
1$
#820000
0$
#825000
1$
#830000
b1010 W
b1010 X
b0 c
b1 a
b0 `
b1010 Y
b0 m
b1010 &
b1010 n
b1010 q
b1010 t
0#
0$
#835000
1Z
1H
b1 e
b1 [
1A
1G
1@
0F
0D
1?
0E
07
0>
18
06
1*
bz11zz U
b1z f
10
0'
1)
b11 g
b1zzz _
b1 i
bz00z S
bz0zz R
bz1zz ]
b10 j
0N
bz111z V
bz0001 k
b0 %
b0 o
b0 p
b0 v
1$
#840000
b1 m
0l
1#
0Z
0H
b0 e
b1 W
b10 `
b0 c
b1 X
0I
12
b10 d
b0 [
b0 b
b0 a
1L
0K
0J
b11 \
0(
14
13
b1000000000000 Y
b0 "
b0 Q
b0 r
b0 u
b0 &
b0 n
b0 q
b0 t
0$
#845000
1l
1Z
1H
b10 m
b10 e
b10 W
b1000 [
1A
1F
b10 X
1@
17
1?
b0 `
0*
b10 a
08
1O
1'
b0 i
b10000000000000 Y
bz11z S
b11 j
1N
bz000z V
bz0010 k
b1 %
b1 o
b1 p
0!
b1 v
1$
#850000
0$
