tarea3/config/compare.vcd
$date
	Sat May 16 14:16:34 2020
$end
$version
	GTKWave Analyzer v3.3.62 (w)1999-2014 BSI
$end
$timescale
	1ps
$end
$scope module tb_top $end
$scope module RESULTS $end
$var wire 1 * rcoB $end
$var wire 4 & QB[3:0] $end
$var wire 1 + rcoC $end
$var wire 1 ) rcoA $end
$var wire 1 " clk $end
$var wire 4 ' QC[3:0] $end
$var wire 4 % QA[3:0] $end
$var wire 1 $ enable $end
$scope module sb $end
$var wire 1 , sb_rco $end
$upscope $end
$var wire 2 # modo[1:0] $end
$scope module sb $end
$var wire 4 ( sb_Q[3:0] $end
$upscope $end
$upscope $end
$upscope $end
$enddefinitions $end
$dumpvars
#0
bx %
bx #
x)
x*
bx &
0"
x$
x,
bx '
bx (
x+
#5000
1"
#10000
0"
b11 #
1$
#15000
0+
b1111 %
1)
1"
b1111 &
b1111 (
0,
b1111 '
#20000
0"
b0 #
#25000
1"
b0 '
1+
1*
b0 %
1,
b0 &
b0 (
#30000
0"
#35000
1"
b1 (
0*
0+
0)
b1 '
b1 &
b1 %
0,
#40000
0"
#45000
1"
b10 (
1*
b10 %
b10 '
b10 &
#50000
0"
#55000
1"
b11 &
b11 (
b11 '
0*
b11 %
#60000
0"
#65000
1"
b100 %
b100 &
b100 (
b100 '
#70000
0"
#75000
1"
b101 '
b101 %
b101 (
b101 &
#80000
0"
#85000
1"
b110 &
b110 '
b110 (
b110 %
#90000
0"
#95000
1"
b111 %
b111 &
b111 (
b111 '
#100000
0"
#105000
1"
b1000 '
b1000 %
b1000 (
b1000 &
#110000
0"
#115000
1"
b1001 &
b1001 '
b1001 (
1*
b1001 %
#120000
0"
#125000
1"
b1010 %
b1010 &
0*
b1010 '
b1010 (
#130000
0"
#135000
1"
b1011 (
b1011 %
b1011 '
b1011 &
#140000
0"
#145000
1"
b1100 &
b1100 (
b1100 '
b1100 %
#150000
0"
#155000
1"
b1101 %
b1101 &
b1101 '
b1101 (
#160000
0"
#165000
1"
b1110 (
b1110 %
b1110 '
b1110 &
#170000
0"
#175000
1"
b1111 &
b1111 (
b1111 '
b1111 %
#180000
0"
#185000
1"
b0 %
1)
b0 &
1+
1,
b0 '
b0 (
1*
#190000
0"
#195000
1"
0*
0+
b1 &
b1 %
0)
b1 (
0,
b1 '
#200000
0"
b1 #
#205000
1"
b0 '
b0 %
b0 &
1*
b0 (
#210000
0"
#215000
1"
b1111 (
b1111 &
b1111 %
b1111 '
1+
0*
1)
1,
#220000
0"
#225000
1"
0,
b1110 '
b1110 %
b1110 (
b1110 &
0)
0+
1*
#230000
0"
#235000
1"
b1101 (
b1101 %
b1101 '
b1101 &
#240000
0"
#245000
1"
b1100 &
b1100 %
b1100 (
b1100 '
#250000
0"
#255000
1"
b1011 '
b1011 %
b1011 &
b1011 (
#260000
0"
#265000
1"
b1010 (
b1010 %
b1010 '
b1010 &
#270000
0"
#275000
1"
b1001 &
b1001 %
b1001 (
b1001 '
#280000
0"
#285000
1"
b1000 '
b1000 %
b1000 &
b1000 (
#290000
0"
#295000
1"
b111 (
b111 %
b111 '
b111 &
#300000
0"
#305000
1"
b110 &
b110 %
b110 (
b110 '
#310000
0"
#315000
1"
b101 '
b101 %
b101 &
b101 (
#320000
0"
#325000
1"
b100 (
b100 %
b100 '
b100 &
#330000
0"
#335000
1"
b11 &
b11 %
b11 (
b11 '
#340000
0"
#345000
1"
b10 '
b10 %
b10 &
b10 (
#350000
0"
#355000
1"
b1 (
b1 %
b1 '
b1 &
#360000
b10 #
0"
#365000
1"
b1110 %
b1110 &
1,
b1110 (
b1110 '
1+
1)
#370000
0"
#375000
1"
0)
0*
0,
b1011 &
b1011 %
0+
b1011 (
b1011 '
#380000
0"
#385000
1"
b1000 '
b1000 &
b1000 (
b1000 %
#390000
0"
#395000
1"
b101 %
b101 '
b101 (
b101 &
#400000
0"
#405000
1"
b10 &
b10 %
b10 (
b10 '
#410000
0"
#415000
1"
b1111 '
b1111 &
1,
1)
1*
b1111 (
b1111 %
#420000
0"
#425000
1"
b1100 %
0)
0,
b1100 '
b1100 &
b1100 (
0*
#430000
0"
#435000
1"
b1001 '
b1001 %
b1001 (
b1001 &
#440000
0"
#445000
1"
b110 &
b110 '
b110 (
b110 %
#450000
0"
#455000
1"
b11 %
b11 &
b11 (
b11 '
#460000
0"
#465000
1"
b0 '
b0 %
b0 (
b0 &
#470000
0"
#475000
1"
b1101 &
1*
b1101 '
1,
1)
b1101 (
b1101 %
1+
#480000
0"
#485000
1"
0+
0,
b1010 '
b1010 &
0*
b1010 %
0)
b1010 (
#490000
0"
#495000
1"
b111 (
b111 &
b111 '
b111 %
#500000
0"
#505000
1"
b100 %
b100 &
b100 (
b100 '
1*
#510000
0"
#515000
1"
0*
b1 &
b1 %
b1 '
b1 (
#520000
0"
#525000
1"
b1110 (
b1110 &
1*
1+
1,
b1110 '
b1110 %
1)
#530000
0"
#535000
1"
0)
0+
0*
b1011 (
b1011 &
b1011 %
0,
b1011 '
#540000
0"
#545000
1"
b1000 '
b1000 (
b1000 &
b1000 %
#550000
0"
#555000
1"
b101 %
b101 '
b101 &
b101 (
#560000
0"
#565000
1"
b10 (
b10 %
b10 &
b10 '
#570000
0"
#575000
1"
b1111 '
b1111 (
1*
1)
b1111 &
1,
b1111 %
