Proyecto/output/gtkwave/synth2_verif.vcd
$date
	Mon May 25 16:56:51 2020
$end
$version
	Icarus Verilog
$end
$timescale
	1ps
$end
$scope module tb_top $end
$var wire 1 ! rco $end
$var wire 2 " modo [1:0] $end
$var wire 1 # enable $end
$var wire 1 $ clock $end
$var wire 4 % Q [3:0] $end
$var wire 4 & D [3:0] $end
$scope module clocks $end
$var reg 1 $ clock $end
$upscope $end
$scope module dut $end
$var wire 4 ' Qstatus [3:0] $end
$var wire 1 ( RCOstatus $end
$var wire 1 $ clk $end
$var wire 1 ! rco $end
$var wire 2 ) modo [1:0] $end
$var wire 1 # enable $end
$var wire 1 * _074_ $end
$var wire 1 + _073_ $end
$var wire 1 , _072_ $end
$var wire 1 - _071_ $end
$var wire 1 . _070_ $end
$var wire 1 / _069_ $end
$var wire 1 0 _068_ $end
$var wire 1 1 _067_ $end
$var wire 1 2 _066_ $end
$var wire 1 3 _065_ $end
$var wire 1 4 _064_ $end
$var wire 1 5 _063_ $end
$var wire 1 6 _062_ $end
$var wire 1 7 _061_ $end
$var wire 1 8 _060_ $end
$var wire 1 9 _059_ $end
$var wire 1 : _058_ $end
$var wire 1 ; _057_ $end
$var wire 1 < _056_ $end
$var wire 1 = _055_ $end
$var wire 1 > _054_ $end
$var wire 1 ? _053_ $end
$var wire 1 @ _052_ $end
$var wire 1 A _051_ $end
$var wire 1 B _050_ $end
$var wire 1 C _049_ $end
$var wire 1 D _048_ $end
$var wire 1 E _047_ $end
$var wire 1 F _046_ $end
$var wire 1 G _045_ $end
$var wire 1 H _044_ $end
$var wire 1 I _043_ $end
$var wire 1 J _042_ $end
$var wire 1 K _041_ $end
$var wire 1 L _040_ $end
$var wire 1 M _039_ $end
$var wire 1 N _038_ $end
$var wire 1 O _037_ $end
$var wire 1 P _036_ $end
$var wire 1 Q _035_ $end
$var wire 1 R _034_ $end
$var wire 1 S _033_ $end
$var wire 1 T _032_ $end
$var wire 1 U _031_ $end
$var wire 1 V _030_ $end
$var wire 1 W _029_ $end
$var wire 1 X _028_ $end
$var wire 1 Y _027_ $end
$var wire 1 Z _026_ $end
$var wire 1 [ _025_ $end
$var wire 1 \ _024_ $end
$var wire 1 ] _023_ $end
$var wire 1 ^ _022_ $end
$var wire 1 _ _021_ $end
$var wire 1 ` _020_ $end
$var wire 1 a _019_ $end
$var wire 1 b _018_ $end
$var wire 1 c _017_ $end
$var wire 1 d _016_ $end
$var wire 1 e _015_ $end
$var wire 1 f _014_ $end
$var wire 1 g _013_ $end
$var wire 1 h _012_ $end
$var wire 1 i _011_ $end
$var wire 1 j _010_ $end
$var wire 1 k _009_ $end
$var wire 1 l _008_ $end
$var wire 1 m _007_ $end
$var wire 1 n _006_ $end
$var wire 1 o _005_ $end
$var wire 1 p _004_ $end
$var wire 1 q _003_ $end
$var wire 1 r _002_ $end
$var wire 1 s _001_ $end
$var wire 4 t _000_ [3:0] $end
$var wire 4 u Q [3:0] $end
$var wire 4 v D [3:0] $end
$scope module _075_ $end
$var wire 1 w A $end
$var wire 1 r Y $end
$upscope $end
$scope module _076_ $end
$var wire 1 x A $end
$var wire 1 q Y $end
$upscope $end
$scope module _077_ $end
$var wire 1 y A $end
$var wire 1 p Y $end
$upscope $end
$scope module _078_ $end
$var wire 1 z A $end
$var wire 1 o Y $end
$upscope $end
$scope module _079_ $end
$var wire 1 { A $end
$var wire 1 n Y $end
$upscope $end
$scope module _080_ $end
$var wire 1 | A $end
$var wire 1 m Y $end
$upscope $end
$scope module _081_ $end
$var wire 1 l Y $end
$var wire 1 # A $end
$upscope $end
$scope module _082_ $end
$var wire 1 k Y $end
$var wire 1 m B $end
$var wire 1 n A $end
$upscope $end
$scope module _083_ $end
$var wire 1 } A $end
$var wire 1 ~ B $end
$var wire 1 j Y $end
$upscope $end
$scope module _084_ $end
$var wire 1 !" A $end
$var wire 1 i Y $end
$var wire 1 l B $end
$upscope $end
$scope module _085_ $end
$var wire 1 "" A $end
$var wire 1 h Y $end
$var wire 1 k B $end
$upscope $end
$scope module _086_ $end
$var wire 1 g Y $end
$var wire 1 j B $end
$var wire 1 q A $end
$upscope $end
$scope module _087_ $end
$var wire 1 f Y $end
$var wire 1 g B $end
$var wire 1 h A $end
$upscope $end
$scope module _088_ $end
$var wire 1 e Y $end
$var wire 1 f B $end
$var wire 1 # A $end
$upscope $end
$scope module _089_ $end
$var wire 1 #" Y $end
$var wire 1 e B $end
$var wire 1 i A $end
$upscope $end
$scope module _090_ $end
$var wire 1 $" A $end
$var wire 1 d Y $end
$var wire 1 # B $end
$upscope $end
$scope module _091_ $end
$var wire 1 %" A $end
$var wire 1 &" B $end
$var wire 1 c Y $end
$upscope $end
$scope module _092_ $end
$var wire 1 b Y $end
$var wire 1 c A $end
$upscope $end
$scope module _093_ $end
$var wire 1 a Y $end
$var wire 1 q B $end
$var wire 1 r A $end
$upscope $end
$scope module _094_ $end
$var wire 1 ` Y $end
$var wire 1 a B $end
$var wire 1 c A $end
$upscope $end
$scope module _095_ $end
$var wire 1 '" A $end
$var wire 1 _ Y $end
$var wire 1 ` B $end
$upscope $end
$scope module _096_ $end
$var wire 1 (" B $end
$var wire 1 ^ Y $end
$var wire 1 n A $end
$upscope $end
$scope module _097_ $end
$var wire 1 ] Y $end
$var wire 1 ^ A $end
$upscope $end
$scope module _098_ $end
$var wire 1 \ Y $end
$var wire 1 ^ B $end
$var wire 1 ` A $end
$upscope $end
$scope module _099_ $end
$var wire 1 )" A $end
$var wire 1 [ Y $end
$var wire 1 k B $end
$upscope $end
$scope module _100_ $end
$var wire 1 Z Y $end
$var wire 1 [ B $end
$var wire 1 # A $end
$upscope $end
$scope module _101_ $end
$var wire 1 Y Y $end
$var wire 1 Z A $end
$upscope $end
$scope module _102_ $end
$var wire 1 X Y $end
$var wire 1 Y B $end
$var wire 1 \ A $end
$upscope $end
$scope module _103_ $end
$var wire 1 W Y $end
$var wire 1 X B $end
$var wire 1 _ A $end
$upscope $end
$scope module _104_ $end
$var wire 1 *" Y $end
$var wire 1 W B $end
$var wire 1 d A $end
$upscope $end
$scope module _105_ $end
$var wire 1 +" A $end
$var wire 1 V Y $end
$var wire 1 # B $end
$upscope $end
$scope module _106_ $end
$var wire 1 U Y $end
$var wire 1 c B $end
$var wire 1 p A $end
$upscope $end
$scope module _107_ $end
$var wire 1 ," A $end
$var wire 1 T Y $end
$var wire 1 b B $end
$upscope $end
$scope module _108_ $end
$var wire 1 S Y $end
$var wire 1 T B $end
$var wire 1 U A $end
$upscope $end
$scope module _109_ $end
$var wire 1 R Y $end
$var wire 1 S A $end
$upscope $end
$scope module _110_ $end
$var wire 1 -" A $end
$var wire 1 ." B $end
$var wire 1 Q Y $end
$upscope $end
$scope module _111_ $end
$var wire 1 P Y $end
$var wire 1 Q B $end
$var wire 1 S A $end
$upscope $end
$scope module _112_ $end
$var wire 1 /" A $end
$var wire 1 O Y $end
$var wire 1 k B $end
$upscope $end
$scope module _113_ $end
$var wire 1 N Y $end
$var wire 1 O B $end
$var wire 1 # A $end
$upscope $end
$scope module _114_ $end
$var wire 1 M Y $end
$var wire 1 N A $end
$upscope $end
$scope module _115_ $end
$var wire 1 L Y $end
$var wire 1 M B $end
$var wire 1 P A $end
$upscope $end
$scope module _116_ $end
$var wire 1 0" A $end
$var wire 1 K Y $end
$var wire 1 a B $end
$upscope $end
$scope module _117_ $end
$var wire 1 J Y $end
$var wire 1 K A $end
$upscope $end
$scope module _118_ $end
$var wire 1 1" A $end
$var wire 1 I Y $end
$var wire 1 a B $end
$upscope $end
$scope module _119_ $end
$var wire 1 H Y $end
$var wire 1 I B $end
$var wire 1 J A $end
$upscope $end
$scope module _120_ $end
$var wire 1 G Y $end
$var wire 1 H B $end
$var wire 1 ^ A $end
$upscope $end
$scope module _121_ $end
$var wire 1 2" A $end
$var wire 1 F Y $end
$var wire 1 m B $end
$upscope $end
$scope module _122_ $end
$var wire 1 3" B $end
$var wire 1 E Y $end
$var wire 1 n A $end
$upscope $end
$scope module _123_ $end
$var wire 1 D Y $end
$var wire 1 F B $end
$var wire 1 R A $end
$upscope $end
$scope module _124_ $end
$var wire 1 C Y $end
$var wire 1 D B $end
$var wire 1 G A $end
$upscope $end
$scope module _125_ $end
$var wire 1 B Y $end
$var wire 1 K B $end
$var wire 1 ^ A $end
$upscope $end
$scope module _126_ $end
$var wire 1 A Y $end
$var wire 1 C B $end
$var wire 1 L A $end
$upscope $end
$scope module _127_ $end
$var wire 1 4" Y $end
$var wire 1 A B $end
$var wire 1 V A $end
$upscope $end
$scope module _128_ $end
$var wire 1 5" A $end
$var wire 1 @ Y $end
$var wire 1 # B $end
$upscope $end
$scope module _129_ $end
$var wire 1 ? Y $end
$var wire 1 K B $end
$var wire 1 ] A $end
$upscope $end
$scope module _130_ $end
$var wire 1 > Y $end
$var wire 1 E B $end
$var wire 1 T A $end
$upscope $end
$scope module _131_ $end
$var wire 1 = Y $end
$var wire 1 > B $end
$var wire 1 ? A $end
$upscope $end
$scope module _132_ $end
$var wire 1 < Y $end
$var wire 1 = B $end
$var wire 1 o A $end
$upscope $end
$scope module _133_ $end
$var wire 1 6" A $end
$var wire 1 ; Y $end
$var wire 1 k B $end
$upscope $end
$scope module _134_ $end
$var wire 1 : Y $end
$var wire 1 ; B $end
$var wire 1 # A $end
$upscope $end
$scope module _135_ $end
$var wire 1 9 Y $end
$var wire 1 F B $end
$var wire 1 T A $end
$upscope $end
$scope module _136_ $end
$var wire 1 8 Y $end
$var wire 1 9 B $end
$var wire 1 B A $end
$upscope $end
$scope module _137_ $end
$var wire 1 7 Y $end
$var wire 1 8 B $end
$var wire 1 o A $end
$upscope $end
$scope module _138_ $end
$var wire 1 7" A $end
$var wire 1 6 Y $end
$var wire 1 U B $end
$upscope $end
$scope module _139_ $end
$var wire 1 8" A $end
$var wire 1 5 Y $end
$var wire 1 U B $end
$upscope $end
$scope module _140_ $end
$var wire 1 4 Y $end
$var wire 1 5 A $end
$upscope $end
$scope module _141_ $end
$var wire 1 3 Y $end
$var wire 1 5 B $end
$var wire 1 Q A $end
$upscope $end
$scope module _142_ $end
$var wire 1 2 Y $end
$var wire 1 3 B $end
$var wire 1 6 A $end
$upscope $end
$scope module _143_ $end
$var wire 1 1 Y $end
$var wire 1 2 B $end
$var wire 1 : A $end
$upscope $end
$scope module _144_ $end
$var wire 1 0 Y $end
$var wire 1 1 B $end
$var wire 1 7 A $end
$upscope $end
$scope module _145_ $end
$var wire 1 / Y $end
$var wire 1 0 B $end
$var wire 1 < A $end
$upscope $end
$scope module _146_ $end
$var wire 1 9" Y $end
$var wire 1 / B $end
$var wire 1 @ A $end
$upscope $end
$scope module _147_ $end
$var wire 1 . Y $end
$var wire 1 ! B $end
$var wire 1 # A $end
$upscope $end
$scope module _148_ $end
$var wire 1 - Y $end
$var wire 1 4 B $end
$var wire 1 Q A $end
$upscope $end
$scope module _149_ $end
$var wire 1 , Y $end
$var wire 1 7 B $end
$var wire 1 j A $end
$upscope $end
$scope module _150_ $end
$var wire 1 + Y $end
$var wire 1 - B $end
$var wire 1 # A $end
$upscope $end
$scope module _151_ $end
$var wire 1 * Y $end
$var wire 1 + B $end
$var wire 1 , A $end
$upscope $end
$scope module _152_ $end
$var wire 1 s Y $end
$var wire 1 * B $end
$var wire 1 . A $end
$upscope $end
$scope module _153_ $end
$var wire 1 $ C $end
$var wire 1 :" D $end
$var reg 1 ;" Q $end
$upscope $end
$scope module _154_ $end
$var wire 1 $ C $end
$var wire 1 <" D $end
$var reg 1 =" Q $end
$upscope $end
$scope module _155_ $end
$var wire 1 $ C $end
$var wire 1 >" D $end
$var reg 1 ?" Q $end
$upscope $end
$scope module _156_ $end
$var wire 1 $ C $end
$var wire 1 @" D $end
$var reg 1 A" Q $end
$upscope $end
$scope module _157_ $end
$var wire 1 $ C $end
$var wire 1 s D $end
$var reg 1 B" Q $end
$upscope $end
$upscope $end
$scope module tb $end
$var wire 4 C" Q [3:0] $end
$var wire 1 $ clk $end
$var wire 1 ! rco $end
$var reg 4 D" D [3:0] $end
$var reg 1 # enable $end
$var reg 2 E" modo [1:0] $end
$var integer 32 F" log [31:0] $end
$scope module sb $end
$var wire 4 G" D [3:0] $end
$var wire 1 $ clk $end
$var wire 1 # enable $end
$var wire 2 H" modo [1:0] $end
$var reg 4 I" sb_Q [3:0] $end
$var reg 1 J" sb_rco $end
$upscope $end
$scope task checker $end
$upscope $end
$scope task completely_random_checker $end
$upscope $end
$scope task drv_completely_random_request $end
$upscope $end
$scope task drv_init $end
$upscope $end
$scope task drv_random_request $end
$upscope $end
$scope task drv_request $end
$upscope $end
$scope task random_checker $end
$upscope $end
$upscope $end
$upscope $end
$enddefinitions $end
#0
$dumpvars
xJ"
bx I"
bx H"
bx G"
b10 F"
bx E"
bx D"
bx C"
xB"
xA"
x@"
x?"
x>"
x="
x<"
x;"
x:"
x9"
x8"
x7"
x6"
x5"
x4"
x3"
x2"
x1"
x0"
x/"
x."
x-"
x,"
x+"
x*"
x)"
x("
x'"
x&"
x%"
x$"
x#"
x""
x!"
x~
x}
x|
x{
xz
xy
xx
xw
bx v
bx u
bx t
xs
xr
xq
xp
xo
xn
xm
xl
xk
xj
xi
xh
xg
xf
xe
xd
xc
xb
xa
x`
x_
x^
x]
x\
x[
xZ
xY
xX
xW
xV
xU
xT
xS
xR
xQ
xP
xO
xN
xM
xL
xK
xJ
xI
xH
xG
xF
xE
xD
xC
xB
xA
x@
x?
x>
x=
x<
x;
x:
x9
x8
x7
x6
x5
x4
x3
x2
x1
x0
x/
x.
x-
x,
x+
x*
bx )
x(
bx '
bx &
bx %
0$
x#
bx "
x!
$end
#2000
1$
#4000
0#
13"
12"
1."
1-"
1("
1'"
1~
1}
1|
1{
16"
1/"
1)"
1""
b11 "
b11 )
b11 E"
b11 H"
b1111 &
b1111 v
b1111 D"
b1111 G"
0$
#6000
1$
#8000
1#
0$
#10000
1J"
b1111 I"
1$
#11000
0j
#12000
0$
#13000
0l
0F
0Q
0^
0_
#14000
1$
0m
0n
#16000
0$
#17000
0.
0@
0V
0d
#18000
1$
1,
1g
#20000
0$
1i
19
1D
1-
13
1P
1B
1G
1\
#21000
1E
#22000
1$
1]
#23000
1k
#24000
0$
#26000
1$
#27000
0+
08
0C
0*
#28000
0$
#29000
02
#30000
1$
0;
0O
0[
0h
0>
#31000
0?
#32000
0$
#34000
1$
17
#36000
0$
1s
#37000
1:
1N
1Z
1f
#38000
1B"
1$
#40000
0$
1=
#40500
1(
1!
#42000
1$
#44000
0$
0e
#46000
1$
01
#47000
0M
0Y
#48000
0$
#49000
0<
#50000
1$
#51000
1:"
bx1 t
1#"
#52000
03"
02"
0."
0-"
0("
0'"
0~
0}
0|
0{
b0 "
b0 )
b0 E"
b0 H"
0$
#53000
10
#54000
1;"
b0 I"
1J"
1$
1L
1X
#56000
06"
0/"
0)"
b1 &
b1 v
b1 D"
b1 G"
0#
0$
#56500
1&"
1!"
1x
bx1 '
bx1 %
bx1 u
bx1 C"
#58000
1$
#59000
1j
#60000
1)"
b11 &
b11 v
b11 D"
b11 G"
1#
0$
#61000
1F
1Q
1^
x_
1m
1n
#62000
b1 I"
0J"
1$
0/
#63000
1;
1O
0A
0W
#64000
16"
1/"
0)"
b1101 &
b1101 v
b1101 D"
b1101 G"
0$
#66000
b10 I"
1$
0,
xg
#66500
0q
#67000
1[
#68000
06"
0/"
1)"
0""
b10 &
b10 v
b10 D"
b10 G"
0$
x9
xD
x-
x3
xP
xB
xG
x\
#70000
b11 I"
1$
0:
0N
0F
0^
0k
#71000
1@"
b1xx1 t
19"
#72000
16"
1/"
0)"
1""
b1101 &
b1101 v
b1101 D"
b1101 G"
1>"
1<"
0$
14"
b1111 t
1*"
#73500
1a
1g
#74000
1="
1?"
1A"
b100 I"
1$
0Z
#75000
1h
x+
x8
xC
1*
#76000
0#
0$
#76500
1%"
1$"
1w
11"
10"
1,"
1+"
1y
18"
17"
15"
1z
b1111 '
b1111 %
b1111 u
b1111 C"
#77000
19
1D
1B
1G
1\
x2
#78000
1$
#79000
x1
1M
#80000
0""
b1100 &
b1100 v
b1100 D"
b1100 G"
1#
0$
#82000
b101 I"
1$
0f
x7
#82500
0K
#83000
1e
1Y
#83500
0c
0I
#84000
06"
1)"
b110 &
b110 v
b110 D"
b110 G"
0$
08
0C
x*
0s
#85500
0T
06
#86000
0B"
b110 I"
1$
x0
xL
#86500
0r
0p
0o
#88000
16"
0/"
b1010 &
b1010 v
b1010 D"
b1010 G"
0$
#88500
0(
0!
#89000
x,
#90000
0;"
b111 I"
0:"
1$
b1110 t
0#"
0X
#90500
1`
1H
#91000
17
#91500
1J
#92000
06"
1/"
1""
b111 &
b111 v
b111 D"
b111 G"
0$
#92500
0&"
0!"
0x
b1110 '
b1110 %
b1110 u
b1110 C"
1b
#93000
xs
#94000
xB"
b1000 I"
1$
#95000
x/
xA
#95500
1U
#96000
16"
b1111 &
b1111 v
b1111 D"
b1111 G"
0#
0$
#96500
x(
x!
#98000
1$
0,
#99000
xW
#99500
1c
0_
#100000
0""
b1110 &
b1110 v
b1110 D"
b1110 G"
0$
#101500
1q
#102000
1$
#102500
05
#103000
1+
1:
1N
1Z
#104000
06"
0)"
1""
b101 &
b101 v
b101 D"
b101 G"
x@"
x>"
0$
x9"
bx10 t
x4"
#104500
0S
#105000
x.
1l
#106000
x?"
xA"
1$
#106500
0`
#108000
16"
b1101 &
b1101 v
b1101 D"
b1101 G"
x<"
0$
bx0 t
x*"
#108500
x1"
x0"
x,"
x+"
xy
x8"
x7"
x5"
xz
bx10 '
bx10 %
bx10 u
bx10 C"
0g
0U
1W
#109500
13
0b
#110000
x="
1$
#111500
1P
14
#112000
06"
b101 &
b101 v
b101 D"
b101 G"
1#
0$
0*
01
#112500
x%"
x$"
xw
bx0 '
bx0 %
bx0 u
bx0 C"
#113000
0M
0Y
#113500
1R
#114000
b1001 I"
1$
#115500
xI
1f
15
1_
#116000
16"
0/"
1)"
0""
b1010 &
b1010 v
b1010 D"
b1010 G"
0$
#117500
0<"
xp
x6
xo
1S
bx00 t
0*"
#118000
0="
b1010 I"
1$
#118500
1L
0-
02
xT
#119000
0:
0N
0Z
10
#120000
06"
0)"
b0 &
b0 v
b0 D"
b0 G"
0#
0$
1X
#120500
0%"
0$"
0w
bx00 '
bx00 %
bx00 u
bx00 C"
#121000
x@
xV
#121500
1r
#122000
1$
#122500
xH
03
#124000
16"
1/"
1""
b1101 &
b1101 v
b1101 D"
b1101 G"
0$
#124500
0P
0W
#125500
04
#126000
1$
#127000
1:
1N
1Z
#127500
0A
xS
0R
#128000
06"
0/"
1)"
b11 &
b11 v
b11 D"
b11 G"
0$
0/
#128500
0a
#129000
1d
#130000
1$
#131500
x2
#132000
1#
0$
#132500
1-
#134000
b1011 I"
1$
#134500
xP
#135500
1I
1`
#136000
13"
12"
1."
1-"
1("
1'"
1~
1}
1|
1{
b11 "
b11 )
b11 E"
b11 H"
0$
#136500
xR
#137500
xK
#138000
1J"
b11 I"
1$
#139000
0:
0N
0Z
0e
#139500
0+
#140000
0""
b10 &
b10 v
b10 D"
b10 G"
0$
#141000
0.
0@
0V
0d
#142000
b10 I"
1$
0l
#142500
0H
#143000
0E
0j
#144000
16"
1/"
0)"
1""
b1101 &
b1101 v
b1101 D"
b1101 G"
0#
0$
#144500
0_
#145000
0Q
#146000
1;"
1:"
1$
bx01 t
1#"
0m
0n
#147500
xJ
#148000
06"
0/"
1)"
b11 &
b11 v
b11 D"
b11 G"
1#
0$
x1
1M
1Y
#148500
1&"
1!"
1x
bx01 '
bx01 %
bx01 u
bx01 C"
1*
#150000
0B"
1A"
1?"
1="
b11 I"
1@"
1>"
1<"
1$
1,
1g
0s
19"
14"
b1111 t
1*"
#152000
16"
0""
b1010 &
b1010 v
b1010 D"
b1010 G"
0#
0$
13
1P
x>
#152500
18"
17"
15"
1z
11"
10"
1,"
1+"
1y
1%"
1$"
1w
0(
0!
b1111 '
b1111 %
b1111 u
b1111 C"
#153000
1E
1.
1l
#154000
1$
#154500
xH
#155000
1+
1:
1N
1Z
1e
x0
0L
0X
1k
#156000
06"
b10 &
b10 v
b10 D"
b10 G"
0$
#157000
0f
#158000
1$
#158500
0q
#159000
0*
#159500
0c
#160000
0)"
1""
b1 &
b1 v
b1 D"
b1 G"
0$
0i
#161000
02
x=
#161500
06
0K
0T
#162000
1$
0>
#162500
0o
0p
0r
#164000
16"
0""
b1000 &
b1000 v
b1000 D"
b1000 G"
0$
01
x/
1A
1W
#165000
0M
0Y
#165500
1a
#166000
1$
#168000
1)"
1""
b1011 &
b1011 v
b1011 D"
b1011 G"
1#
0$
#168500
1U
1b
#170000
b1011 I"
1$
x<
#170500
1J
0S
#171000
0;
0h
10
1=
#172000
06"
1/"
0""
b110 &
b110 v
b110 D"
b110 G"
0#
0$
1L
1X
#172500
0I
#173000
x@"
0>"
0<"
x9"
04"
bx001 t
0*"
#174000
xA"
0?"
0="
1$
#175000
0[
1h
#175500
05
#176000
16"
0)"
b1100 &
b1100 v
b1100 D"
b1100 G"
0$
#176500
x8"
x7"
x5"
xz
01"
00"
0,"
0+"
0y
0%"
0$"
0w
bx001 '
bx001 %
bx001 u
bx001 C"
#177500
1H
#178000
1$
#179000
0O
#179500
1R
#180000
02"
0-"
0'"
0}
0{
b10 "
b10 )
b10 E"
b10 H"
0$
0/
0<
#181000
0A
0W
#182000
1$
#183000
1[
#183500
x5
1I
1c
#184000
06"
0/"
1""
b1 &
b1 v
b1 D"
b1 G"
1#
0$
#184500
x4
#185500
xo
1p
1r
#186000
b1000 I"
0J"
1$
#187000
1j
#188000
16"
1/"
1)"
b1111 &
b1111 v
b1111 D"
b1111 G"
0$
#189000
1@"
1F
1n
b1001 t
19"
#190000
1A"
1?"
1="
b101 I"
1>"
1<"
1$
14"
b1111 t
1*"
#190500
0H
0`
#191000
0h
0+
0Z
#192000
0/"
0""
b1010 &
b1010 v
b1010 D"
b1010 G"
0$
#192500
18"
17"
15"
1z
11"
10"
1,"
1+"
1y
1%"
1$"
1w
b1111 '
b1111 %
b1111 u
b1111 C"
0U
#193000
0.
#193500
0b
#194000
b10 I"
1$
0,
0l
#195000
1O
0[
#196000
06"
1/"
0)"
1""
b101 &
b101 v
b101 D"
b101 G"
0#
0$
0D
0E
#198000
1$
1f
0k
#199000
1h
#199500
0I
0c
15
1_
#200000
16"
0/"
b1001 &
b1001 v
b1001 D"
b1001 G"
1#
0$
1Y
#201000
1i
#201500
1S
#202000
1B"
1J"
b1111 I"
1$
0N
1Z
1s
#202500
0o
0p
0r
#203000
1;
1[
1C
1*
#204000
1/"
0""
b1100 &
b1100 v
b1100 D"
b1100 G"
0#
0$
#204500
1(
1!
#205000
1l
1>
#206000
1$
0f
#206500
1H
1`
#207000
1+
1N
0X
#208000
1)"
1""
b1111 &
b1111 v
b1111 D"
b1111 G"
1#
0:"
0$
b1110 t
0#"
#208500
1b
#209500
04
#210000
0;"
b1100 I"
0J"
1$
0:
0Z
0l
#211000
0+
0N
#211500
1U
0R
#212000
06"
b111 &
b111 v
b111 D"
b111 G"
0#
0$
0s
#212500
0&"
0!"
0x
b1110 '
b1110 %
b1110 u
b1110 C"
#213000
1l
#214000
0B"
1$
0=
#215000
1+
1:
1N
1Z
#215500
0_
#216000
16"
0)"
0""
b1100 &
b1100 v
b1100 D"
b1100 G"
1#
0$
0*
#216500
0(
0!
#218000
b1001 I"
1$
0l
#218500
05
1D
#219000
0+
0:
0N
0Z
0Y
#219500
1c
#220000
0/"
1""
b1001 &
b1001 v
b1001 D"
b1001 G"
0$
1*
1M
#220500
0S
#221500
1q
#222000
b110 I"
1$
#223000
1<
#224000
03"
12"
0."
1-"
0("
1'"
0~
1}
0|
1{
b1 "
b1 )
b1 E"
b1 H"
0$
11
#224500
1W
#225000
1Y
#225500
0C
#226000
b101 I"
1$
#226500
0`
#227000
0L
#227500
14
#228000
06"
1/"
1)"
b111 &
b111 v
b111 D"
b111 G"
0#
0$
#228500
0g
0U
#229500
1R
0b
#230000
1$
#231000
1E
00
#232000
0""
b110 &
b110 v
b110 D"
b110 G"
1#
0$
#233000
0F
1m
#233500
0<"
b1100 t
0*"
#234000
0="
b100 I"
1$
0n
#235500
1f
15
#236000
0/"
b10 &
b10 v
b10 D"
b10 G"
0#
0$
1A
#236500
0%"
0$"
0w
b1100 '
b1100 %
b1100 u
b1100 C"
#237000
1.
1l
#237500
1S
#238000
1$
#239000
1+
1:
1N
1Z
#240000
1/"
1""
b111 &
b111 v
b111 D"
b111 G"
0$
0>
#242000
1$
#243000
1^
#244000
0/"
0""
b10 &
b10 v
b10 D"
b10 G"
1#
0$
#245000
0>"
0.
0l
b1000 t
04"
#245500
1r
04
#246000
0?"
b11 I"
1$
#247500
0R
#248000
16"
1/"
0)"
1""
b1101 &
b1101 v
b1101 D"
b1101 G"
0#
0$
0*
01
#248500
01"
00"
0,"
0+"
0y
b1000 '
b1000 %
b1000 u
b1000 C"
#249000
1=
0M
0Y
#250000
1$
0G
#252000
1)"
b1111 &
b1111 v
b1111 D"
b1111 G"
1#
0$
#252500
0a
#253000
0]
#254000
b10 I"
1$
#255000
0+
0:
0N
0Z
0e
10
#255500
1I
#256000
06"
0)"
b101 &
b101 v
b101 D"
b101 G"
0$
1L
1X
#257000
1C
1s
#257500
1T
1p
#258000
1B"
b1 I"
1$
0<
#259500
1`
#260000
16"
0/"
1)"
b1011 &
b1011 v
b1011 D"
b1011 G"
0#
0$
#260500
1(
1!
#261000
1V
1d
#261500
1K
#262000
1;"
1:"
1$
b1001 t
1#"
1l
#262500
0H
#264000
1/"
b1111 &
b1111 v
b1111 D"
b1111 G"
1#
0$
1*
11
1M
1Y
#264500
1&"
1!"
1x
b1001 '
b1001 %
b1001 u
b1001 C"
#265000
0A
0W
#266000
b0 I"
1$
#266500
0\
0S
#268000
13"
02"
1."
0-"
1("
0'"
1~
0}
1|
0{
b10 "
b10 )
b10 E"
b10 H"
0$
#268500
0B
#269000
0V
0d
0l
#269500
1G
#270000
1J"
b1101 I"
1$
#271000
00
0L
#271500
0J
#272000
06"
0""
b110 &
b110 v
b110 D"
b110 G"
0#
0$
#273000
1V
1d
0s
#274000
0B"
1$
1l
#274500
0q
#275500
18
1R
#276000
16"
0)"
b1100 &
b1100 v
b1100 D"
b1100 G"
0$
0i
#276500
0(
0!
0C
#277000
0^
1n
#278000
1$
0m
#278500
1H
#279000
1+
1:
1N
1Z
1e
#280000
06"
1)"
b110 &
b110 v
b110 D"
b110 G"
0$
1/
#281500
1a
1g
#282000
1$
#284000
0/"
1""
b11 &
b11 v
b11 D"
b11 G"
1#
0$
1B
1\
0E
#285500
1A
#286000
b1010 I"
0J"
1$
1]
#287000
1F
#288000
0$
0*
01
#288500
0`
0f
#289000
0@"
b1 t
09"
0M
0Y
#290000
0A"
b111 I"
1$
#290500
0K
#291000
0+
0:
0N
0Z
08
#292000
1/"
0)"
0""
b100 &
b100 v
b100 D"
b100 G"
0$
#292500
08"
07"
05"
0z
b1 '
b1 %
b1 u
b1 C"
#293000
0V
0d
#294000
b100 I"
1$
09
0D
0l
#295000
10
#296000
16"
0/"
1)"
1""
b1011 &
b1011 v
b1011 D"
b1011 G"
0$
1L
#297000
1s
#297500
1_
#298000
1B"
b1 I"
1$
#299500
1J
#300000
0""
b1010 &
b1010 v
b1010 D"
b1010 G"
0#
0$
1*
11
1M
1Y
#300500
1(
1!
#301000
18
1C
1i
#301500
16
1o
#302000
1="
1<"
1$
b11 t
1*"
#304000
1/"
0)"
1""
b1101 &
b1101 v
b1101 D"
b1101 G"
1#
0$
0/
#304500
1%"
1$"
1w
b11 '
b11 %
b11 u
b11 C"
#305000
0A
#306000
1J"
b1110 I"
1$
#306500
0H
#307000
00
0L
0X
#308000
06"
b101 &
b101 v
b101 D"
b101 G"
0#
0:"
0$
b10 t
0#"
#308500
07
#309000
1@
1V
1l
0s
#310000
0B"
0;"
1$
#311000
1+
1:
1N
1Z
#311500
0c
#312000
03"
12"
0."
1-"
0("
1'"
0~
1}
0|
1{
b1 "
b1 )
b1 E"
b1 H"
0$
#312500
0&"
0!"
0x
0(
0!
b10 '
b10 %
b10 u
b10 C"
#314000
1$
#314500
0r
#315500
1,
10
#316000
16"
0/"
b1001 &
b1001 v
b1001 D"
b1001 G"
1#
0$
#317000
0@
0V
0l
#318000
1A"
1?"
b1101 I"
0J"
1@"
1>"
1$
19"
b1110 t
14"
#318500
1`
#319000
1E
#319500
1c
#320000
06"
0""
b0 &
b0 v
b0 D"
b0 G"
0#
0$
0*
01
#320500
18"
17"
15"
1z
11"
10"
1,"
1+"
1y
b1110 '
b1110 %
b1110 u
b1110 C"
#321000
0F
0_
1m
0M
0Y
#321500
1q
1.
#322000
1$
0n
#324000
16"
1)"
1""
b1011 &
b1011 v
b1011 D"
b1011 G"
0$
#326000
1$
1l
#326500
0`
#327500
0I
#328000
1/"
0)"
0""
b1100 &
b1100 v
b1100 D"
b1100 G"
0$
19
1D
1L
1X
#328500
0g
#329500
06
0T
#330000
1$
#330500
0o
0p
#331000
1^
#332000
1""
b1101 &
b1101 v
b1101 D"
b1101 G"
0$
#334000
1$
#334500
1H
#335000
08
0C
#335500
1f
#336000
06"
1)"
0""
b110 &
b110 v
b110 D"
b110 G"
1#
0$
#337500
17
#338000
b1100 I"
1$
#338500
1S
#340000
1""
b111 &
b111 v
b111 D"
b111 G"
0#
0$
#341000
0]
#341500
0G
#342000
1$
#344000
0""
b110 &
b110 v
b110 D"
b110 G"
0$
#344500
0,
#346000
1$
#348000
16"
0/"
0)"
1""
b1001 &
b1001 v
b1001 D"
b1001 G"
0$
#348500
1C
0R
#350000
1$
1?
