Proyecto/output/gtkwave/synth4_verif.vcd
$date
	Mon May 25 16:56:51 2020
$end
$version
	Icarus Verilog
$end
$timescale
	1ps
$end
$scope module tb_top $end
$var wire 1 ! rco $end
$var wire 2 " modo [1:0] $end
$var wire 1 # enable $end
$var wire 1 $ clock $end
$var wire 4 % Q [3:0] $end
$var wire 4 & D [3:0] $end
$scope module clocks $end
$var reg 1 $ clock $end
$upscope $end
$scope module dut $end
$var wire 4 ' Qstatus [3:0] $end
$var wire 1 ( RCOstatus $end
$var wire 1 $ clk $end
$var wire 1 ! rco $end
$var wire 2 ) modo [1:0] $end
$var wire 1 # enable $end
$var wire 1 * _074_ $end
$var wire 1 + _073_ $end
$var wire 1 , _072_ $end
$var wire 1 - _071_ $end
$var wire 1 . _070_ $end
$var wire 1 / _069_ $end
$var wire 1 0 _068_ $end
$var wire 1 1 _067_ $end
$var wire 1 2 _066_ $end
$var wire 1 3 _065_ $end
$var wire 1 4 _064_ $end
$var wire 1 5 _063_ $end
$var wire 1 6 _062_ $end
$var wire 1 7 _061_ $end
$var wire 1 8 _060_ $end
$var wire 1 9 _059_ $end
$var wire 1 : _058_ $end
$var wire 1 ; _057_ $end
$var wire 1 < _056_ $end
$var wire 1 = _055_ $end
$var wire 1 > _054_ $end
$var wire 1 ? _053_ $end
$var wire 1 @ _052_ $end
$var wire 1 A _051_ $end
$var wire 1 B _050_ $end
$var wire 1 C _049_ $end
$var wire 1 D _048_ $end
$var wire 1 E _047_ $end
$var wire 1 F _046_ $end
$var wire 1 G _045_ $end
$var wire 1 H _044_ $end
$var wire 1 I _043_ $end
$var wire 1 J _042_ $end
$var wire 1 K _041_ $end
$var wire 1 L _040_ $end
$var wire 1 M _039_ $end
$var wire 1 N _038_ $end
$var wire 1 O _037_ $end
$var wire 1 P _036_ $end
$var wire 1 Q _035_ $end
$var wire 1 R _034_ $end
$var wire 1 S _033_ $end
$var wire 1 T _032_ $end
$var wire 1 U _031_ $end
$var wire 1 V _030_ $end
$var wire 1 W _029_ $end
$var wire 1 X _028_ $end
$var wire 1 Y _027_ $end
$var wire 1 Z _026_ $end
$var wire 1 [ _025_ $end
$var wire 1 \ _024_ $end
$var wire 1 ] _023_ $end
$var wire 1 ^ _022_ $end
$var wire 1 _ _021_ $end
$var wire 1 ` _020_ $end
$var wire 1 a _019_ $end
$var wire 1 b _018_ $end
$var wire 1 c _017_ $end
$var wire 1 d _016_ $end
$var wire 1 e _015_ $end
$var wire 1 f _014_ $end
$var wire 1 g _013_ $end
$var wire 1 h _012_ $end
$var wire 1 i _011_ $end
$var wire 1 j _010_ $end
$var wire 1 k _009_ $end
$var wire 1 l _008_ $end
$var wire 1 m _007_ $end
$var wire 1 n _006_ $end
$var wire 1 o _005_ $end
$var wire 1 p _004_ $end
$var wire 1 q _003_ $end
$var wire 1 r _002_ $end
$var wire 1 s _001_ $end
$var wire 4 t _000_ [3:0] $end
$var wire 4 u Q [3:0] $end
$var wire 4 v D [3:0] $end
$scope module _075_ $end
$var wire 1 w A $end
$var wire 1 r Y $end
$upscope $end
$scope module _076_ $end
$var wire 1 x A $end
$var wire 1 q Y $end
$upscope $end
$scope module _077_ $end
$var wire 1 y A $end
$var wire 1 p Y $end
$upscope $end
$scope module _078_ $end
$var wire 1 z A $end
$var wire 1 o Y $end
$upscope $end
$scope module _079_ $end
$var wire 1 { A $end
$var wire 1 n Y $end
$upscope $end
$scope module _080_ $end
$var wire 1 | A $end
$var wire 1 m Y $end
$upscope $end
$scope module _081_ $end
$var wire 1 l Y $end
$var wire 1 # A $end
$upscope $end
$scope module _082_ $end
$var wire 1 k Y $end
$var wire 1 m B $end
$var wire 1 n A $end
$upscope $end
$scope module _083_ $end
$var wire 1 } A $end
$var wire 1 ~ B $end
$var wire 1 j Y $end
$upscope $end
$scope module _084_ $end
$var wire 1 !" A $end
$var wire 1 i Y $end
$var wire 1 l B $end
$upscope $end
$scope module _085_ $end
$var wire 1 "" A $end
$var wire 1 h Y $end
$var wire 1 k B $end
$upscope $end
$scope module _086_ $end
$var wire 1 g Y $end
$var wire 1 j B $end
$var wire 1 q A $end
$upscope $end
$scope module _087_ $end
$var wire 1 f Y $end
$var wire 1 g B $end
$var wire 1 h A $end
$upscope $end
$scope module _088_ $end
$var wire 1 e Y $end
$var wire 1 f B $end
$var wire 1 # A $end
$upscope $end
$scope module _089_ $end
$var wire 1 #" Y $end
$var wire 1 e B $end
$var wire 1 i A $end
$upscope $end
$scope module _090_ $end
$var wire 1 $" A $end
$var wire 1 d Y $end
$var wire 1 # B $end
$upscope $end
$scope module _091_ $end
$var wire 1 %" A $end
$var wire 1 &" B $end
$var wire 1 c Y $end
$upscope $end
$scope module _092_ $end
$var wire 1 b Y $end
$var wire 1 c A $end
$upscope $end
$scope module _093_ $end
$var wire 1 a Y $end
$var wire 1 q B $end
$var wire 1 r A $end
$upscope $end
$scope module _094_ $end
$var wire 1 ` Y $end
$var wire 1 a B $end
$var wire 1 c A $end
$upscope $end
$scope module _095_ $end
$var wire 1 '" A $end
$var wire 1 _ Y $end
$var wire 1 ` B $end
$upscope $end
$scope module _096_ $end
$var wire 1 (" B $end
$var wire 1 ^ Y $end
$var wire 1 n A $end
$upscope $end
$scope module _097_ $end
$var wire 1 ] Y $end
$var wire 1 ^ A $end
$upscope $end
$scope module _098_ $end
$var wire 1 \ Y $end
$var wire 1 ^ B $end
$var wire 1 ` A $end
$upscope $end
$scope module _099_ $end
$var wire 1 )" A $end
$var wire 1 [ Y $end
$var wire 1 k B $end
$upscope $end
$scope module _100_ $end
$var wire 1 Z Y $end
$var wire 1 [ B $end
$var wire 1 # A $end
$upscope $end
$scope module _101_ $end
$var wire 1 Y Y $end
$var wire 1 Z A $end
$upscope $end
$scope module _102_ $end
$var wire 1 X Y $end
$var wire 1 Y B $end
$var wire 1 \ A $end
$upscope $end
$scope module _103_ $end
$var wire 1 W Y $end
$var wire 1 X B $end
$var wire 1 _ A $end
$upscope $end
$scope module _104_ $end
$var wire 1 *" Y $end
$var wire 1 W B $end
$var wire 1 d A $end
$upscope $end
$scope module _105_ $end
$var wire 1 +" A $end
$var wire 1 V Y $end
$var wire 1 # B $end
$upscope $end
$scope module _106_ $end
$var wire 1 U Y $end
$var wire 1 c B $end
$var wire 1 p A $end
$upscope $end
$scope module _107_ $end
$var wire 1 ," A $end
$var wire 1 T Y $end
$var wire 1 b B $end
$upscope $end
$scope module _108_ $end
$var wire 1 S Y $end
$var wire 1 T B $end
$var wire 1 U A $end
$upscope $end
$scope module _109_ $end
$var wire 1 R Y $end
$var wire 1 S A $end
$upscope $end
$scope module _110_ $end
$var wire 1 -" A $end
$var wire 1 ." B $end
$var wire 1 Q Y $end
$upscope $end
$scope module _111_ $end
$var wire 1 P Y $end
$var wire 1 Q B $end
$var wire 1 S A $end
$upscope $end
$scope module _112_ $end
$var wire 1 /" A $end
$var wire 1 O Y $end
$var wire 1 k B $end
$upscope $end
$scope module _113_ $end
$var wire 1 N Y $end
$var wire 1 O B $end
$var wire 1 # A $end
$upscope $end
$scope module _114_ $end
$var wire 1 M Y $end
$var wire 1 N A $end
$upscope $end
$scope module _115_ $end
$var wire 1 L Y $end
$var wire 1 M B $end
$var wire 1 P A $end
$upscope $end
$scope module _116_ $end
$var wire 1 0" A $end
$var wire 1 K Y $end
$var wire 1 a B $end
$upscope $end
$scope module _117_ $end
$var wire 1 J Y $end
$var wire 1 K A $end
$upscope $end
$scope module _118_ $end
$var wire 1 1" A $end
$var wire 1 I Y $end
$var wire 1 a B $end
$upscope $end
$scope module _119_ $end
$var wire 1 H Y $end
$var wire 1 I B $end
$var wire 1 J A $end
$upscope $end
$scope module _120_ $end
$var wire 1 G Y $end
$var wire 1 H B $end
$var wire 1 ^ A $end
$upscope $end
$scope module _121_ $end
$var wire 1 2" A $end
$var wire 1 F Y $end
$var wire 1 m B $end
$upscope $end
$scope module _122_ $end
$var wire 1 3" B $end
$var wire 1 E Y $end
$var wire 1 n A $end
$upscope $end
$scope module _123_ $end
$var wire 1 D Y $end
$var wire 1 F B $end
$var wire 1 R A $end
$upscope $end
$scope module _124_ $end
$var wire 1 C Y $end
$var wire 1 D B $end
$var wire 1 G A $end
$upscope $end
$scope module _125_ $end
$var wire 1 B Y $end
$var wire 1 K B $end
$var wire 1 ^ A $end
$upscope $end
$scope module _126_ $end
$var wire 1 A Y $end
$var wire 1 C B $end
$var wire 1 L A $end
$upscope $end
$scope module _127_ $end
$var wire 1 4" Y $end
$var wire 1 A B $end
$var wire 1 V A $end
$upscope $end
$scope module _128_ $end
$var wire 1 5" A $end
$var wire 1 @ Y $end
$var wire 1 # B $end
$upscope $end
$scope module _129_ $end
$var wire 1 ? Y $end
$var wire 1 K B $end
$var wire 1 ] A $end
$upscope $end
$scope module _130_ $end
$var wire 1 > Y $end
$var wire 1 E B $end
$var wire 1 T A $end
$upscope $end
$scope module _131_ $end
$var wire 1 = Y $end
$var wire 1 > B $end
$var wire 1 ? A $end
$upscope $end
$scope module _132_ $end
$var wire 1 < Y $end
$var wire 1 = B $end
$var wire 1 o A $end
$upscope $end
$scope module _133_ $end
$var wire 1 6" A $end
$var wire 1 ; Y $end
$var wire 1 k B $end
$upscope $end
$scope module _134_ $end
$var wire 1 : Y $end
$var wire 1 ; B $end
$var wire 1 # A $end
$upscope $end
$scope module _135_ $end
$var wire 1 9 Y $end
$var wire 1 F B $end
$var wire 1 T A $end
$upscope $end
$scope module _136_ $end
$var wire 1 8 Y $end
$var wire 1 9 B $end
$var wire 1 B A $end
$upscope $end
$scope module _137_ $end
$var wire 1 7 Y $end
$var wire 1 8 B $end
$var wire 1 o A $end
$upscope $end
$scope module _138_ $end
$var wire 1 7" A $end
$var wire 1 6 Y $end
$var wire 1 U B $end
$upscope $end
$scope module _139_ $end
$var wire 1 8" A $end
$var wire 1 5 Y $end
$var wire 1 U B $end
$upscope $end
$scope module _140_ $end
$var wire 1 4 Y $end
$var wire 1 5 A $end
$upscope $end
$scope module _141_ $end
$var wire 1 3 Y $end
$var wire 1 5 B $end
$var wire 1 Q A $end
$upscope $end
$scope module _142_ $end
$var wire 1 2 Y $end
$var wire 1 3 B $end
$var wire 1 6 A $end
$upscope $end
$scope module _143_ $end
$var wire 1 1 Y $end
$var wire 1 2 B $end
$var wire 1 : A $end
$upscope $end
$scope module _144_ $end
$var wire 1 0 Y $end
$var wire 1 1 B $end
$var wire 1 7 A $end
$upscope $end
$scope module _145_ $end
$var wire 1 / Y $end
$var wire 1 0 B $end
$var wire 1 < A $end
$upscope $end
$scope module _146_ $end
$var wire 1 9" Y $end
$var wire 1 / B $end
$var wire 1 @ A $end
$upscope $end
$scope module _147_ $end
$var wire 1 . Y $end
$var wire 1 ! B $end
$var wire 1 # A $end
$upscope $end
$scope module _148_ $end
$var wire 1 - Y $end
$var wire 1 4 B $end
$var wire 1 Q A $end
$upscope $end
$scope module _149_ $end
$var wire 1 , Y $end
$var wire 1 7 B $end
$var wire 1 j A $end
$upscope $end
$scope module _150_ $end
$var wire 1 + Y $end
$var wire 1 - B $end
$var wire 1 # A $end
$upscope $end
$scope module _151_ $end
$var wire 1 * Y $end
$var wire 1 + B $end
$var wire 1 , A $end
$upscope $end
$scope module _152_ $end
$var wire 1 s Y $end
$var wire 1 * B $end
$var wire 1 . A $end
$upscope $end
$scope module _153_ $end
$var wire 1 $ C $end
$var wire 1 :" D $end
$var reg 1 ;" Q $end
$upscope $end
$scope module _154_ $end
$var wire 1 $ C $end
$var wire 1 <" D $end
$var reg 1 =" Q $end
$upscope $end
$scope module _155_ $end
$var wire 1 $ C $end
$var wire 1 >" D $end
$var reg 1 ?" Q $end
$upscope $end
$scope module _156_ $end
$var wire 1 $ C $end
$var wire 1 @" D $end
$var reg 1 A" Q $end
$upscope $end
$scope module _157_ $end
$var wire 1 $ C $end
$var wire 1 s D $end
$var reg 1 B" Q $end
$upscope $end
$upscope $end
$scope module tb $end
$var wire 4 C" Q [3:0] $end
$var wire 1 $ clk $end
$var wire 1 ! rco $end
$var reg 4 D" D [3:0] $end
$var reg 1 # enable $end
$var reg 2 E" modo [1:0] $end
$var integer 32 F" log [31:0] $end
$scope module sb $end
$var wire 4 G" D [3:0] $end
$var wire 1 $ clk $end
$var wire 1 # enable $end
$var wire 2 H" modo [1:0] $end
$var reg 4 I" sb_Q [3:0] $end
$var reg 1 J" sb_rco $end
$upscope $end
$scope task checker $end
$upscope $end
$scope task completely_random_checker $end
$upscope $end
$scope task drv_completely_random_request $end
$upscope $end
$scope task drv_init $end
$upscope $end
$scope task drv_random_request $end
$upscope $end
$scope task drv_request $end
$upscope $end
$scope task random_checker $end
$upscope $end
$upscope $end
$upscope $end
$enddefinitions $end
#0
$dumpvars
xJ"
bx I"
bx H"
bx G"
b10 F"
bx E"
bx D"
bx C"
xB"
xA"
x@"
x?"
x>"
x="
x<"
x;"
x:"
x9"
x8"
x7"
x6"
x5"
x4"
x3"
x2"
x1"
x0"
x/"
x."
x-"
x,"
x+"
x*"
x)"
x("
x'"
x&"
x%"
x$"
x#"
x""
x!"
x~
x}
x|
x{
xz
xy
xx
xw
bx v
bx u
bx t
xs
xr
xq
xp
xo
xn
xm
xl
xk
xj
xi
xh
xg
xf
xe
xd
xc
xb
xa
x`
x_
x^
x]
x\
x[
xZ
xY
xX
xW
xV
xU
xT
xS
xR
xQ
xP
xO
xN
xM
xL
xK
xJ
xI
xH
xG
xF
xE
xD
xC
xB
xA
x@
x?
x>
x=
x<
x;
x:
x9
x8
x7
x6
x5
x4
x3
x2
x1
x0
x/
x.
x-
x,
x+
x*
bx )
x(
bx '
bx &
bx %
0$
x#
bx "
x!
$end
#4000
1$
#8000
0#
13"
12"
1."
1-"
1("
1'"
1~
1}
1|
1{
16"
1/"
1)"
1""
b11 "
b11 )
b11 E"
b11 H"
b1111 &
b1111 v
b1111 D"
b1111 G"
0$
#12000
1$
#15000
1+
1:
1N
1Z
1e
0j
#16000
1#
0$
#17000
0l
0F
0Q
0^
0_
#18000
0m
0n
#20000
1J"
b1111 I"
1$
#22000
1,
1g
#23000
x+
x:
xN
xZ
xe
#24000
0$
1i
19
1D
1-
13
1P
1B
1G
1\
0*
#25000
1E
0.
0@
0V
0d
#26000
1]
#27000
1k
#28000
1$
#31000
0+
08
0C
#32000
0$
#33000
02
#34000
0;
0O
0[
0h
0>
1s
#35000
0?
#36000
1B"
1$
#38000
17
#38500
1(
1!
#40000
0$
#41000
1:
1N
1Z
1f
#44000
1$
1=
#48000
0$
0e
#50000
01
#51000
0M
0Y
#52000
1$
#53000
0<
#55000
1:"
bx1 t
1#"
#56000
0$
#57000
10
#58000
1L
1X
#60000
1;"
1$
#62500
1&"
1!"
1x
bx1 '
bx1 %
bx1 u
bx1 C"
#64000
03"
02"
0."
0-"
0("
0'"
0~
0}
0|
0{
b0 "
b0 )
b0 E"
b0 H"
0$
#66000
0/
#67000
0A
0W
#68000
b0 I"
1J"
1$
#71000
1j
#72000
06"
0/"
0)"
b1 &
b1 v
b1 D"
b1 G"
0#
0$
#72500
0q
#73000
1F
1Q
1^
x_
1m
1n
#75000
1@"
b1xx1 t
19"
#76000
1A"
1?"
1="
1>"
1<"
1$
14"
b1111 t
1*"
#78000
0,
#78500
18"
17"
15"
1z
11"
10"
1,"
1+"
1y
1%"
1$"
1w
b1111 '
b1111 %
b1111 u
b1111 C"
#79000
1;
1O
1[
1+
1e
#79500
1a
#80000
1)"
b11 &
b11 v
b11 D"
b11 G"
1#
0$
x9
xD
x-
x3
xP
xB
xG
x\
#82000
0F
0^
0k
#84000
b1 I"
0J"
1$
#85500
0c
#86000
0:"
b1110 t
0#"
#86500
0I
#87000
x+
0:
0N
0Z
0e
x8
xC
#87500
06
0K
0T
#88000
16"
1/"
0)"
b1101 &
b1101 v
b1101 D"
b1101 G"
0$
x*
#88500
0o
0p
0r
#89000
19
1D
1B
1G
1\
1h
x2
#92000
0;"
b10 I"
1$
#92500
1`
#93500
1H
#94000
1:"
b1111 t
1#"
#94500
0&"
0!"
0x
b1110 '
b1110 %
b1110 u
b1110 C"
1b
#96000
06"
0/"
1)"
0""
b10 &
b10 v
b10 D"
b10 G"
0$
08
0C
0f
x1
1M
1Y
#96500
1J
#97000
xs
#97500
1U
#100000
1;"
xB"
b11 I"
1$
#101500
1c
0_
#102500
1&"
1!"
1x
b1111 '
b1111 %
b1111 u
b1111 C"
x(
x!
#103000
1e
x0
xL
0X
#104000
16"
1/"
0)"
1""
b1101 &
b1101 v
b1101 D"
b1101 G"
0$
#104500
05
#106500
0S
#108000
b100 I"
1$
#108500
0`
#109500
0c
#110000
0:"
b1110 t
0#"
#111500
13
#112000
0#
0$
x/
xA
1W
#113500
1P
14
#115500
1R
#116000
0;"
1$
#116500
1`
#118500
0&"
0!"
0x
b1110 '
b1110 %
b1110 u
b1110 C"
#119000
1+
1:
1N
1Z
#120000
0""
b1100 &
b1100 v
b1100 D"
b1100 G"
1#
0$
#120500
0L
0-
02
#121000
x@"
x>"
0<"
x9"
x4"
bx00 t
0*"
#124000
xA"
x?"
0="
b101 I"
1$
#125500
1c
#126500
x8"
x7"
x5"
xz
x1"
x0"
x,"
x+"
xy
0%"
0$"
0w
bx00 '
bx00 %
bx00 u
bx00 C"
#127000
0:
0N
0Z
#127500
1q
#128000
06"
1)"
b110 &
b110 v
b110 D"
b110 G"
0$
0*
11
#129500
1A
#132000
b110 I"
1$
#132500
0`
#133500
x5
xI
#134500
0g
0U
#135000
00
#135500
xo
xp
1r
0b
#136000
16"
0/"
b1010 &
b1010 v
b1010 D"
b1010 G"
0$
#137000
1s
#138500
0>"
bx000 t
04"
#140000
1B"
0?"
b111 I"
1$
#140500
x3
xH
#141500
1f
15
1_
#142500
01"
00"
0,"
0+"
0y
1(
1!
bx000 '
bx000 %
bx000 u
bx000 C"
0a
#143500
x6
1S
04
#144000
06"
1/"
1""
b111 &
b111 v
b111 D"
b111 G"
0$
1/
#144500
1T
#148000
b1000 I"
1$
#148500
0e
03
#149500
1I
1`
x2
#150500
0P
1-
0W
#151500
1p
1K
#152000
16"
b1111 &
b1111 v
b1111 D"
b1111 G"
0#
0$
#153000
0@"
b0 t
09"
#153500
0S
0R
#155500
1:"
b1 t
1#"
#156000
0A"
1;"
1$
#156500
0H
#157500
1L
#158500
08"
07"
05"
0z
1&"
1!"
1x
b1 '
b1 %
b1 u
b1 C"
0_
x1
#159000
1:
1N
1Z
1e
#159500
1<"
b11 t
1*"
#160000
0""
b1110 &
b1110 v
b1110 D"
b1110 G"
0$
#160500
1P
#161000
1@
1V
1d
1l
#161500
0J
#162500
1R
#164000
1="
1$
#165500
x0
#166000
0:"
b10 t
0#"
#166500
1%"
1$"
1w
b11 '
b11 %
b11 u
b11 C"
0A
#167500
0L
16
1o
1W
#168000
06"
0)"
1""
b101 &
b101 v
b101 D"
b101 G"
0$
0i
01
#168500
1H
0q
#169000
0M
0Y
#170000
0<"
b0 t
0*"
#172000
0="
0;"
1$
#173500
0c
#174500
0%"
0$"
0w
0&"
0!"
0x
b0 '
b0 %
b0 u
b0 C"
x/
#175000
1:"
b1 t
1#"
10
#175500
1a
1g
#176000
16"
b1101 &
b1101 v
b1101 D"
b1101 G"
0$
1L
1X
#176500
02
#180000
1;"
1$
#181500
1c
1i
#182500
1&"
1!"
1x
b1 '
b1 %
b1 u
b1 C"
0f
#184000
06"
b101 &
b101 v
b101 D"
b101 G"
1#
0$
0/
#184500
0K
#185000
0W
#188000
b1001 I"
1$
#188500
0:"
0`
b0 t
0#"
#189500
0i
#191000
0+
0:
0N
0Z
#192000
16"
0/"
1)"
0""
b1010 &
b1010 v
b1010 D"
b1010 G"
0$
#193000
0@
0V
0d
#193500
1J
#194000
0l
#196000
0;"
b1010 I"
1$
#196500
1:"
b1 t
1#"
#197500
1_
#198500
0&"
0!"
0x
b0 '
b0 %
b0 u
b0 C"
#200000
06"
0)"
b0 &
b0 v
b0 D"
b0 G"
0#
0$
1*
11
1M
1Y
#200500
0H
#201000
1i
#202000
1@"
1>"
1<"
19"
14"
b1111 t
1*"
#204000
1A"
1?"
1="
1;"
1$
#206500
18"
17"
15"
1z
11"
10"
1,"
1+"
1y
1%"
1$"
1w
1&"
1!"
1x
b1111 '
b1111 %
b1111 u
b1111 C"
#207000
1+
1:
1N
1Z
00
0L
0X
#208000
16"
1/"
1""
b1101 &
b1101 v
b1101 D"
b1101 G"
0:"
0$
b1110 t
0#"
#209000
1l
0s
#212000
0;"
0B"
1$
#213500
0I
0c
#214500
0&"
0!"
0x
b1110 '
b1110 %
b1110 u
b1110 C"
0(
0!
#215500
06
0T
#216000
06"
0/"
1)"
b11 &
b11 v
b11 D"
b11 G"
0$
0*
01
1/
1A
#216500
0o
0p
0r
1q
#217000
0M
0Y
#220000
1$
#220500
1H
1`
#221500
1c
#223000
10
#223500
0g
1.
#224000
1#
0$
1L
1X
#224500
12
1S
#225000
0@"
0>"
09"
b10 t
04"
#228000
0?"
0A"
b1011 I"
1$
#228500
0`
#230500
01"
00"
0,"
0+"
0y
08"
07"
05"
0z
b10 '
b10 %
b10 u
b10 C"
1f
#231000
0+
0:
0N
0Z
#231500
0P
#232000
13"
12"
1."
1-"
1("
1'"
1~
1}
1|
1{
b11 "
b11 )
b11 E"
b11 H"
0$
0/
#233000
0.
0A
#234000
0l
#234500
0R
#236000
1J"
b11 I"
1$
#237500
1I
0e
0_
#239000
0E
0j
#239500
1T
1p
16
1o
#240000
0""
b10 &
b10 v
b10 D"
b10 G"
0$
1*
1M
1Y
#241000
1@"
0Q
b1010 t
19"
#242000
1>"
b1110 t
14"
0m
0n
#244000
1?"
1A"
b10 I"
1$
#244500
1:"
0H
b1111 t
1#"
#246000
1,
1g
#246500
11"
10"
1,"
1+"
1y
18"
17"
15"
1z
b1110 '
b1110 %
b1110 u
b1110 C"
#247000
0X
#248000
16"
1/"
0)"
1""
b1101 &
b1101 v
b1101 D"
b1101 G"
0#
0$
13
1P
#248500
0S
02
#249000
1E
#251000
1k
#252000
1;"
1$
#253000
0f
#253500
0I
#254500
1&"
1!"
1x
b1111 '
b1111 %
b1111 u
b1111 C"
#255000
1+
1:
1N
1Z
1e
0L
0*
#255500
0T
06
#256000
06"
0/"
1)"
b11 &
b11 v
b11 D"
b11 G"
1#
0$
1W
#256500
0p
0o
#257500
1R
#258000
0h
#260000
b11 I"
1$
#260500
1H
#261500
0c
#262000
0:"
b1110 t
0#"
#263000
0[
0+
0:
0N
0Z
#264000
16"
0""
b1010 &
b1010 v
b1010 D"
b1010 G"
0#
0$
11
1A
1s
#264500
1S
0q
#265000
0<"
1f
1.
b1100 t
0*"
#266000
1l
#268000
1B"
0="
0;"
1$
#268500
1`
#270000
1Z
#270500
0%"
0$"
0w
0&"
0!"
0x
1(
1!
b1100 '
b1100 %
b1100 u
b1100 C"
1U
1b
#271000
0;
1h
1+
1:
1N
00
#272000
06"
b10 &
b10 v
b10 D"
b10 G"
0$
01
0M
0Y
#273000
0>"
0.
b1000 t
04"
#274500
0R
#276000
0?"
1$
#277500
1c
05
#278000
0f
#278500
01"
00"
0,"
0+"
0y
b1000 '
b1000 %
b1000 u
b1000 C"
#279000
1;
10
1L
1X
#279500
1d
1r
1q
0S
#280000
0)"
1""
b1 &
b1 v
b1 D"
b1 G"
0$
#284000
1$
#284500
0`
#285500
1I
#286500
0a
0U
14
#287000
1[
0h
#287500
1V
1p
0b
#288000
16"
0""
b1000 &
b1000 v
b1000 D"
b1000 G"
0$
0A
0W
#288500
1R
#292000
1$
#292500
0H
#293500
1`
15
#294000
1f
#295000
0;
1h
#295500
1K
1S
#296000
1)"
1""
b1011 &
b1011 v
b1011 D"
b1011 G"
1#
0$
#296500
1T
#300000
b1011 I"
1$
#302000
0f
#303000
0[
0h
0+
0N
0Z
#303500
04
#304000
06"
1/"
0""
b110 &
b110 v
b110 D"
b110 G"
0#
0$
#305500
0S
0J
0R
#308000
1$
#310000
1Z
1f
#311000
1;
0O
1h
1+
1N
#312000
16"
0)"
b1100 &
b1100 v
b1100 D"
b1100 G"
0$
#312500
1H
#314500
1R
#316000
1$
#318000
0f
#319000
0;
1[
#320000
02"
0-"
0'"
0}
0{
b10 "
b10 )
b10 E"
b10 H"
0$
#324000
1$
#327000
1j
#328000
06"
0/"
1""
b1 &
b1 v
b1 D"
b1 G"
1#
0$
#329000
1F
1n
#332000
b1000 I"
0J"
1$
#334000
0,
0g
#335000
1;
1O
0h
0+
0Z
#336000
16"
1/"
1)"
b1111 &
b1111 v
b1111 D"
b1111 G"
0$
09
0D
0E
#337000
0V
0d
#338000
0k
0l
#340000
b101 I"
1$
#341000
1f
#342000
0:
0N
#343000
18
1C
#344000
0/"
0""
b1010 &
b1010 v
b1010 D"
b1010 G"
0$
1*
1Y
#345000
1h
#346000
1>"
1<"
14"
b1110 t
1*"
#348000
1?"
1="
b10 I"
1$
0e
#350500
11"
10"
1,"
1+"
1y
1%"
1$"
1w
b1110 '
b1110 %
b1110 u
b1110 C"
#351000
0X
11
1M
#352000
06"
1/"
0)"
1""
b101 &
b101 v
b101 D"
b101 G"
0#
0$
#353000
0s
#355000
1:"
b1111 t
1#"
#356000
1;"
0B"
1$
#358000
00
0L
#358500
1&"
1!"
1x
b1111 '
b1111 %
b1111 u
b1111 C"
0(
0!
#359000
1+
1:
1N
1Z
1e
#359500
0K
0T
#360000
16"
0/"
b1001 &
b1001 v
b1001 D"
b1001 G"
1#
0$
1W
#360500
0p
0r
#364000
1J"
b1111 I"
1$
#365500
0c
#366000
0:"
b1110 t
0#"
#366500
19
#367000
0+
0:
0N
0Z
0e
1/
#367500
1a
#368000
1/"
0""
b1100 &
b1100 v
b1100 D"
b1100 G"
0#
0$
#368500
1J
1>
1S
0q
#369000
0<"
1.
b1100 t
0*"
#370000
1l
#372000
0;"
0="
1$
#373500
08
#374000
1:"
b1101 t
1#"
#374500
0&"
0!"
0x
0%"
0$"
0w
b1100 '
b1100 %
b1100 u
b1100 C"
0I
1U
1b
#375000
1+
1:
1N
1Z
1e
#375500
1g
#376000
1)"
1""
b1111 &
b1111 v
b1111 D"
b1111 G"
1#
0@"
0$
0*
01
0M
0Y
b101 t
09"
#377000
0.
0l
#377500
0=
#378500
0R
#380000
0A"
1;"
b1100 I"
0J"
1$
#381500
1c
05
#382000
0:"
b100 t
0#"
#382500
08"
07"
05"
0z
1&"
1!"
1x
b101 '
b101 %
b101 u
b101 C"
0f
#383000
0+
0:
0N
0Z
10
1L
1X
#383500
1r
0S
#384000
06"
b111 &
b111 v
b111 D"
b111 G"
0#
0$
1*
11
#385000
1.
1d
1M
1Y
#385500
1D
#386000
1l
#386500
1<
#388000
0;"
1$
#388500
0`
#389500
15
#390500
0&"
0!"
0x
b100 '
b100 %
b100 u
b100 C"
0U
#391000
1+
1:
1N
1Z
00
#391500
1o
0b
#392000
16"
0)"
0""
b1100 &
b1100 v
b1100 D"
b1100 G"
1#
0$
0L
0X
0*
01
0M
0Y
0/
0W
#392500
0C
1R
1q
#393000
0.
0d
0l
#396000
b1001 I"
1$
#397500
1_
#399000
0+
0:
0N
0Z
10
1L
1X
#399500
0D
0a
0g
16
1S
#400000
0/"
1""
b1001 &
b1001 v
b1001 D"
b1001 G"
0$
1*
11
#400500
0<
#401000
1@"
b1100 t
19"
1M
1Y
#402000
1<"
b1110 t
1*"
#404000
1="
1A"
b110 I"
1$
#406500
1%"
1$"
1w
18"
17"
15"
1z
b1110 '
b1110 %
b1110 u
b1110 C"
1C
1I
1`
1f
#407000
00
#408000
03"
12"
0."
1-"
0("
1'"
0~
1}
0|
1{
b1 "
b1 )
b1 E"
b1 H"
0$
0L
0X
#409500
0R
#412000
b101 I"
1$
#413500
0H
0e
#415000
1E
#415500
06
0_
#416000
06"
1/"
1)"
b111 &
b111 v
b111 D"
b111 G"
0#
0$
1/
#416500
1D
0r
0o
#417000
0F
1m
#418000
0n
#420000
1$
#420500
1:"
b1111 t
1#"
#423000
1+
1:
1N
1Z
1e
#423500
0C
1a
#424000
0""
b110 &
b110 v
b110 D"
b110 G"
1#
0$
0>
#424500
1W
#425000
0@"
b111 t
09"
#425500
1<
#427000
1^
#428000
0A"
1;"
b100 I"
1$
#430000
0:"
b110 t
0#"
#430500
08"
07"
05"
0z
1&"
1!"
1x
b111 '
b111 %
b111 u
b111 C"
0I
0`
#431000
0+
0:
0N
0Z
0e
#432000
0/"
b10 &
b10 v
b10 D"
b10 G"
0#
0$
#432500
1A
#433000
1.
1=
#433500
0<"
b100 t
0*"
#434000
1l
#434500
0/
#436000
0;"
0="
1$
#437000
0]
#437500
0c
1H
#438000
1:"
b101 t
1#"
#438500
0&"
0!"
0x
0%"
0$"
0w
b100 '
b100 %
b100 u
b100 C"
#439000
1+
1:
1N
1Z
1e
#439500
16
1o
#440000
1/"
1""
b111 &
b111 v
b111 D"
b111 G"
0$
0*
01
0M
0Y
#441000
1@
#441500
0>"
b1 t
04"
#442000
0<
#444000
0?"
1;"
1$
#444500
1`
0G
#445500
1c
#446000
0:"
b0 t
0#"
1?
#446500
01"
00"
0,"
0+"
0y
1&"
1!"
1x
b1 '
b1 %
b1 u
b1 C"
#447000
10
1L
1X
#447500
0q
1d
1r
#448000
0/"
0""
b10 &
b10 v
b10 D"
b10 G"
1#
0$
#451500
0\
1C
#452000
0;"
b11 I"
1$
#452500
0`
#453500
1I
0i
#454500
0&"
0!"
0x
b0 '
b0 %
b0 u
b0 C"
1g
#455000
0+
0:
0N
0Z
0e
0=
#455500
1T
1p
#456000
16"
1/"
0)"
1""
b1101 &
b1101 v
b1101 D"
b1101 G"
0#
0$
0A
0W
#456500
1q
#457000
1V
#459500
1\
#460000
1$
#460500
1:"
0H
b1 t
1#"
#461500
1i
0f
