Proyecto/output/gtkwave/synth20_verif.vcd
$date
	Mon May 25 16:56:52 2020
$end
$version
	Icarus Verilog
$end
$timescale
	1ps
$end
$scope module tb_top $end
$var wire 1 ! rco $end
$var wire 2 " modo [1:0] $end
$var wire 1 # enable $end
$var wire 1 $ clock $end
$var wire 4 % Q [3:0] $end
$var wire 4 & D [3:0] $end
$scope module clocks $end
$var reg 1 $ clock $end
$upscope $end
$scope module dut $end
$var wire 4 ' Qstatus [3:0] $end
$var wire 1 ( RCOstatus $end
$var wire 1 $ clk $end
$var wire 1 ! rco $end
$var wire 2 ) modo [1:0] $end
$var wire 1 # enable $end
$var wire 1 * _074_ $end
$var wire 1 + _073_ $end
$var wire 1 , _072_ $end
$var wire 1 - _071_ $end
$var wire 1 . _070_ $end
$var wire 1 / _069_ $end
$var wire 1 0 _068_ $end
$var wire 1 1 _067_ $end
$var wire 1 2 _066_ $end
$var wire 1 3 _065_ $end
$var wire 1 4 _064_ $end
$var wire 1 5 _063_ $end
$var wire 1 6 _062_ $end
$var wire 1 7 _061_ $end
$var wire 1 8 _060_ $end
$var wire 1 9 _059_ $end
$var wire 1 : _058_ $end
$var wire 1 ; _057_ $end
$var wire 1 < _056_ $end
$var wire 1 = _055_ $end
$var wire 1 > _054_ $end
$var wire 1 ? _053_ $end
$var wire 1 @ _052_ $end
$var wire 1 A _051_ $end
$var wire 1 B _050_ $end
$var wire 1 C _049_ $end
$var wire 1 D _048_ $end
$var wire 1 E _047_ $end
$var wire 1 F _046_ $end
$var wire 1 G _045_ $end
$var wire 1 H _044_ $end
$var wire 1 I _043_ $end
$var wire 1 J _042_ $end
$var wire 1 K _041_ $end
$var wire 1 L _040_ $end
$var wire 1 M _039_ $end
$var wire 1 N _038_ $end
$var wire 1 O _037_ $end
$var wire 1 P _036_ $end
$var wire 1 Q _035_ $end
$var wire 1 R _034_ $end
$var wire 1 S _033_ $end
$var wire 1 T _032_ $end
$var wire 1 U _031_ $end
$var wire 1 V _030_ $end
$var wire 1 W _029_ $end
$var wire 1 X _028_ $end
$var wire 1 Y _027_ $end
$var wire 1 Z _026_ $end
$var wire 1 [ _025_ $end
$var wire 1 \ _024_ $end
$var wire 1 ] _023_ $end
$var wire 1 ^ _022_ $end
$var wire 1 _ _021_ $end
$var wire 1 ` _020_ $end
$var wire 1 a _019_ $end
$var wire 1 b _018_ $end
$var wire 1 c _017_ $end
$var wire 1 d _016_ $end
$var wire 1 e _015_ $end
$var wire 1 f _014_ $end
$var wire 1 g _013_ $end
$var wire 1 h _012_ $end
$var wire 1 i _011_ $end
$var wire 1 j _010_ $end
$var wire 1 k _009_ $end
$var wire 1 l _008_ $end
$var wire 1 m _007_ $end
$var wire 1 n _006_ $end
$var wire 1 o _005_ $end
$var wire 1 p _004_ $end
$var wire 1 q _003_ $end
$var wire 1 r _002_ $end
$var wire 1 s _001_ $end
$var wire 4 t _000_ [3:0] $end
$var wire 4 u Q [3:0] $end
$var wire 4 v D [3:0] $end
$scope module _075_ $end
$var wire 1 w A $end
$var wire 1 r Y $end
$upscope $end
$scope module _076_ $end
$var wire 1 x A $end
$var wire 1 q Y $end
$upscope $end
$scope module _077_ $end
$var wire 1 y A $end
$var wire 1 p Y $end
$upscope $end
$scope module _078_ $end
$var wire 1 z A $end
$var wire 1 o Y $end
$upscope $end
$scope module _079_ $end
$var wire 1 { A $end
$var wire 1 n Y $end
$upscope $end
$scope module _080_ $end
$var wire 1 | A $end
$var wire 1 m Y $end
$upscope $end
$scope module _081_ $end
$var wire 1 l Y $end
$var wire 1 # A $end
$upscope $end
$scope module _082_ $end
$var wire 1 k Y $end
$var wire 1 m B $end
$var wire 1 n A $end
$upscope $end
$scope module _083_ $end
$var wire 1 } A $end
$var wire 1 ~ B $end
$var wire 1 j Y $end
$upscope $end
$scope module _084_ $end
$var wire 1 !" A $end
$var wire 1 i Y $end
$var wire 1 l B $end
$upscope $end
$scope module _085_ $end
$var wire 1 "" A $end
$var wire 1 h Y $end
$var wire 1 k B $end
$upscope $end
$scope module _086_ $end
$var wire 1 g Y $end
$var wire 1 j B $end
$var wire 1 q A $end
$upscope $end
$scope module _087_ $end
$var wire 1 f Y $end
$var wire 1 g B $end
$var wire 1 h A $end
$upscope $end
$scope module _088_ $end
$var wire 1 e Y $end
$var wire 1 f B $end
$var wire 1 # A $end
$upscope $end
$scope module _089_ $end
$var wire 1 #" Y $end
$var wire 1 e B $end
$var wire 1 i A $end
$upscope $end
$scope module _090_ $end
$var wire 1 $" A $end
$var wire 1 d Y $end
$var wire 1 # B $end
$upscope $end
$scope module _091_ $end
$var wire 1 %" A $end
$var wire 1 &" B $end
$var wire 1 c Y $end
$upscope $end
$scope module _092_ $end
$var wire 1 b Y $end
$var wire 1 c A $end
$upscope $end
$scope module _093_ $end
$var wire 1 a Y $end
$var wire 1 q B $end
$var wire 1 r A $end
$upscope $end
$scope module _094_ $end
$var wire 1 ` Y $end
$var wire 1 a B $end
$var wire 1 c A $end
$upscope $end
$scope module _095_ $end
$var wire 1 '" A $end
$var wire 1 _ Y $end
$var wire 1 ` B $end
$upscope $end
$scope module _096_ $end
$var wire 1 (" B $end
$var wire 1 ^ Y $end
$var wire 1 n A $end
$upscope $end
$scope module _097_ $end
$var wire 1 ] Y $end
$var wire 1 ^ A $end
$upscope $end
$scope module _098_ $end
$var wire 1 \ Y $end
$var wire 1 ^ B $end
$var wire 1 ` A $end
$upscope $end
$scope module _099_ $end
$var wire 1 )" A $end
$var wire 1 [ Y $end
$var wire 1 k B $end
$upscope $end
$scope module _100_ $end
$var wire 1 Z Y $end
$var wire 1 [ B $end
$var wire 1 # A $end
$upscope $end
$scope module _101_ $end
$var wire 1 Y Y $end
$var wire 1 Z A $end
$upscope $end
$scope module _102_ $end
$var wire 1 X Y $end
$var wire 1 Y B $end
$var wire 1 \ A $end
$upscope $end
$scope module _103_ $end
$var wire 1 W Y $end
$var wire 1 X B $end
$var wire 1 _ A $end
$upscope $end
$scope module _104_ $end
$var wire 1 *" Y $end
$var wire 1 W B $end
$var wire 1 d A $end
$upscope $end
$scope module _105_ $end
$var wire 1 +" A $end
$var wire 1 V Y $end
$var wire 1 # B $end
$upscope $end
$scope module _106_ $end
$var wire 1 U Y $end
$var wire 1 c B $end
$var wire 1 p A $end
$upscope $end
$scope module _107_ $end
$var wire 1 ," A $end
$var wire 1 T Y $end
$var wire 1 b B $end
$upscope $end
$scope module _108_ $end
$var wire 1 S Y $end
$var wire 1 T B $end
$var wire 1 U A $end
$upscope $end
$scope module _109_ $end
$var wire 1 R Y $end
$var wire 1 S A $end
$upscope $end
$scope module _110_ $end
$var wire 1 -" A $end
$var wire 1 ." B $end
$var wire 1 Q Y $end
$upscope $end
$scope module _111_ $end
$var wire 1 P Y $end
$var wire 1 Q B $end
$var wire 1 S A $end
$upscope $end
$scope module _112_ $end
$var wire 1 /" A $end
$var wire 1 O Y $end
$var wire 1 k B $end
$upscope $end
$scope module _113_ $end
$var wire 1 N Y $end
$var wire 1 O B $end
$var wire 1 # A $end
$upscope $end
$scope module _114_ $end
$var wire 1 M Y $end
$var wire 1 N A $end
$upscope $end
$scope module _115_ $end
$var wire 1 L Y $end
$var wire 1 M B $end
$var wire 1 P A $end
$upscope $end
$scope module _116_ $end
$var wire 1 0" A $end
$var wire 1 K Y $end
$var wire 1 a B $end
$upscope $end
$scope module _117_ $end
$var wire 1 J Y $end
$var wire 1 K A $end
$upscope $end
$scope module _118_ $end
$var wire 1 1" A $end
$var wire 1 I Y $end
$var wire 1 a B $end
$upscope $end
$scope module _119_ $end
$var wire 1 H Y $end
$var wire 1 I B $end
$var wire 1 J A $end
$upscope $end
$scope module _120_ $end
$var wire 1 G Y $end
$var wire 1 H B $end
$var wire 1 ^ A $end
$upscope $end
$scope module _121_ $end
$var wire 1 2" A $end
$var wire 1 F Y $end
$var wire 1 m B $end
$upscope $end
$scope module _122_ $end
$var wire 1 3" B $end
$var wire 1 E Y $end
$var wire 1 n A $end
$upscope $end
$scope module _123_ $end
$var wire 1 D Y $end
$var wire 1 F B $end
$var wire 1 R A $end
$upscope $end
$scope module _124_ $end
$var wire 1 C Y $end
$var wire 1 D B $end
$var wire 1 G A $end
$upscope $end
$scope module _125_ $end
$var wire 1 B Y $end
$var wire 1 K B $end
$var wire 1 ^ A $end
$upscope $end
$scope module _126_ $end
$var wire 1 A Y $end
$var wire 1 C B $end
$var wire 1 L A $end
$upscope $end
$scope module _127_ $end
$var wire 1 4" Y $end
$var wire 1 A B $end
$var wire 1 V A $end
$upscope $end
$scope module _128_ $end
$var wire 1 5" A $end
$var wire 1 @ Y $end
$var wire 1 # B $end
$upscope $end
$scope module _129_ $end
$var wire 1 ? Y $end
$var wire 1 K B $end
$var wire 1 ] A $end
$upscope $end
$scope module _130_ $end
$var wire 1 > Y $end
$var wire 1 E B $end
$var wire 1 T A $end
$upscope $end
$scope module _131_ $end
$var wire 1 = Y $end
$var wire 1 > B $end
$var wire 1 ? A $end
$upscope $end
$scope module _132_ $end
$var wire 1 < Y $end
$var wire 1 = B $end
$var wire 1 o A $end
$upscope $end
$scope module _133_ $end
$var wire 1 6" A $end
$var wire 1 ; Y $end
$var wire 1 k B $end
$upscope $end
$scope module _134_ $end
$var wire 1 : Y $end
$var wire 1 ; B $end
$var wire 1 # A $end
$upscope $end
$scope module _135_ $end
$var wire 1 9 Y $end
$var wire 1 F B $end
$var wire 1 T A $end
$upscope $end
$scope module _136_ $end
$var wire 1 8 Y $end
$var wire 1 9 B $end
$var wire 1 B A $end
$upscope $end
$scope module _137_ $end
$var wire 1 7 Y $end
$var wire 1 8 B $end
$var wire 1 o A $end
$upscope $end
$scope module _138_ $end
$var wire 1 7" A $end
$var wire 1 6 Y $end
$var wire 1 U B $end
$upscope $end
$scope module _139_ $end
$var wire 1 8" A $end
$var wire 1 5 Y $end
$var wire 1 U B $end
$upscope $end
$scope module _140_ $end
$var wire 1 4 Y $end
$var wire 1 5 A $end
$upscope $end
$scope module _141_ $end
$var wire 1 3 Y $end
$var wire 1 5 B $end
$var wire 1 Q A $end
$upscope $end
$scope module _142_ $end
$var wire 1 2 Y $end
$var wire 1 3 B $end
$var wire 1 6 A $end
$upscope $end
$scope module _143_ $end
$var wire 1 1 Y $end
$var wire 1 2 B $end
$var wire 1 : A $end
$upscope $end
$scope module _144_ $end
$var wire 1 0 Y $end
$var wire 1 1 B $end
$var wire 1 7 A $end
$upscope $end
$scope module _145_ $end
$var wire 1 / Y $end
$var wire 1 0 B $end
$var wire 1 < A $end
$upscope $end
$scope module _146_ $end
$var wire 1 9" Y $end
$var wire 1 / B $end
$var wire 1 @ A $end
$upscope $end
$scope module _147_ $end
$var wire 1 . Y $end
$var wire 1 ! B $end
$var wire 1 # A $end
$upscope $end
$scope module _148_ $end
$var wire 1 - Y $end
$var wire 1 4 B $end
$var wire 1 Q A $end
$upscope $end
$scope module _149_ $end
$var wire 1 , Y $end
$var wire 1 7 B $end
$var wire 1 j A $end
$upscope $end
$scope module _150_ $end
$var wire 1 + Y $end
$var wire 1 - B $end
$var wire 1 # A $end
$upscope $end
$scope module _151_ $end
$var wire 1 * Y $end
$var wire 1 + B $end
$var wire 1 , A $end
$upscope $end
$scope module _152_ $end
$var wire 1 s Y $end
$var wire 1 * B $end
$var wire 1 . A $end
$upscope $end
$scope module _153_ $end
$var wire 1 $ C $end
$var wire 1 :" D $end
$var reg 1 ;" Q $end
$upscope $end
$scope module _154_ $end
$var wire 1 $ C $end
$var wire 1 <" D $end
$var reg 1 =" Q $end
$upscope $end
$scope module _155_ $end
$var wire 1 $ C $end
$var wire 1 >" D $end
$var reg 1 ?" Q $end
$upscope $end
$scope module _156_ $end
$var wire 1 $ C $end
$var wire 1 @" D $end
$var reg 1 A" Q $end
$upscope $end
$scope module _157_ $end
$var wire 1 $ C $end
$var wire 1 s D $end
$var reg 1 B" Q $end
$upscope $end
$upscope $end
$scope module tb $end
$var wire 4 C" Q [3:0] $end
$var wire 1 $ clk $end
$var wire 1 ! rco $end
$var reg 4 D" D [3:0] $end
$var reg 1 # enable $end
$var reg 2 E" modo [1:0] $end
$var integer 32 F" log [31:0] $end
$scope module sb $end
$var wire 4 G" D [3:0] $end
$var wire 1 $ clk $end
$var wire 1 # enable $end
$var wire 2 H" modo [1:0] $end
$var reg 4 I" sb_Q [3:0] $end
$var reg 1 J" sb_rco $end
$upscope $end
$scope task checker $end
$upscope $end
$scope task completely_random_checker $end
$upscope $end
$scope task drv_completely_random_request $end
$upscope $end
$scope task drv_init $end
$upscope $end
$scope task drv_random_request $end
$upscope $end
$scope task drv_request $end
$upscope $end
$scope task random_checker $end
$upscope $end
$upscope $end
$upscope $end
$enddefinitions $end
#0
$dumpvars
xJ"
bx I"
bx H"
bx G"
b10 F"
bx E"
bx D"
bx C"
xB"
xA"
x@"
x?"
x>"
x="
x<"
x;"
x:"
x9"
x8"
x7"
x6"
x5"
x4"
x3"
x2"
x1"
x0"
x/"
x."
x-"
x,"
x+"
x*"
x)"
x("
x'"
x&"
x%"
x$"
x#"
x""
x!"
x~
x}
x|
x{
xz
xy
xx
xw
bx v
bx u
bx t
xs
xr
xq
xp
xo
xn
xm
xl
xk
xj
xi
xh
xg
xf
xe
xd
xc
xb
xa
x`
x_
x^
x]
x\
x[
xZ
xY
xX
xW
xV
xU
xT
xS
xR
xQ
xP
xO
xN
xM
xL
xK
xJ
xI
xH
xG
xF
xE
xD
xC
xB
xA
x@
x?
x>
x=
x<
x;
x:
x9
x8
x7
x6
x5
x4
x3
x2
x1
x0
x/
x.
x-
x,
x+
x*
bx )
x(
bx '
bx &
bx %
0$
x#
bx "
x!
$end
#20000
1$
#40000
0#
13"
12"
1."
1-"
1("
1'"
1~
1}
1|
1{
16"
1/"
1)"
1""
b11 "
b11 )
b11 E"
b11 H"
b1111 &
b1111 v
b1111 D"
b1111 G"
0$
#47000
1+
1:
1N
1Z
1e
0j
#49000
1l
0F
0Q
0^
0_
#50000
0m
0n
#54000
1,
1g
#56000
19
1D
1-
13
1P
1B
1G
1\
0*
01
#57000
1E
0M
0Y
#58000
1]
#59000
1k
#60000
1$
#63000
08
0C
10
#64000
1L
1X
#65000
02
#66000
0;
0O
0[
0h
0>
#67000
0?
#70000
17
#72000
0/
#73000
1f
0A
0W
#76000
1=
#80000
1#
0$
#85000
0<
#87000
0+
0e
#89000
0.
0@
0V
0d
#90000
0l
#94000
1:"
bx1 t
1#"
#97000
1i
#98000
1@"
1>"
1<"
1s
19"
14"
b1111 t
1*"
#100000
1;"
1="
1?"
1A"
1B"
1J"
b1111 I"
1$
#102500
1&"
1!"
1x
1%"
1$"
1w
11"
10"
1,"
1+"
1y
18"
17"
15"
1z
b1111 '
b1111 %
b1111 u
b1111 C"
1(
1!
#109500
0c
#111500
0K
0T
06
#112500
0q
0r
0p
0o
#116500
1`
#118500
1b
#119500
1a
#120000
0$
#120500
1J
#121500
1U
#126500
0I
#128500
05
#130500
0S
#133500
1H
#137500
14
#139500
1R
#140000
1$
#160000
03"
02"
0."
0-"
0("
0'"
0~
0}
0|
0{
b0 "
b0 )
b0 E"
b0 H"
0$
#167000
1j
#169000
1F
1Q
1^
1m
1n
#174000
0,
#176000
0D
0-
0G
0\
#178000
0F
0^
0k
#180000
b0 I"
1J"
1$
#183000
1+
1C
1*
#185000
1D
1G
1\
1;
1O
1[
1h
#192000
0C
0:
0N
0Z
0f
0*
0s
#199000
1e
#200000
06"
0/"
0)"
b1 &
b1 v
b1 D"
b1 G"
0#
0$
#201000
11
1M
1Y
1s
#206000
0:"
b1110 t
0#"
#207000
1:
1N
1Z
#208000
00
0L
0X
#209000
1l
#216000
0i
01
#217000
1/
1A
1W
0M
0Y
#220000
0;"
1$
#222500
0&"
0!"
0x
b1110 '
b1110 %
b1110 u
b1110 C"
#223000
1:"
b1111 t
1#"
10
#224000
1L
1X
#226000
0@"
0>"
0<"
09"
04"
b1 t
0*"
#229500
1c
1i
#231500
1q
#232000
0/
#233000
0A
0W
#236500
0:"
0`
b0 t
0#"
#238500
0g
0U
#239500
0b
#240000
1)"
b11 &
b11 v
b11 D"
b11 G"
1#
0$
#241000
1@"
b1000 t
19"
#242000
1>"
1<"
14"
b1110 t
1*"
#245500
1f
15
1_
#247000
0:
0N
0Z
#247500
1S
#250000
0l
#252500
0e
03
#254500
0P
#255500
04
#256000
11
1M
1Y
#257500
0R
#259500
1:"
b1111 t
1#"
#260000
1;"
b1 I"
0J"
1$
#261500
12
#262500
1&"
1!"
1x
b1111 '
b1111 %
b1111 u
b1111 C"
1-
#263000
00
0X
#269500
0c
0+
#270500
01
#272000
1/
#272500
0q
#276500
1`
#277500
10
#278500
1U
1b
1*
#279500
1g
#280000
16"
1/"
0)"
b1101 &
b1101 v
b1101 D"
b1101 G"
0$
#281000
0@"
b111 t
09"
#285500
05
0_
#286500
0f
0/
#287500
0S
0s
#292500
13
#293500
1e
#294500
1P
14
1W
#295500
1@"
b1111 t
19"
#296500
1R
#300000
0B"
b10 I"
1$
#300500
0:"
b1110 t
0#"
#301500
0L
0-
02
#302500
0(
0!
#303500
0<"
b1100 t
0*"
#308500
1+
#310500
1A
11
#317500
00
0*
#319500
0>"
b1000 t
04"
#320000
06"
0/"
1)"
0""
b10 &
b10 v
b10 D"
b10 G"
0$
#326500
1/
1s
#335500
0@"
b0 t
09"
#340000
0;"
0="
0?"
0A"
1B"
b11 I"
1$
#342500
0&"
0!"
0x
0%"
0$"
0w
01"
00"
0,"
0+"
0y
08"
07"
05"
0z
b0 '
b0 %
b0 u
b0 C"
1(
1!
#349500
1c
1I
15
#351500
1q
1r
1p
1o
#356500
0`
0H
03
#358500
0g
0a
0U
#359500
0b
04
#360000
16"
1/"
0)"
1""
b1101 &
b1101 v
b1101 D"
b1101 G"
0$
#365500
1f
1`
1_
12
#366500
1-
#367500
1K
16
1S
#368500
1T
#372500
0e
#373500
0+
#374500
0P
0_
0W
01
#376500
02
#377500
0S
0J
0R
#379500
1:"
b1 t
1#"
#380000
1;"
b100 I"
1$
#381500
1L
10
#382500
1&"
1!"
1x
b1 '
b1 %
b1 u
b1 C"
1*
#383500
1<"
1W
b11 t
1*"
#384500
1P
1H
#385500
11
#386500
1R
#390500
0A
0/
#391500
0L
0s
#392500
0<"
00
b1 t
0*"
0q
#399500
1>"
1@"
1a
1g
14"
b1101 t
19"
#400000
0#
0$
#400500
1A
#401500
1/
#406500
0`
0f
#407000
1+
1:
1N
1Z
1e
#408500
0K
#409000
1@
1V
1d
1l
#409500
0>"
b1001 t
04"
#410500
0@"
b1 t
09"
#414000
0:"
b0 t
0#"
#415500
1_
#416000
0i
0*
01
#417000
0M
0Y
#417500
1J
#420000
0;"
0B"
1$
#422500
0&"
0!"
0x
b0 '
b0 %
b0 u
b0 C"
0(
0!
#423000
1:"
b1 t
1#"
10
#424000
1L
1X
#424500
0H
0W
#425000
1s
#429500
1i
#431500
1q
1.
#432000
0/
#433000
0A
#436500
0:"
b0 t
0#"
#438500
0a
0g
#440000
0""
b1100 &
b1100 v
b1100 D"
b1100 G"
1#
0$
#440500
0s
#445500
1`
1f
#447000
0+
0:
0N
0Z
#447500
1K
#449000
0.
0@
0V
0d
#450000
0l
#452500
0e
#454500
0_
#456000
1*
11
1M
1Y
#457500
0J
#458000
1@"
1>"
1<"
19"
14"
b1110 t
1*"
#459500
1:"
b1111 t
1#"
#460000
1A"
1?"
1="
1;"
b101 I"
1$
#462500
18"
17"
15"
1z
11"
10"
1,"
1+"
1y
1%"
1$"
1w
1&"
1!"
1x
b1111 '
b1111 %
b1111 u
b1111 C"
#463000
00
0L
0X
#464500
1H
#469500
0c
#471500
06
0K
0T
#472000
1/
1A
1W
#472500
0o
0p
0r
0q
#478500
1b
#479500
1a
1g
#480000
06"
1)"
b110 &
b110 v
b110 D"
b110 G"
0$
#480500
12
1J
1S
#481000
0@"
0>"
0<"
09"
04"
b1 t
0*"
#481500
1U
#486500
0I
0f
#487500
0P
#488500
05
#489500
01
#490500
0S
0R
#493500
1e
#494500
1L
#495500
13
#496500
10
#497500
1P
14
#499500
1R
#500000
0="
0?"
0A"
b110 I"
1$
#500500
0:"
b0 t
0#"
#502500
0%"
0$"
0w
01"
00"
0,"
0+"
0y
08"
07"
05"
0z
b1 '
b1 %
b1 u
b1 C"
#503500
0A
#504500
0L
0-
02
#505500
0/
#509500
1c
1I
15
#511500
1+
1r
1p
1o
#512500
1>"
b100 t
14"
#513500
1A
11
#514500
1@"
b1100 t
19"
#516500
0`
0H
03
#518500
0U
#519500
0b
04
#520000
16"
0/"
b1010 &
b1010 v
b1010 D"
b1010 G"
0$
#520500
00
0*
#522500
0>"
b1000 t
04"
#525500
1_
12
#526500
1-
#527500
16
1S
#528500
1T
#529500
1/
1s
#533500
0+
#534500
0P
0W
01
#536500
02
#537500
0S
0R
#538500
0@"
b0 t
09"
#540000
1B"
0;"
b111 I"
1$
#541500
1L
10
#542500
0&"
0!"
0x
1(
1!
b0 '
b0 %
b0 u
b0 C"
1*
#543500
1<"
b10 t
1*"
#544500
1P
#545500
11
#546500
1R
#550500
0A
0/
#551500
0L
1q
0s
#552500
00
#558500
0a
0g
#559500
1>"
1@"
14"
b1110 t
19"
#560000
06"
1/"
1""
b111 &
b111 v
b111 D"
b111 G"
0$
#560500
1A
#561500
1/
#565500
1`
1f
#567500
1K
#569500
0>"
b1010 t
04"
#570500
0@"
b10 t
09"
#572500
0e
#574500
0_
#577500
0J
#579500
1:"
b11 t
1#"
#580000
1;"
1="
0B"
b1000 I"
1$
#582500
1&"
1!"
1x
1%"
1$"
1w
b11 '
b11 %
b11 u
b11 C"
0(
0!
#583500
1W
#584500
1H
#589500
0c
#592500
0<"
b1 t
0*"
0q
0r
#598500
1b
#599500
1g
1a
#600000
16"
b1111 &
b1111 v
b1111 D"
b1111 G"
0#
0$
#606500
0f
#607000
1+
1:
1N
1Z
1e
#607500
0T
#608500
0K
#609000
1.
1@
1V
1l
#614000
0:"
b0 t
0#"
#616000
0i
0*
01
#616500
1S
#617000
0M
0Y
#617500
1J
#620000
0="
0;"
1$
#622500
0%"
0$"
0w
0&"
0!"
0x
b0 '
b0 %
b0 u
b0 C"
#623000
1:"
b1 t
1#"
10
#623500
0P
#624000
1L
1X
#624500
0H
#626500
0R
#629500
1c
1i
#631500
1d
1r
1q
#632000
0/
#633000
0A
0W
#636500
0:"
0`
b0 t
0#"
#638500
0a
0g
#639500
0b
#640000
0""
b1110 &
b1110 v
b1110 D"
b1110 G"
0$
#645500
1`
1f
1_
#647500
1K
#648500
1T
#654500
0_
#657500
0S
0J
#660000
1$
#664500
1P
1H
#666500
1R
#680000
06"
0)"
1""
b101 &
b101 v
b101 D"
b101 G"
0$
#700000
1$
#720000
16"
b1101 &
b1101 v
b1101 D"
b1101 G"
0$
#740000
1$
#760000
06"
b101 &
b101 v
b101 D"
b101 G"
1#
0$
#767000
0+
0:
0N
0Z
0e
#769000
0.
0@
0V
0d
#770000
0l
#774000
1:"
b1 t
1#"
#776000
1*
11
1M
1Y
#778000
1@"
1>"
1<"
19"
14"
b1111 t
1*"
#780000
1A"
1?"
1="
1;"
b1001 I"
1$
#782500
18"
17"
15"
1z
11"
10"
1,"
1+"
1y
1%"
1$"
1w
1&"
1!"
1x
b1111 '
b1111 %
b1111 u
b1111 C"
#783000
00
0L
0X
#789500
0c
#791500
06
0K
0T
#792000
1/
1A
1W
#792500
0o
0p
0r
0q
#798500
1b
#799500
1a
1g
#800000
16"
0/"
1)"
0""
b1010 &
b1010 v
b1010 D"
b1010 G"
0$
#800500
12
1J
1S
#801000
0@"
0>"
0<"
09"
04"
b1 t
0*"
#801500
1U
#806500
0I
0f
#807500
0P
#808500
05
#809500
01
#810500
0S
0R
#813500
1e
#814500
1L
#815500
13
#816500
10
#817500
1P
14
#819500
1R
#820000
0="
0?"
0A"
b1010 I"
1$
#820500
0:"
b0 t
0#"
#822500
0%"
0$"
0w
01"
00"
0,"
0+"
0y
08"
07"
05"
0z
b1 '
b1 %
b1 u
b1 C"
#823500
0A
#824500
0L
0-
02
#825500
0/
#829500
1c
1I
15
#831500
1+
1r
1p
1o
#832500
1>"
b100 t
14"
#833500
1A
11
#834500
1@"
b1100 t
19"
#836500
0`
0H
03
#838500
0U
#839500
0b
04
#840000
06"
0)"
b0 &
b0 v
b0 D"
b0 G"
0#
0$
#840500
00
0*
#842500
0>"
b1000 t
04"
#845500
1_
12
#846500
1-
#847000
1:
1N
1Z
#847500
16
1S
#848500
1T
#849000
1.
1@
1V
1d
1l
#849500
1/
#854500
0P
0W
01
#856000
0i
#856500
02
#857000
0M
0Y
#857500
0S
0R
#858000
0@"
b0 t
09"
#860000
0;"
1$
#861500
1L
10
#862500
0&"
0!"
0x
b0 '
b0 %
b0 u
b0 C"
#863000
1:"
b1 t
1#"
#864000
1X
#864500
1P
#866500
1R
#869500
1i
#870500
0A
0/
#871500
1q
#876500
0:"
b0 t
0#"
#878500
0a
0g
#880000
16"
1/"
1""
b1101 &
b1101 v
b1101 D"
b1101 G"
0$
#885500
1`
1f
#887500
1K
#894500
0_
#897500
0J
#900000
1$
#904500
1H
#920000
06"
0/"
1)"
b11 &
b11 v
b11 D"
b11 G"
0$
#940000
1$
#960000
1#
0$
#967000
0+
0:
0N
0Z
0e
#969000
0.
0@
0V
0d
#970000
0l
#974000
1:"
b1 t
1#"
#976000
1*
11
1M
1Y
#978000
1@"
1>"
1<"
19"
14"
b1111 t
1*"
#980000
1;"
1="
1?"
1A"
b1011 I"
1$
#982500
1&"
1!"
1x
1%"
1$"
1w
11"
10"
1,"
1+"
1y
18"
17"
15"
1z
b1111 '
b1111 %
b1111 u
b1111 C"
#983000
00
0L
0X
#989500
0c
#991500
0K
0T
06
#992000
1/
1A
1W
#992500
0q
0r
0p
0o
#998500
1b
#999500
1g
1a
#1000000
13"
12"
1."
1-"
1("
1'"
1~
1}
1|
1{
b11 "
b11 )
b11 E"
b11 H"
0$
#1000500
1J
1S
12
#1001000
0@"
0>"
0<"
09"
04"
b1 t
0*"
#1001500
1U
#1006500
0f
0I
#1007000
0E
0j
#1007500
0P
#1008500
05
#1009000
0Q
#1009500
01
#1010000
0m
0n
#1010500
0S
0R
#1013500
1e
#1014000
1,
#1014500
1L
#1015500
13
#1016000
1P
1>
#1016500
10
#1017000
1E
#1017500
14
#1019000
1k
#1019500
1R
#1020000
0A"
0?"
0="
1J"
b11 I"
1$
#1020500
0:"
b0 t
0#"
#1022500
08"
07"
05"
0z
01"
00"
0,"
0+"
0y
0%"
0$"
0w
b1 '
b1 %
b1 u
b1 C"
#1023000
0L
0*
#1024500
02
#1025000
0=
#1025500
0/
#1026000
0[
0h
0>
#1029500
15
1I
1c
#1031500
1o
1p
1r
#1032000
1s
#1033000
1Z
1f
#1033500
11
#1034500
1@"
b1000 t
19"
#1035000
1=
#1036500
0H
0`
#1038500
0U
#1039500
04
0b
#1040000
0""
b10 &
b10 v
b10 D"
b10 G"
0e
0$
#1040500
00
#1043000
0Y
#1047000
1:"
1h
b1001 t
1#"
#1047500
16
1S
#1048500
1T
#1049500
1/
#1050000
1X
#1054000
0f
#1057500
0S
0R
#1058500
0@"
b1 t
09"
#1059000
0W
#1060000
1B"
b10 I"
1$
#1061000
1e
#1062500
1(
1!
#1066500
1R
#1068000
0:"
1<"
0#"
b10 t
1*"
#1080000
16"
1/"
0)"
1""
b1101 &
b1101 v
b1101 D"
b1101 G"
0#
0$
#1087000
0;
0O
1[
0h
1+
1:
1N
#1089000
1@
1V
1d
1l
#1094000
1f
#1096000
0i
01
#1097000
0M
#1098000
0<"
b0 t
0*"
#1100000
0;"
1$
#1102500
0&"
0!"
0x
b0 '
b0 %
b0 u
b0 C"
#1103000
1:"
b1 t
1#"
10
#1104000
1L
#1109500
1i
#1111500
1q
#1112000
0/
#1113000
0A
#1116500
0:"
b0 t
0#"
#1118500
0a
#1120000
06"
0/"
1)"
b11 &
b11 v
b11 D"
b11 G"
1#
0$
#1125500
1`
#1127000
1;
1O
0[
0+
0Z
0e
#1127500
1K
#1129000
0@
0V
0d
#1130000
0l
#1134000
1:"
0:
0N
1Z
b1 t
1#"
#1137500
0J
#1138000
1@"
1>"
1<"
19"
14"
b1111 t
1*"
#1140000
1;"
1="
1?"
1A"
b11 I"
1$
#1142500
1&"
1!"
1x
1%"
1$"
1w
11"
10"
1,"
1+"
1y
18"
17"
15"
1z
b1111 '
b1111 %
b1111 u
b1111 C"
#1143000
11
1M
#1144500
1H
#1149500
0c
#1150000
00
0L
#1151500
0K
0T
06
#1152500
0q
0r
0p
0o
#1158500
1b
#1159000
1/
1A
#1159500
1a
#1160000
16"
0""
b1010 &
b1010 v
b1010 D"
b1010 G"
0#
0$
#1160500
1J
1S
#1161500
1U
#1166500
0I
#1167000
0;
1h
1+
1:
1N
1e
#1168000
0@"
0>"
09"
b11 t
04"
#1168500
05
#1169000
1l
#1170500
0S
0R
#1174000
0:"
0f
b10 t
0#"
#1176000
0i
01
#1177000
0M
#1177500
14
#1179500
1R
#1180000
0A"
0?"
0;"
1$
#1182500
08"
07"
05"
0z
01"
00"
0,"
0+"
0y
0&"
0!"
0x
b10 '
b10 %
b10 u
b10 C"
#1183000
1:"
b11 t
1#"
10
#1184000
1L
#1189500
15
1I
1c
1i
#1191500
1@
1o
1V
1p
1q
#1192000
0/
#1193000
0A
#1196500
0:"
0H
0`
b10 t
0#"
#1198500
0U
#1199500
04
0b
#1200000
06"
b10 &
b10 v
b10 D"
b10 G"
0$
#1207000
1;
#1207500
16
1S
#1208500
1T
#1217500
0S
0R
#1220000
1$
#1226500
1R
#1240000
0)"
1""
b1 &
b1 v
b1 D"
b1 G"
0$
#1247000
1[
0h
#1254000
1f
