tarea4/output/gtkwave/synth200_verif.vcd
$date
	Sun May 24 17:43:42 2020
$end
$version
	Icarus Verilog
$end
$timescale
	1ps
$end
$scope module tb_top $end
$var wire 1 ! rco $end
$var wire 2 " modo [1:0] $end
$var wire 1 # enable $end
$var wire 1 $ clock $end
$var wire 4 % Q [3:0] $end
$var wire 4 & D [3:0] $end
$scope module clocks $end
$var reg 1 $ clock $end
$upscope $end
$scope module dut $end
$var wire 4 ' Qstatus [3:0] $end
$var wire 1 ( RCOstatus $end
$var wire 1 $ clk $end
$var wire 1 ! rco $end
$var wire 2 ) modo [1:0] $end
$var wire 1 # enable $end
$var wire 1 * _074_ $end
$var wire 1 + _073_ $end
$var wire 1 , _072_ $end
$var wire 1 - _071_ $end
$var wire 1 . _070_ $end
$var wire 1 / _069_ $end
$var wire 1 0 _068_ $end
$var wire 1 1 _067_ $end
$var wire 1 2 _066_ $end
$var wire 1 3 _065_ $end
$var wire 1 4 _064_ $end
$var wire 1 5 _063_ $end
$var wire 1 6 _062_ $end
$var wire 1 7 _061_ $end
$var wire 1 8 _060_ $end
$var wire 1 9 _059_ $end
$var wire 1 : _058_ $end
$var wire 1 ; _057_ $end
$var wire 1 < _056_ $end
$var wire 1 = _055_ $end
$var wire 1 > _054_ $end
$var wire 1 ? _053_ $end
$var wire 1 @ _052_ $end
$var wire 1 A _051_ $end
$var wire 1 B _050_ $end
$var wire 1 C _049_ $end
$var wire 1 D _048_ $end
$var wire 1 E _047_ $end
$var wire 1 F _046_ $end
$var wire 1 G _045_ $end
$var wire 1 H _044_ $end
$var wire 1 I _043_ $end
$var wire 1 J _042_ $end
$var wire 1 K _041_ $end
$var wire 1 L _040_ $end
$var wire 1 M _039_ $end
$var wire 1 N _038_ $end
$var wire 1 O _037_ $end
$var wire 1 P _036_ $end
$var wire 1 Q _035_ $end
$var wire 1 R _034_ $end
$var wire 1 S _033_ $end
$var wire 1 T _032_ $end
$var wire 1 U _031_ $end
$var wire 1 V _030_ $end
$var wire 1 W _029_ $end
$var wire 1 X _028_ $end
$var wire 1 Y _027_ $end
$var wire 1 Z _026_ $end
$var wire 1 [ _025_ $end
$var wire 1 \ _024_ $end
$var wire 1 ] _023_ $end
$var wire 1 ^ _022_ $end
$var wire 1 _ _021_ $end
$var wire 1 ` _020_ $end
$var wire 1 a _019_ $end
$var wire 1 b _018_ $end
$var wire 1 c _017_ $end
$var wire 1 d _016_ $end
$var wire 1 e _015_ $end
$var wire 1 f _014_ $end
$var wire 1 g _013_ $end
$var wire 1 h _012_ $end
$var wire 1 i _011_ $end
$var wire 1 j _010_ $end
$var wire 1 k _009_ $end
$var wire 1 l _008_ $end
$var wire 1 m _007_ $end
$var wire 1 n _006_ $end
$var wire 1 o _005_ $end
$var wire 1 p _004_ $end
$var wire 1 q _003_ $end
$var wire 1 r _002_ $end
$var wire 1 s _001_ $end
$var wire 4 t _000_ [3:0] $end
$var wire 4 u Q [3:0] $end
$var wire 4 v D [3:0] $end
$scope module _075_ $end
$var wire 1 w A $end
$var wire 1 r Y $end
$upscope $end
$scope module _076_ $end
$var wire 1 x A $end
$var wire 1 q Y $end
$upscope $end
$scope module _077_ $end
$var wire 1 y A $end
$var wire 1 p Y $end
$upscope $end
$scope module _078_ $end
$var wire 1 z A $end
$var wire 1 o Y $end
$upscope $end
$scope module _079_ $end
$var wire 1 { A $end
$var wire 1 n Y $end
$upscope $end
$scope module _080_ $end
$var wire 1 | A $end
$var wire 1 m Y $end
$upscope $end
$scope module _081_ $end
$var wire 1 l Y $end
$var wire 1 # A $end
$upscope $end
$scope module _082_ $end
$var wire 1 k Y $end
$var wire 1 m B $end
$var wire 1 n A $end
$upscope $end
$scope module _083_ $end
$var wire 1 } A $end
$var wire 1 ~ B $end
$var wire 1 j Y $end
$upscope $end
$scope module _084_ $end
$var wire 1 !" A $end
$var wire 1 i Y $end
$var wire 1 l B $end
$upscope $end
$scope module _085_ $end
$var wire 1 "" A $end
$var wire 1 h Y $end
$var wire 1 k B $end
$upscope $end
$scope module _086_ $end
$var wire 1 g Y $end
$var wire 1 j B $end
$var wire 1 q A $end
$upscope $end
$scope module _087_ $end
$var wire 1 f Y $end
$var wire 1 g B $end
$var wire 1 h A $end
$upscope $end
$scope module _088_ $end
$var wire 1 e Y $end
$var wire 1 f B $end
$var wire 1 # A $end
$upscope $end
$scope module _089_ $end
$var wire 1 #" Y $end
$var wire 1 e B $end
$var wire 1 i A $end
$upscope $end
$scope module _090_ $end
$var wire 1 $" A $end
$var wire 1 d Y $end
$var wire 1 # B $end
$upscope $end
$scope module _091_ $end
$var wire 1 %" A $end
$var wire 1 &" B $end
$var wire 1 c Y $end
$upscope $end
$scope module _092_ $end
$var wire 1 b Y $end
$var wire 1 c A $end
$upscope $end
$scope module _093_ $end
$var wire 1 a Y $end
$var wire 1 q B $end
$var wire 1 r A $end
$upscope $end
$scope module _094_ $end
$var wire 1 ` Y $end
$var wire 1 a B $end
$var wire 1 c A $end
$upscope $end
$scope module _095_ $end
$var wire 1 '" A $end
$var wire 1 _ Y $end
$var wire 1 ` B $end
$upscope $end
$scope module _096_ $end
$var wire 1 (" B $end
$var wire 1 ^ Y $end
$var wire 1 n A $end
$upscope $end
$scope module _097_ $end
$var wire 1 ] Y $end
$var wire 1 ^ A $end
$upscope $end
$scope module _098_ $end
$var wire 1 \ Y $end
$var wire 1 ^ B $end
$var wire 1 ` A $end
$upscope $end
$scope module _099_ $end
$var wire 1 )" A $end
$var wire 1 [ Y $end
$var wire 1 k B $end
$upscope $end
$scope module _100_ $end
$var wire 1 Z Y $end
$var wire 1 [ B $end
$var wire 1 # A $end
$upscope $end
$scope module _101_ $end
$var wire 1 Y Y $end
$var wire 1 Z A $end
$upscope $end
$scope module _102_ $end
$var wire 1 X Y $end
$var wire 1 Y B $end
$var wire 1 \ A $end
$upscope $end
$scope module _103_ $end
$var wire 1 W Y $end
$var wire 1 X B $end
$var wire 1 _ A $end
$upscope $end
$scope module _104_ $end
$var wire 1 *" Y $end
$var wire 1 W B $end
$var wire 1 d A $end
$upscope $end
$scope module _105_ $end
$var wire 1 +" A $end
$var wire 1 V Y $end
$var wire 1 # B $end
$upscope $end
$scope module _106_ $end
$var wire 1 U Y $end
$var wire 1 c B $end
$var wire 1 p A $end
$upscope $end
$scope module _107_ $end
$var wire 1 ," A $end
$var wire 1 T Y $end
$var wire 1 b B $end
$upscope $end
$scope module _108_ $end
$var wire 1 S Y $end
$var wire 1 T B $end
$var wire 1 U A $end
$upscope $end
$scope module _109_ $end
$var wire 1 R Y $end
$var wire 1 S A $end
$upscope $end
$scope module _110_ $end
$var wire 1 -" A $end
$var wire 1 ." B $end
$var wire 1 Q Y $end
$upscope $end
$scope module _111_ $end
$var wire 1 P Y $end
$var wire 1 Q B $end
$var wire 1 S A $end
$upscope $end
$scope module _112_ $end
$var wire 1 /" A $end
$var wire 1 O Y $end
$var wire 1 k B $end
$upscope $end
$scope module _113_ $end
$var wire 1 N Y $end
$var wire 1 O B $end
$var wire 1 # A $end
$upscope $end
$scope module _114_ $end
$var wire 1 M Y $end
$var wire 1 N A $end
$upscope $end
$scope module _115_ $end
$var wire 1 L Y $end
$var wire 1 M B $end
$var wire 1 P A $end
$upscope $end
$scope module _116_ $end
$var wire 1 0" A $end
$var wire 1 K Y $end
$var wire 1 a B $end
$upscope $end
$scope module _117_ $end
$var wire 1 J Y $end
$var wire 1 K A $end
$upscope $end
$scope module _118_ $end
$var wire 1 1" A $end
$var wire 1 I Y $end
$var wire 1 a B $end
$upscope $end
$scope module _119_ $end
$var wire 1 H Y $end
$var wire 1 I B $end
$var wire 1 J A $end
$upscope $end
$scope module _120_ $end
$var wire 1 G Y $end
$var wire 1 H B $end
$var wire 1 ^ A $end
$upscope $end
$scope module _121_ $end
$var wire 1 2" A $end
$var wire 1 F Y $end
$var wire 1 m B $end
$upscope $end
$scope module _122_ $end
$var wire 1 3" B $end
$var wire 1 E Y $end
$var wire 1 n A $end
$upscope $end
$scope module _123_ $end
$var wire 1 D Y $end
$var wire 1 F B $end
$var wire 1 R A $end
$upscope $end
$scope module _124_ $end
$var wire 1 C Y $end
$var wire 1 D B $end
$var wire 1 G A $end
$upscope $end
$scope module _125_ $end
$var wire 1 B Y $end
$var wire 1 K B $end
$var wire 1 ^ A $end
$upscope $end
$scope module _126_ $end
$var wire 1 A Y $end
$var wire 1 C B $end
$var wire 1 L A $end
$upscope $end
$scope module _127_ $end
$var wire 1 4" Y $end
$var wire 1 A B $end
$var wire 1 V A $end
$upscope $end
$scope module _128_ $end
$var wire 1 5" A $end
$var wire 1 @ Y $end
$var wire 1 # B $end
$upscope $end
$scope module _129_ $end
$var wire 1 ? Y $end
$var wire 1 K B $end
$var wire 1 ] A $end
$upscope $end
$scope module _130_ $end
$var wire 1 > Y $end
$var wire 1 E B $end
$var wire 1 T A $end
$upscope $end
$scope module _131_ $end
$var wire 1 = Y $end
$var wire 1 > B $end
$var wire 1 ? A $end
$upscope $end
$scope module _132_ $end
$var wire 1 < Y $end
$var wire 1 = B $end
$var wire 1 o A $end
$upscope $end
$scope module _133_ $end
$var wire 1 6" A $end
$var wire 1 ; Y $end
$var wire 1 k B $end
$upscope $end
$scope module _134_ $end
$var wire 1 : Y $end
$var wire 1 ; B $end
$var wire 1 # A $end
$upscope $end
$scope module _135_ $end
$var wire 1 9 Y $end
$var wire 1 F B $end
$var wire 1 T A $end
$upscope $end
$scope module _136_ $end
$var wire 1 8 Y $end
$var wire 1 9 B $end
$var wire 1 B A $end
$upscope $end
$scope module _137_ $end
$var wire 1 7 Y $end
$var wire 1 8 B $end
$var wire 1 o A $end
$upscope $end
$scope module _138_ $end
$var wire 1 7" A $end
$var wire 1 6 Y $end
$var wire 1 U B $end
$upscope $end
$scope module _139_ $end
$var wire 1 8" A $end
$var wire 1 5 Y $end
$var wire 1 U B $end
$upscope $end
$scope module _140_ $end
$var wire 1 4 Y $end
$var wire 1 5 A $end
$upscope $end
$scope module _141_ $end
$var wire 1 3 Y $end
$var wire 1 5 B $end
$var wire 1 Q A $end
$upscope $end
$scope module _142_ $end
$var wire 1 2 Y $end
$var wire 1 3 B $end
$var wire 1 6 A $end
$upscope $end
$scope module _143_ $end
$var wire 1 1 Y $end
$var wire 1 2 B $end
$var wire 1 : A $end
$upscope $end
$scope module _144_ $end
$var wire 1 0 Y $end
$var wire 1 1 B $end
$var wire 1 7 A $end
$upscope $end
$scope module _145_ $end
$var wire 1 / Y $end
$var wire 1 0 B $end
$var wire 1 < A $end
$upscope $end
$scope module _146_ $end
$var wire 1 9" Y $end
$var wire 1 / B $end
$var wire 1 @ A $end
$upscope $end
$scope module _147_ $end
$var wire 1 . Y $end
$var wire 1 ! B $end
$var wire 1 # A $end
$upscope $end
$scope module _148_ $end
$var wire 1 - Y $end
$var wire 1 4 B $end
$var wire 1 Q A $end
$upscope $end
$scope module _149_ $end
$var wire 1 , Y $end
$var wire 1 7 B $end
$var wire 1 j A $end
$upscope $end
$scope module _150_ $end
$var wire 1 + Y $end
$var wire 1 - B $end
$var wire 1 # A $end
$upscope $end
$scope module _151_ $end
$var wire 1 * Y $end
$var wire 1 + B $end
$var wire 1 , A $end
$upscope $end
$scope module _152_ $end
$var wire 1 s Y $end
$var wire 1 * B $end
$var wire 1 . A $end
$upscope $end
$scope module _153_ $end
$var wire 1 $ C $end
$var wire 1 :" D $end
$var reg 1 ;" Q $end
$upscope $end
$scope module _154_ $end
$var wire 1 $ C $end
$var wire 1 <" D $end
$var reg 1 =" Q $end
$upscope $end
$scope module _155_ $end
$var wire 1 $ C $end
$var wire 1 >" D $end
$var reg 1 ?" Q $end
$upscope $end
$scope module _156_ $end
$var wire 1 $ C $end
$var wire 1 @" D $end
$var reg 1 A" Q $end
$upscope $end
$scope module _157_ $end
$var wire 1 $ C $end
$var wire 1 s D $end
$var reg 1 B" Q $end
$upscope $end
$upscope $end
$scope module tb $end
$var wire 4 C" Q [3:0] $end
$var wire 1 $ clk $end
$var wire 1 ! rco $end
$var reg 4 D" D [3:0] $end
$var reg 1 # enable $end
$var reg 2 E" modo [1:0] $end
$var integer 32 F" log [31:0] $end
$scope module sb $end
$var wire 4 G" D [3:0] $end
$var wire 1 $ clk $end
$var wire 1 # enable $end
$var wire 2 H" modo [1:0] $end
$var reg 4 I" sb_Q [3:0] $end
$var reg 1 J" sb_rco $end
$upscope $end
$scope task checker $end
$upscope $end
$scope task completely_random_checker $end
$upscope $end
$scope task drv_completely_random_request $end
$upscope $end
$scope task drv_init $end
$upscope $end
$scope task drv_random_request $end
$upscope $end
$scope task drv_request $end
$upscope $end
$scope task random_checker $end
$upscope $end
$upscope $end
$upscope $end
$enddefinitions $end
#0
$dumpvars
xJ"
bx I"
bx H"
bx G"
b10 F"
bx E"
bx D"
bx C"
xB"
xA"
x@"
x?"
x>"
x="
x<"
x;"
x:"
x9"
x8"
x7"
x6"
x5"
x4"
x3"
x2"
x1"
x0"
x/"
x."
x-"
x,"
x+"
x*"
x)"
x("
x'"
x&"
x%"
x$"
x#"
x""
x!"
x~
x}
x|
x{
xz
xy
xx
xw
bx v
bx u
bx t
xs
xr
xq
xp
xo
xn
xm
xl
xk
xj
xi
xh
xg
xf
xe
xd
xc
xb
xa
x`
x_
x^
x]
x\
x[
xZ
xY
xX
xW
xV
xU
xT
xS
xR
xQ
xP
xO
xN
xM
xL
xK
xJ
xI
xH
xG
xF
xE
xD
xC
xB
xA
x@
x?
x>
x=
x<
x;
x:
x9
x8
x7
x6
x5
x4
x3
x2
x1
x0
x/
x.
x-
x,
x+
x*
bx )
x(
bx '
bx &
bx %
0$
x#
bx "
x!
$end
#200000
1$
#400000
0#
13"
12"
1."
1-"
1("
1'"
1~
1}
1|
1{
16"
1/"
1)"
1""
b11 "
b11 )
b11 E"
b11 H"
b1111 &
b1111 v
b1111 D"
b1111 G"
0$
#407000
1+
1:
1N
1Z
1e
0j
#409000
1l
0F
0Q
0^
0_
#410000
0m
0n
#414000
1,
1g
#416000
19
1D
1-
13
1P
1B
1G
1\
0*
01
#417000
1E
0M
0Y
#418000
1]
#419000
1k
#423000
08
0C
10
#424000
1L
1X
#425000
02
#426000
0;
0O
0[
0h
0>
#427000
0?
#430000
17
#432000
0/
#433000
1f
0A
0W
#436000
1=
#445000
0<
#600000
1$
#800000
1#
0$
#807000
0+
0e
#809000
0.
0@
0V
0d
#810000
0l
#814000
1:"
bx1 t
1#"
#817000
1i
#818000
1@"
1>"
1<"
1s
19"
14"
b1111 t
1*"
#1000000
1;"
1="
1?"
1A"
1B"
1J"
b1111 I"
1$
#1002500
1&"
1!"
1x
1%"
1$"
1w
11"
10"
1,"
1+"
1y
18"
17"
15"
1z
b1111 '
b1111 %
b1111 u
b1111 C"
1(
1!
#1009500
0c
#1011500
0K
0T
06
#1012500
0q
0r
0p
0o
#1016500
1`
#1018500
1b
#1019500
1a
#1020500
1J
#1021500
1U
#1026500
0I
#1028500
05
#1030500
0S
#1033500
1H
#1037500
14
#1039500
1R
#1200000
0$
#1400000
1$
#1600000
03"
02"
0."
0-"
0("
0'"
0~
0}
0|
0{
b0 "
b0 )
b0 E"
b0 H"
0$
#1607000
1j
#1609000
1F
1Q
1^
1m
1n
#1614000
0,
#1616000
0D
0-
0G
0\
#1618000
0F
0^
0k
#1623000
1+
1C
1*
#1625000
1D
1G
1\
1;
1O
1[
1h
#1632000
0C
0:
0N
0Z
0f
0*
0s
#1639000
1e
#1641000
11
1M
1Y
1s
#1646000
0:"
b1110 t
0#"
#1648000
00
0L
0X
#1657000
1/
1A
1W
#1666000
0@"
0>"
0<"
09"
04"
b0 t
0*"
#1800000
0;"
0="
0?"
0A"
b0 I"
1J"
1$
#1802500
0&"
0!"
0x
0%"
0$"
0w
01"
00"
0,"
0+"
0y
08"
07"
05"
0z
b0 '
b0 %
b0 u
b0 C"
#1809500
1c
1I
15
#1811500
1q
1r
1p
1o
#1816500
0`
0H
03
#1818500
0g
0a
0U
#1819500
0b
04
#1825500
1f
1`
1_
12
#1826500
1-
#1827500
1K
16
1S
#1828500
1T
#1832500
0e
#1833500
0+
#1834500
0P
0_
0W
01
#1836500
02
#1837500
0S
0J
0R
#1839500
1:"
b1 t
1#"
#1841500
1L
10
#1842500
1*
#1843500
1<"
1W
b11 t
1*"
#1844500
1P
1H
#1845500
11
#1846500
1R
#1850500
0A
0/
#1851500
0L
0s
#1852500
0<"
00
b1 t
0*"
#1859500
1>"
1@"
14"
b1101 t
19"
#1860500
1A
#1861500
1/
#1869500
0>"
b1001 t
04"
#1870500
0@"
b1 t
09"
#2000000
06"
0/"
0)"
b1 &
b1 v
b1 D"
b1 G"
0#
0$
#2007000
1+
1:
1N
1Z
1e
#2009000
1@
1V
1d
1l
#2014000
0:"
b0 t
0#"
#2016000
0*
01
#2017000
0M
0Y
#2023000
10
#2024000
1L
1X
#2025000
1s
#2032000
0/
#2033000
0A
0W
#2200000
1$
#2400000
1)"
b11 &
b11 v
b11 D"
b11 G"
1#
0$
#2407000
0+
0:
0N
0Z
0e
#2409000
0@
0V
0d
#2410000
0l
#2414000
1:"
b1 t
1#"
#2416000
1*
11
1M
1Y
#2418000
1@"
1>"
1<"
19"
14"
b1111 t
1*"
#2423000
00
0L
0X
#2425000
0s
#2432000
1/
1A
1W
#2441000
0@"
0>"
0<"
09"
04"
b1 t
0*"
#2600000
1;"
0B"
b1 I"
0J"
1$
#2602500
1&"
1!"
1x
b1 '
b1 %
b1 u
b1 C"
0(
0!
#2612500
0q
#2619500
1a
1g
#2626500
0`
0f
#2628500
0K
#2633500
1e
#2635500
1_
#2637500
1J
#2640500
0:"
b0 t
0#"
#2644500
0H
0W
#2653500
1<"
b10 t
1*"
#2800000
16"
1/"
0)"
b1101 &
b1101 v
b1101 D"
b1101 G"
0$
#3000000
1="
0;"
b10 I"
1$
#3002500
1%"
1$"
1w
0&"
0!"
0x
b10 '
b10 %
b10 u
b10 C"
#3011500
1q
#3012500
0r
#3018500
0g
#3025500
1f
#3032500
0e
#3039500
1:"
b11 t
1#"
#3200000
06"
0/"
1)"
0""
b10 &
b10 v
b10 D"
b10 G"
0$
#3400000
1;"
b11 I"
1$
#3402500
1&"
1!"
1x
b11 '
b11 %
b11 u
b11 C"
#3409500
0c
#3412500
0q
#3416500
1`
#3418500
1b
#3419500
1g
#3425500
0_
#3426500
0f
#3427500
0T
#3433500
1e
#3434500
1W
#3436500
1S
#3440500
0:"
b10 t
0#"
#3443500
0<"
0P
b0 t
0*"
#3446500
0R
#3450500
1L
#3459500
0A
#3468500
1>"
b100 t
14"
#3600000
16"
1/"
0)"
1""
b1101 &
b1101 v
b1101 D"
b1101 G"
0$
#3800000
1?"
0="
0;"
b100 I"
1$
#3802500
11"
10"
1,"
1+"
1y
0%"
0$"
0w
0&"
0!"
0x
b100 '
b100 %
b100 u
b100 C"
#3809500
0I
1c
#3811500
1r
1q
#3812500
0p
#3816500
1H
0`
#3818500
0a
0g
#3819500
0b
#3825500
1I
1`
1f
1_
#3832500
0H
0e
#3834500
0_
0W
#3839500
1:"
b101 t
1#"
#3843500
1<"
1W
b111 t
1*"
#3852500
0<"
b101 t
0*"
#4000000
0#
0$
#4007000
1+
1:
1N
1Z
1e
#4009000
1.
1@
1d
1l
#4014000
0:"
b100 t
0#"
#4016000
0*
01
#4017000
0M
0Y
#4023000
10
#4024000
1X
#4032000
0/
#4033000
0W
#4200000
1$
#4400000
0""
b1100 &
b1100 v
b1100 D"
b1100 G"
1#
0$
#4407000
0+
0:
0N
0Z
0e
#4409000
0.
0@
0d
#4410000
0l
#4414000
1:"
b101 t
1#"
#4416000
1*
11
1M
1Y
#4418000
1@"
1<"
19"
b1111 t
1*"
#4423000
00
0X
#4432000
1/
1W
#4441000
0@"
0<"
09"
b101 t
0*"
#4600000
1;"
b101 I"
1$
#4602500
1&"
1!"
1x
b101 '
b101 %
b101 u
b101 C"
#4612500
0q
#4619500
1a
1g
#4626500
0I
0`
0f
#4633500
1H
1e
#4635500
1_
#4640500
0:"
b100 t
0#"
#4644500
0W
#4653500
1<"
b110 t
1*"
#4800000
06"
1)"
b110 &
b110 v
b110 D"
b110 G"
0$
#5000000
0;"
1="
b110 I"
1$
#5002500
0&"
0!"
0x
1%"
1$"
1w
b110 '
b110 %
b110 u
b110 C"
#5011500
1q
#5012500
0r
#5018500
0g
#5025500
1f
#5032500
0e
#5039500
1:"
b111 t
1#"
#5200000
16"
0/"
b1010 &
b1010 v
b1010 D"
b1010 G"
0$
#5400000
1;"
b111 I"
1$
#5402500
1&"
1!"
1x
b111 '
b111 %
b111 u
b111 C"
#5409500
0c
#5412500
0q
#5416500
1`
#5418500
1U
1b
#5419500
1g
#5425500
0_
#5426500
0f
#5427500
06
0S
#5433500
1e
#5434500
1P
1W
#5436500
12
1R
#5440500
0:"
b110 t
0#"
#5441500
0L
#5443500
0<"
b100 t
0*"
#5445500
01
#5450500
1A
#5452500
10
#5459500
0>"
b0 t
04"
#5461500
0/
#5470500
1@"
b1000 t
19"
#5600000
06"
1/"
1""
b111 &
b111 v
b111 D"
b111 G"
0$
#5800000
0;"
0="
0?"
1A"
b1000 I"
1$
#5802500
0&"
0!"
0x
0%"
0$"
0w
01"
00"
0,"
0+"
0y
18"
17"
15"
1z
b1000 '
b1000 %
b1000 u
b1000 C"
#5809500
1c
1I
05
#5811500
1q
1r
1p
#5812500
0o
#5816500
0`
0H
13
#5818500
0g
0a
0U
14
#5819500
0b
#5825500
1f
1`
15
0-
1_
02
#5827500
1K
1S
#5828500
1T
#5832500
0e
03
1+
#5834500
0P
0_
0W
11
#5835500
04
#5837500
0S
0J
0R
#5839500
1:"
b1001 t
1#"
#5841500
1L
00
12
0*
#5842500
1-
#5843500
1<"
1W
b1011 t
1*"
#5844500
1P
1H
#5846500
1R
#5849500
0+
#5850500
0A
1/
01
1s
#5851500
0L
#5852500
0<"
b1001 t
0*"
#5857500
10
#5858500
1*
#5859500
1>"
0@"
14"
b101 t
09"
#5860500
1A
#5866500
0/
#5867500
0s
#5869500
0>"
b1 t
04"
#5875500
1@"
b1001 t
19"
#6000000
16"
b1111 &
b1111 v
b1111 D"
b1111 G"
0#
0$
#6007000
1+
1:
1N
1Z
1e
#6009000
1.
1V
1d
1l
#6014000
0:"
b1000 t
0#"
#6016000
0*
#6017000
0M
0Y
#6024000
1L
1X
#6033000
0A
0W
#6200000
1$
#6400000
0""
b1110 &
b1110 v
b1110 D"
b1110 G"
0$
#6600000
1$
#6800000
06"
0)"
1""
b101 &
b101 v
b101 D"
b101 G"
0$
#7000000
1$
#7200000
16"
b1101 &
b1101 v
b1101 D"
b1101 G"
0$
#7400000
1$
#7600000
06"
b101 &
b101 v
b101 D"
b101 G"
1#
0$
#7607000
0+
0:
0N
0Z
0e
#7609000
0.
0V
0d
#7610000
0l
#7614000
1:"
b1001 t
1#"
#7616000
1*
1M
1Y
#7618000
1>"
1<"
14"
b1111 t
1*"
#7623000
0L
0X
#7632000
1A
1W
#7641000
0>"
0<"
04"
b1001 t
0*"
#7800000
1;"
b1001 I"
1$
#7802500
1&"
1!"
1x
b1001 '
b1001 %
b1001 u
b1001 C"
#7812500
0q
#7819500
1a
1g
#7826500
0`
0f
#7828500
0K
#7833500
1e
#7835500
1_
#7837500
1J
#7840500
0:"
b1000 t
0#"
#7844500
0H
0W
#7853500
1<"
b1010 t
1*"
#8000000
16"
0/"
1)"
0""
b1010 &
b1010 v
b1010 D"
b1010 G"
0$
#8200000
0;"
1="
b1010 I"
1$
#8202500
0&"
0!"
0x
1%"
1$"
1w
b1010 '
b1010 %
b1010 u
b1010 C"
#8211500
1q
#8212500
0r
#8218500
0g
#8225500
1f
#8232500
0e
#8239500
1:"
b1011 t
1#"
#8400000
06"
0)"
b0 &
b0 v
b0 D"
b0 G"
0#
0$
#8407000
1+
1:
1N
1Z
1e
#8409000
1.
1V
1l
#8414000
0:"
b1010 t
0#"
#8416000
0*
#8417000
0M
0Y
#8424000
1L
1X
#8433000
0A
#8600000
1$
#8800000
16"
1/"
1""
b1101 &
b1101 v
b1101 D"
b1101 G"
0$
#9000000
1$
#9200000
06"
0/"
1)"
b11 &
b11 v
b11 D"
b11 G"
0$
#9400000
1$
#9600000
1#
0$
#9607000
0+
0:
0N
0Z
0e
#9609000
0.
0V
#9610000
0l
#9614000
1:"
b1011 t
1#"
#9616000
1*
1M
1Y
#9618000
1>"
b1111 t
14"
#9623000
0L
0X
#9632000
1A
#9641000
0>"
b1011 t
04"
#9800000
1;"
b1011 I"
1$
#9802500
1&"
1!"
1x
b1011 '
b1011 %
b1011 u
b1011 C"
#9809500
0c
#9812500
0q
#9816500
1`
#9818500
1b
#9819500
1g
#9825500
0_
#9826500
0f
#9827500
0T
#9833500
1e
#9834500
1W
#9836500
1S
#9840500
0:"
b1010 t
0#"
#9843500
0<"
0P
b1000 t
0*"
#9846500
0R
#9850500
1L
#9859500
0A
#9868500
1>"
b1100 t
14"
#10000000
13"
12"
1."
1-"
1("
1'"
1~
1}
1|
1{
b11 "
b11 )
b11 E"
b11 H"
0$
#10007000
0E
0j
#10009000
0Q
#10010000
0m
0n
#10014000
1,
#10016000
13
1P
1>
#10017000
1E
#10019000
1k
#10023000
0L
0*
#10025000
02
0=
#10026000
0[
0h
0>
#10032000
1A
1s
#10033000
1Z
1f
#10034000
11
1<
#10035000
1=
#10040000
0e
#10041000
0>"
00
b1000 t
04"
#10043000
0Y
#10044000
0<
#10047000
1:"
b1001 t
1#"
#10050000
1X
#10053000
1/
#10059000
0W
#10062000
0@"
b1 t
09"
#10068000
1<"
b11 t
1*"
#10200000
1B"
0A"
1J"
b11 I"
1$
#10202500
08"
07"
05"
0z
1(
1!
b11 '
b11 %
b11 u
b11 C"
#10211500
16
1o
#10400000
0""
b10 &
b10 v
b10 D"
b10 G"
0$
#10407000
1h
#10414000
0f
#10421000
1e
#10428000
0:"
b10 t
0#"
#10600000
0;"
b10 I"
1$
#10602500
0&"
0!"
0x
b10 '
b10 %
b10 u
b10 C"
#10609500
1c
#10611500
1q
#10616500
0`
#10619500
0b
#10628500
1T
#10637500
0S
#10646500
1R
#10800000
16"
1/"
0)"
1""
b1101 &
b1101 v
b1101 D"
b1101 G"
0#
0$
#10807000
0;
0O
1[
0h
1+
1:
1N
#10809000
1@
1V
1l
#10814000
1f
#10816000
01
#10817000
0M
#10823000
10
#10824000
1L
#10832000
0/
#10833000
0A
#11000000
1$
#11200000
06"
0/"
1)"
b11 &
b11 v
b11 D"
b11 G"
1#
0$
#11207000
1;
1O
0[
0+
0Z
0e
#11209000
0@
0V
#11210000
0l
#11214000
1:"
0:
0N
1Z
b11 t
1#"
#11218000
1@"
1>"
19"
b1111 t
14"
#11223000
11
1M
#11230000
00
0L
#11239000
1/
1A
#11248000
0@"
0>"
09"
b11 t
04"
#11400000
1;"
b11 I"
1$
#11402500
1&"
1!"
1x
b11 '
b11 %
b11 u
b11 C"
#11409500
0c
#11412500
0q
#11416500
1`
#11418500
1b
#11427500
0T
#11436500
1S
#11446500
0R
#11600000
16"
0""
b1010 &
b1010 v
b1010 D"
b1010 G"
0#
0$
#11607000
0;
1h
1+
1:
1N
1e
#11609000
1@
1V
1l
#11614000
0:"
0f
b10 t
0#"
#11616000
0i
01
#11617000
0M
#11623000
1:"
b11 t
1#"
10
#11624000
1L
#11632000
0/
#11633000
0A
#11800000
1$
#12000000
06"
b10 &
b10 v
b10 D"
b10 G"
0$
#12007000
1;
#12200000
1$
#12400000
0)"
1""
b1 &
b1 v
b1 D"
b1 G"
0$
#12407000
1[
0h
#12414000
1f
#12600000
1$
#12800000
16"
0""
b1000 &
b1000 v
b1000 D"
b1000 G"
0$
#12807000
0;
1h
#12814000
0f
#13000000
1$
#13200000
1)"
1""
b1011 &
b1011 v
b1011 D"
b1011 G"
1#
0$
#13207000
0[
0h
0+
0N
0Z
#13209000
0@
0V
#13210000
0l
#13214000
1Z
1f
#13216000
1M
#13217000
1i
#13218000
1@"
1>"
19"
b1111 t
14"
#13221000
0e
#13223000
0L
#13232000
1A
#13241000
0>"
b1011 t
04"
#13400000
1A"
b1011 I"
1$
#13402500
18"
17"
15"
1z
b1011 '
b1011 %
b1011 u
b1011 C"
#13411500
06
#13412500
0o
#13600000
06"
1/"
0""
b110 &
b110 v
b110 D"
b110 G"
0#
0$
#13607000
1;
0O
1h
1+
1N
1e
#13609000
1V
1l
#13614000
0:"
0f
b1010 t
0#"
#13616000
0i
#13617000
0M
#13623000
1:"
b1011 t
1#"
#13624000
1L
#13633000
0A
#13800000
1$
#14000000
16"
0)"
b1100 &
b1100 v
b1100 D"
b1100 G"
0$
#14007000
0;
1[
#14200000
1$
#14400000
02"
0-"
0'"
0}
0{
b10 "
b10 )
b10 E"
b10 H"
0$
#14407000
1j
#14409000
1F
1n
#14414000
0,
#14416000
0E
#14418000
0k
#14425000
1;
1O
1>
#14434000
0=
#14443000
1<
#14600000
1$
#14800000
06"
0/"
1""
b1 &
b1 v
b1 D"
b1 G"
1#
0$
#14807000
0+
0:
0N
0Z
#14809000
0V
#14810000
0l
#14816000
1*
11
1M
1Y
#14817000
1i
#14818000
1>"
b1111 t
14"
#14823000
00
0L
0X
#14824000
0:"
b1110 t
0#"
#14825000
0s
#14832000
1A
1W
#14841000
0>"
0<"
04"
b1000 t
0*"
#15000000
0B"
0="
0;"
b1000 I"
0J"
1$
#15002500
0%"
0$"
0w
0&"
0!"
0x
0(
0!
b1000 '
b1000 %
b1000 u
b1000 C"
#15009500
1c
#15011500
1r
1q
#15016500
0`
#15018500
0a
0g
#15019500
0b
#15025500
1`
1f
1_
#15027500
1K
#15028500
1T
#15032500
0e
#15034500
0_
0W
#15035500
09
#15037500
0>
0S
0J
